http://sp4hack.blogspot.com.co/2012/10/theblacksheep-javascript-2-often-used_29.html
http://nopsrus.blogspot.com/2012/07/solution-for-bright-shadowsnet_06.html
https://www.youtube.com/watch?v=6zFLMmPA6As
