https://raw.githubusercontent.com/KingMob/cryptopals-crypto-challenges/master/src/app/set1.clj
https://raw.githubusercontent.com/cedi/cryptopals/master/Set1/Challenge5/main.cpp
https://raw.githubusercontent.com/JarLob/MatasanoCryptoChallenge/master/Tests/Set1.cs
https://raw.githubusercontent.com/adamenger/cryptopals-solutions/master/5/five.go
https://raw.githubusercontent.com/SomMeri/matasano-cryptopals-solutions/master/src/main/java/org/meri/matasano/Set5.java
https://raw.githubusercontent.com/HirotoShioi/cryptopals-in-js/master/set1/5/run.js
https://raw.githubusercontent.com/lt/php-cryptopals/master/Cryptopals/Set1/Challenge5/Solution5.php
https://raw.githubusercontent.com/ricpacca/cryptopals/master/S1C05.py
https://raw.githubusercontent.com/technion/matasano_challenge/master/set1/chal5/chal5.rb
https://raw.githubusercontent.com/yaychris/cryptopals/master/src/challenge5.rs
