https://www.youtube.com/watch?v=bZlkuiUkQzE
https://www.youtube.com/watch?v=enT4vEYlkcI
https://www.youtube.com/watch?v=8aublXgXDYo
https://www.youtube.com/watch?v=bIIeLrrehUg
https://www.youtube.com/watch?v=WexDfsQT3sE
