https://www.youtube.com/watch?v=TQZX97ZA43k
https://www.youtube.com/watch?v=qABCSgC4GWw
https://www.exploit-db.com/exploits/26199
https://leeminki.github.io/webhack/2019/02/10/WebHack_Study_13.html
https://cloud.tencent.com/developer/article/1078839
https://net123.tistory.com/550?category=695510
