https://raw.githubusercontent.com/zyjsuper/root-me-4/master/Web-Server/SQL%20Injection%20-%20string
https://www.youtube.com/watch?v=W4nGDc-5wzM
https://www.youtube.com/watch?v=Tdvdy6keS-o
https://www.youtube.com/watch?v=OgGnihqEhjk
