http://aizuctf.hatenablog.jp/entry/2014/11/28/213307
http://www.nowhere.co.jp/blog/archives/20141128-213307.html
https://github.com/BirkhoffLee/wechall/blob/master/exploit/Limited%20Access%20Too/README.md
https://raw.githubusercontent.com/BirkhoffLee/wechall/master/exploit/Limited%20Access%20Too/README.md
