https://raw.githubusercontent.com/nayuki/Project-Euler-solutions/master/java/p109.java
https://raw.githubusercontent.com/nayuki/Project-Euler-solutions/master/python/p109.py
https://raw.githubusercontent.com/nayuki/Project-Euler-solutions/master/mathematica/p109.mathematica
