https://www.youtube.com/watch?v=t4NMTKQyHlE
https://www.youtube.com/watch?v=8GJ66GP-X-I
https://www.youtube.com/watch?v=x3BrKlVU3FQ
https://www.youtube.com/watch?v=tYX0ZUB1kF4
https://www.youtube.com/watch?v=-X9d7TLneQo
https://www.youtube.com/watch?v=33VZ7RvMkgM
https://www.youtube.com/watch?v=DREgLWZqMWg
https://www.youtube.com/watch?v=M-Bf0FJOHvs
https://klarsen.net/infosec/owasp-webgoat-xxe/
https://github.com/WebGoat/WebGoat/wiki/(Almost)-Fully-Documented-Solution-(en)#xxe
