http://hauntit.blogspot.com/2013/05/en-blind-sql-injection-webgoat-lesson.html
https://bbs.ichunqiu.com/thread-39244-1-1.html
https://gist.github.com/tylernchls/97f8e2e907c84cfdc908c6f0fced1ddc#sql-injection-advanced
https://ithelp.ithome.com.tw/articles/10207472?sc=iThelpR
https://klarsen.net/infosec/owasp-webgoat-sql-advanced-lesson/
https://localsecurityblog.wordpress.com/2016/05/17/webgoat-attack-blind-sql-injection/
https://ru-clip.net/video/G9l_rxYGkqM/owasp-webgoat-8-sql-structured-query-language-injection-advanced-3.html
https://www.computersecuritystudent.com/SECURITY_TOOLS/SQL_INJECTION/lesson2/index.html
https://www.freebuf.com/column/169739.html
https://www.youtube.com/watch?v=G9l_rxYGkqM
https://www.youtube.com/watch?v=r7WG1xiFwj4
https://raw.githubusercontent.com/TheoKlein/WebGoat-Solution/master/Injection_Flaws/Numeric_SQL_Injection.md
https://github.com/fmauri/WebGoatSolutions/blob/master/InjectionFlaws/SqlInjection.md
https://github.com/WebGoat/WebGoat/wiki/(Almost)-Fully-Documented-Solution-(en)#sql-injection-advanced
