https://raw.githubusercontent.com/derekhh/HackerRank/master/priyanka-and-toys.cpp
https://raw.githubusercontent.com/PaulNoth/hackerrank/master/practice/algorithms/greedy/priyanka_and_toys/PriyankaAndToys.java
https://raw.githubusercontent.com/PaulNoth/hackerrank/master/practice/algorithms/greedy/priyanka_and_toys/PriyankaAndToys.js
https://raw.githubusercontent.com/PaulNoth/hackerrank/master/practice/algorithms/greedy/priyanka_and_toys/PriyankaAndToys.scala
