https://www.fwhibbit.es/guia-metasploitable-2-parte-1
https://l33thacker.com/metasploitable-2-walkthrough/
https://www.youtube.com/watch?v=bZNc7sHt_BY
http://y2u.be/bZNc7sHt_BY
https://a.ndronic.us/guides/metasploit/html/index.html#__RefHeading___Toc872_637452476
https://www.youtube.com/watch?v=Rb-iFdB8di8
http://www.techtrick.in/description/3517-hacking-brute-force-telnet-login-metasploit
http://hacknode.blogspot.com/2011/08/modulos-auxiliares-de-metasploit-para.html
https://myexploit.wordpress.com/control-metasploit-post-exploit-telnet/
https://metaspolitable2.wordpress.com/2017/10/06/first-blog-post/
https://metasploit.help.rapid7.com/docs/metasploitable-2-exploitability-guide
https://hackercool.com/2017/07/hacking-ftp-telnet-and-ssh-metasploitable-tutorials/
http://hacknode.blogspot.com/2012/06/guia-de-explotabilidad-de.html
https://resources.infosecinstitute.com/metasploitable-2-walkthrough/#gref
https://raw.githubusercontent.com/techouss/Metasploitable2/master/README
https://metaspolitable2.wordpress.com/2017/10/06/first-blog-post/#Telnet
