https://medium.com/egghunter/ch4inrulz-1-0-1-vulnhub-walkthrough-d5f48e8ae187
http://www.hackingarticles.in/hack-the-ch4inrulz-1-0-1-ctf-challenge/
https://hackso.me/ch4inrulz-1.0.1-walkthrough/
https://neilsec.com/ctf/ch4inrulz-1-0-1-walkthrough/
https://www.youtube.com/watch?v=j2Qd8EFr00E
https://www.youtube.com/watch?v=ltSHfJsqnCk
https://www.youtube.com/watch?v=uX1lfl7srLA
