http://www.google-gruyere.appspot.com/part3#3__xsrf_challenge
http://jggge.blogspot.com/2014/03/week-3-cross-site-request-forgery.html
http://m4l1ce.me/writeups/2017/03/28/google-gruyere.html
https://pdfs.semanticscholar.org/presentation/65a0/5e2cfdf246dcf09238ad341d71df2696606a.pdf
