https://raw.githubusercontent.com/pastelito02/Challenges-sol/master/Programming/codewars/watermelon/PomPolock.c
https://raw.githubusercontent.com/pastelito02/Challenges-sol/master/Programming/codewars/watermelon/iidkfa.cc
https://raw.githubusercontent.com/pastelito02/Challenges-sol/master/Programming/codewars/watermelon/julia-zhao.clj
https://raw.githubusercontent.com/pastelito02/Challenges-sol/master/Programming/codewars/watermelon/iidkfa.cpp
https://raw.githubusercontent.com/pastelito02/Challenges-sol/master/Programming/codewars/watermelon/spTorin.cr
https://raw.githubusercontent.com/pastelito02/Challenges-sol/master/Programming/codewars/watermelon/stefan1.cs
https://raw.githubusercontent.com/pastelito02/Challenges-sol/master/Programming/codewars/watermelon/arqueroDivino.dart
https://raw.githubusercontent.com/pastelito02/Challenges-sol/master/Programming/codewars/watermelon/Azolo.ex
https://raw.githubusercontent.com/pastelito02/Challenges-sol/master/Programming/codewars/watermelon/Azolo.exs
https://raw.githubusercontent.com/pastelito02/Challenges-sol/master/Programming/codewars/watermelon/thezieger.go
https://raw.githubusercontent.com/pastelito02/Challenges-sol/master/Programming/codewars/watermelon/gezavagyok.hs
https://raw.githubusercontent.com/pastelito02/Challenges-sol/master/Programming/codewars/watermelon/kwartke.jl
https://raw.githubusercontent.com/pastelito02/Challenges-sol/master/Programming/codewars/watermelon/yarrysmod.js
https://raw.githubusercontent.com/pastelito02/Challenges-sol/master/Programming/codewars/watermelon/Erwin24.kt
