https://raw.githubusercontent.com/zyjsuper/root-me-4/master/Web-Server/File%20Upload%20-%20Double%20Extensions
https://bitbelle.wordpress.com/2018/01/10/root-me-web-server-challenge-solutions/
https://raw.githubusercontent.com/RomaniukVadim/wargaming-challenges/master/RootMe/web-server/file-upload-double_extensions.txt
