https://www.youtube.com/watch?v=ZEN_65vScIM
https://www.youtube.com/watch?v=FC7SJXjbgyc
https://www.youtube.com/watch?v=GJm7zdwrTxE
https://www.youtube.com/watch?v=3UD738uE7Tg
https://www.youtube.com/watch?v=RNsjIHlgkz4
https://www.youtube.com/watch?v=LN2YGqLY0ss
https://www.youtube.com/watch?v=zWk4v-rDjWo
https://www.youtube.com/watch?v=5NHycA_R4xY
https://www.youtube.com/watch?v=MaP1QtjwP2Y
https://www.youtube.com/watch?v=RM2jdcLwfrI
https://www.youtube.com/watch?v=yB1ML8AjwbI
