https://github.com/skiptomyliu/solutions-bwapp#xss---reflected-post
https://youtu.be/x6AhGnt3fbk?t=55s
http://thehackpot.blogspot.com/2014/05/eliminating-automated-xss-false.html
http://www.h3399.cn/201707/111479.html
http://security-is-just-an-illusion.blogspot.com/2014/01/bwapp-cross-site-scripting-xss.html
https://ctf-time.com/bwapp-walkthrough-sql-injection-cross-site-scripting/
http://www.sec-art.net/2018/06/bwapp-buggy-web-application-xss.html
https://www.youtube.com/watch?v=-IN6OmzdgV4
https://www.youtube.com/watch?v=ioAMje5TCKs
https://www.youtube.com/watch?v=80R4XfzD7XQ
https://youtu.be/GJm7zdwrTxE
https://www.youtube.com/watch?v=u-96HkBS8mY
https://www.youtube.com/watch?v=n0BOWmM0gcI
https://www.digitalmunition.me/bwapp-xss-reflected-get-post-ajaxjson-ajaxxml/
