https://github.com/bsqrl/juice-shop-walkthrough#6-xss-tier-1-perform-a-reflected-xss-attack-with-scriptalertxss1script
http://m4l1ce.me/writeups/2017/01/09/juice-shop.html
https://null-byte.wonderhowto.com/how-to/beginners-guide-owasp-juice-shop-your-practice-hacking-grounds-for-10-most-common-web-app-vulnerabilities-0185103/
https://incognitjoe.github.io/hacking-the-juice-shop.html
https://github.com/bkimminich/pwning-juice-shop/blob/master/appendix/solutions.md#perform-a-reflected-xss-attack
https://www.youtube.com/watch?v=YX2KOG5mjLc
https://bkimminich.gitbooks.io/pwning-owasp-juice-shop/content/part2/xss.html
https://github.com/apox64/OWASP-Juice-Shop-Write-Up/blob/master/juice-shop-writeup.md
https://raw.githubusercontent.com/apox64/OWASP-Juice-Shop-Write-Up/master/juice-shop-writeup.md
https://bkimminich.gitbooks.io/pwning-owasp-juice-shop/content/appendix/solutions.html
