https://github.com/skiptomyliu/solutions-bwapp#php-code-injection
https://www.youtube.com/watch?v=fi0gOWC4C3w
https://www.youtube.com/watch?v=8TLiz06SqCk
https://www.youtube.com/watch?v=WakJ8ac03qs
https://underc0de.org/foro/dudas-generales-121/(duda)-bwapp-php-code-injection/
https://www.youtube.com/watch?v=0B4PTU3jBfs
https://www.youtube.com/watch?v=Le81xHBn3_8
https://www.youtube.com/watch?v=SpP9R-XI6-k&vl=en
https://www.youtube.com/watch?v=mm0fu3UoaKg
https://www.youtube.com/watch?v=5vjw9vqKxsU
https://www.youtube.com/watch?v=RT3h5rDrRmM
https://www.cnblogs.com/hongren/p/7215322.html
https://n00bsecurityblog.wordpress.com/2018/05/11/php-code-injection/
https://www.youtube.com/watch?v=v3DPPqH-gCg
https://github.com/AulaLinux/Ethical-Hacking/wiki/bWAPP#php-code-injection
http://www.h3399.cn/201707/111479.html
https://teckk2.github.io/web-pentesting/2018/02/07/PHP-Code-Injection.html
https://hydrasky.com/network-security/php-code-injection/
https://www.youtube.com/watch?v=0B4PTU3jBfs&list=PLdrUx5XleEKsyqvvTyY65spp2um2A8-tX&index=4
https://www.youtube.com/watch?v=WakJ8ac03qs&list=PLb5P0I7Dt6Rb4x-_7hNGc5qA5xUXbUUGD&index=8
https://studysecurity-world.tistory.com/60?category=806005
https://net123.tistory.com/448?category=695510
