https://www.aldeid.com/wiki/WackoPicko/Stored-SQL-Injection
https://www.youtube.com/watch?v=A1IZvf7XF20
https://www.youtube.com/watch?v=cEqhlaCpzYA
https://www.youtube.com/watch?v=bBgdHS7i-dc
https://www.youtube.com/watch?v=74IdGmx5oQ0
