vyvyvqjyjyjqryryrq,vjr
juhxtpagiaqcjbj,aj
ufurusuajfjrjsja,uj
jxjrjmcxcrcmlxlrlm,jcl
rppfyajjrvfa,wsek
gagngsgwgbwawnwswwwb,gw
jmjwjcjejzhmhwhchehzlmlwlclelz,jhl
havexr,hr
world,wore
juggernauter,jger
hello,hel
eonbygcj,apzbrc
oizazrbdqkesdnb,lwlwo
pxhoellwdajn,pxhl
gogsgqgsghsosssqsssh,gs
bqlnnnjc,wvas
dwdhdkhwhhhknwnhnkuwuhuk,dhnu
kmrltyskaduxpy,bbd
krdhcwaef,zprli
skhvhsrvelfm,ssre
kjuymivav,mls
xrsukazkxgq,kuha
rfwgvszcqf,nxjm
vfdebhgqhqsf,vhgs
uqogbzmagifdqf,mniiwb
rabbbit,rabbit
krkjkckfdrdjdcdfprpjpcpf,kdp
uiglptinoyuwaia,boyzl
jhjejijdchcecicd,jc
dqdjdgdalqljlglarqrjrgraxqxjxgxa,dlrx
jtjcjkjxjzjivtvcvkvxvzvixtxcxkxxxzxi,jvx
gngugxgtgggornrurxrtrgro,gr
alqymeoc,eoc
bzbpuwpzihzj,dyyat
nanwnznlhahwhzhl,nh
loshcwpjm,sm
wjwmwswfwzwfyjymysyfyzyfpjpmpspfpzpf,wyp
iwcxtqorjwy,cj
dfdfdxefefexpfpfpxcfcfcx,depc
babgbag,bag
