http://fallensnow-jack.blogspot.com/2011/08/webgoat-json-injection.html
http://qimingyu.com/2016/04/26/Webgoat%E4%B9%8BAJAX_Security/#JSON-Injection
https://oktoriorizkiprasetya.wordpress.com/2017/05/10/webgoat-ajax-security-json-injection/
https://tuonilabs.wordpress.com/2016/12/15/owasp-webgoat-1-2/
https://webapppentest.wordpress.com/2012/08/06/webgoat-week-3/
https://www.youtube.com/watch?v=fAKFZ7V2bwE
https://www.youtube.com/watch?v=FIeIgqZvqlo
https://www.youtube.com/watch?v=S0zCFQqOQsk
https://www.youtube.com/watch?v=wfqmzMpythQ
https://www.youtube.com/watch?v=ygIWYNCjRb8
https://www.youtube.com/watch?v=pYMDfKYLKlM
https://www.youtube.com/watch?v=RFEqlg21mkE
https://www.youtube.com/watch?v=7NduBugaGek
https://www.youtube.com/watch?v=A5zFDiZLb70
https://www.youtube.com/watch?v=ZLAaq7Q-5jc

