https://infamoussyn.com/2014/02/05/overthewire-natas-level-0-16-writeup-updated/#level20
http://r4stl1n.github.io/2014/12/29/OverTheWire-Natas17-24.html#natas-20
http://blog.zairo.kr/entry/OverTheWire-Natas-Level-20?category=569895
