https://infamoussyn.com/2013/11/18/overthewire-narnia-level-0-4-writeup/#level3
http://blog.zairo.kr/entry/OverTheWire-%E2%80%93-Narnia-Level-3?category=570168
https://hackmethod.com/overthewire-narnia-3/
https://cplusperks.com/narnia/#level3
