https://www.youtube.com/watch?v=UDgpI5roWTc
https://www.youtube.com/watch?v=rEXoDQsrJ9A
https://www.youtube.com/watch?v=oQOpyA72OT0
https://www.youtube.com/watch?v=1XdJtXSwKPE
https://hackingandsecurity.blogspot.com/2017/07/notes-from-bwapp-v22.html
https://raw.githubusercontent.com/skiptomyliu/solutions-bwapp/master/README.md
https://l1cafe.blog/2019/03/17/bwapp-writeup.html
https://wooly6bear.files.wordpress.com/2016/01/bwapp-tutorial.pdf
http://www.voidcn.com/article/p-xwslxznn-vt.html
https://github.com/hbayramov/bWAPP-Solutions
https://inforensicsuex.wordpress.com/2014/05/13/sql-injection-en-bwapp-segundo-ejemplo/
https://medium.com/@grep_security/sql-injections-part-1-4b1fa5b8758d
https://karantank.wordpress.com/2015/09/17/bwapp-sql-injection-getselect/
https://www.youtube.com/watch?v=nhKetwqAddw
https://www.ellieborden.tech/sql-injection
https://blog.isecauditors.com/2019/12/hacking-de-aplicaciones-web-con-sql-injection.html
https://securitycode.tistory.com/127
https://towardsdatascience.com/being-aware-of-malicious-data-corruption-as-a-data-scientist-sql-injection-attack-63f235fb2a97
