5
UTJYWD NX BMFY LJY QTXY NS YWFSXQFYNTS FX JFXD FX QDNSL YMJ IJFI GZWD YMJNW TBS IJFI
YWNPDWCA IQOP XA ZAOPNKUAZ SDAJ IU CQEPWN CAJPHU SAALO SDK SWJPO PK HERA BKNARAN
IJ NJJIZM NKJFZI OCVI WMJFZI WT YMZVHN ZVXC JIZ DIOJ V NZQZMVG RJMGY
OZ OY HRGIQ GTJ CNOZK GTJ XKJ GRR UBKX LUAX YIUXK GTJ YKBKT EKGXY GMU
LZSL SDD EWF SJW UJWSLWV WIMSD KGEW GX ZAE DANWV TML LZW EGKL GX ZAE VAWV
