https://www.aldeid.com/wiki/WackoPicko/File-Inclusion
https://www.youtube.com/watch?v=A1IZvf7XF20
https://www.youtube.com/watch?v=cEqhlaCpzYA
http://sefcom.asu.edu/publications/black-box-scanners-dimva2010.pdf
https://www.youtube.com/watch?v=bBgdHS7i-dc
