https://raw.githubusercontent.com/BlakeBrown/HackerRank-Solutions/master/Algorithms/Greedy/Grid%20Challenge.cpp
https://raw.githubusercontent.com/RodneyShag/HackerRank_solutions/master/Algorithms/Greedy/Grid%20Challenge/Solution.java
https://raw.githubusercontent.com/raghav97/Hackerrank-Solutions/master/grid_challenge.rb
