https://raw.githubusercontent.com/phuclevinh2000/CodeAbbey/master/Sort%20with%20Indexes.c
https://raw.githubusercontent.com/pastelito02/Challenges-sol/master/Programming/Codeabbey/029/dusan_krmar.cc
https://raw.githubusercontent.com/gravoo/codeabbey/master/Sort%20with%20Indexes.cpp
https://raw.githubusercontent.com/AleksandrSD/CodeAbbeyProblems/master/Problem29/Program.cs
https://raw.githubusercontent.com/pastelito02/Challenges-sol/master/Programming/Codeabbey/029/Ratzenfutz.d
https://raw.githubusercontent.com/pastelito02/Challenges-sol/master/Programming/Codeabbey/029/siloimwald.fs
https://raw.githubusercontent.com/pastelito02/Challenges-sol/master/Programming/Codeabbey/029/sithrawi.go
https://raw.githubusercontent.com/pastelito02/Challenges-sol/master/Programming/Codeabbey/029/danielmmetz.hs
https://raw.githubusercontent.com/KlaudioVito/CodeAbbey/master/SortWithIndexes.java
https://raw.githubusercontent.com/pastelito02/Challenges-sol/master/Programming/Codeabbey/029/Zacharias.jl
https://raw.githubusercontent.com/McQuinTrix/CodeAbbey/master/29.%20Sort_with_Indexes.js
https://raw.githubusercontent.com/chriswood/codeabbey/master/caid29.lisp
https://raw.githubusercontent.com/pastelito02/Challenges-sol/master/Programming/Codeabbey/029/WyattMarks.lua
https://raw.githubusercontent.com/pastelito02/Challenges-sol/master/Programming/Codeabbey/029/stefan.schmiedl.ml
https://raw.githubusercontent.com/mpeshehonov/Codeabbey/master/practice/%2329/index.php
https://raw.githubusercontent.com/ValeWasTaken/CodeAbbey_Solutions/master/Python/id029-Sort_with_Indexes.py
https://raw.githubusercontent.com/John-Russell/CodeAbbey/master/Sort%20with%20Indexes.rb
https://gitlab.com/CodeArtisan/codeabbey/raw/master/problem_29/solution.rkt
https://raw.githubusercontent.com/pastelito02/Challenges-sol/master/Programming/Codeabbey/029/serviceable.rs
https://raw.githubusercontent.com/mmcdon20/code_abbey/master/src/main/scala/Abbey029.scala
https://raw.githubusercontent.com/pastelito02/Challenges-sol/master/Programming/Codeabbey/029/Genek_proger.vb
