http://location-href.com/xvwa-walkthrough/
https://www.youtube.com/watch?v=RYNiOGFI-TQ
https://youtu.be/s7s1u5X9IV8
https://youtu.be/ALdIluEOgHE
https://docplayer.net/62705840-Xvwa-technical-run-information-security-inc.html
https://raw.githubusercontent.com/rudSarkar/xvwa-solution/master/file-inclusion-xvwa.md
