https://github.com/bsqrl/juice-shop-walkthrough#2-provoke-an-error-that-is-not-very-gracefully-handled
https://github.com/bkimminich/pwning-juice-shop/blob/master/appendix/solutions.md#provoke-an-error-that-is-not-very-gracefully-handled
https://github.com/apox64/OWASP-Juice-Shop-Write-Up/blob/master/juice-shop-writeup.md#2-provoke-an-error-that-is-not-very-gracefully-handled
https://youtu.be/Cz37iejTsH4?t=7m21s
https://null-byte.wonderhowto.com/how-to/beginners-guide-owasp-juice-shop-your-practice-hacking-grounds-for-10-most-common-web-app-vulnerabilities-0185103/
https://ryan-villarreal.com/2018/06/29/juice-shop-walkthrough-part-1/
https://incognitjoe.github.io/hacking-the-juice-shop.html
https://bkimminich.gitbooks.io/pwning-owasp-juice-shop/content/appendix/solutions.htmlhttps://github.com/bsqrl/juice-shop-walkthrough#2-provoke-an-error-that-is-not-very-gracefully-handled
https://raw.githubusercontent.com/apox64/OWASP-Juice-Shop-Write-Up/master/juice-shop-writeup.md
