https://github.com/skiptomyliu/solutions-bwapp#broken-auth---logout-management
https://www.youtube.com/watch?v=y60JLl935rI
https://www.youtube.com/watch?v=WBEZjs6BBNU
https://www.youtube.com/watch?v=fOSXB6d_KWE
https://www.youtube.com/watch?v=2TedUP8VEWs
https://www.youtube.com/watch?v=hRu_k5qt74g
https://www.youtube.com/watch?v=eF7K6NAjb_c
https://www.youtube.com/watch?v=X7snpgGuWuc
https://www.youtube.com/watch?v=g-HeOCMZDxE
https://www.youtube.com/watch?v=1TxnE94Ak8Q
https://seleniumbycharan.com/2017/07/30/broken-authentication-and-session-management-part-i/
