https://www.youtube.com/watch?v=0nh1SEWGlRo
https://www.youtube.com/watch?v=Pl0PesmJCTU
https://www.youtube.com/watch?v=9VOB34pcnY0&t=9s
https://www.youtube.com/watch?v=KxhGz0ooOy4
https://www.youtube.com/watch?v=eTlTAM6oaFg&t=2s
https://www.youtube.com/watch?v=JEl72Oik51A
https://www.youtube.com/watch?v=59JBrimEjxQ&t=1s
https://www.youtube.com/watch?v=fR00zwfSyCc
https://www.youtube.com/watch?v=ZodA76-CB10&t=6s
https://www.youtube.com/watch?v=ILaqxKnS4H0&t=2s
