https://raw.githubusercontent.com/HamidTheGeek/HackerRankSolutions/master/Solutions/FraudulentActivityNotifications.cs
https://raw.githubusercontent.com/RyanFehr/HackerRank/master/Algorithms/Sorting/Fraudulent%20Activity%20Notifications/Solution.java
https://raw.githubusercontent.com/witekbobrowski/HackerRank/master/Algorithms/Sorting/fraudulent-activity-notifications.swift
