https://www.youtube.com/watch?v=0FmEUpDDpcg
https://www.youtube.com/watch?v=Ktka-BkBYIM
https://www.youtube.com/watch?v=UdInl7z41jw
https://www.youtube.com/watch?v=bHTglpgC5Qg
https://www.youtube.com/watch?v=Ogp1anGF9zI
https://plaza152.ru/video/0FmEUpDDpcg
https://wooly6bear.files.wordpress.com/2016/01/bwapp-tutorial.pdf
http://curvetube.com/BWAPP_Unvalidated_Redirects_&_Forwards_2(LOW_SECURITY)/Ktka-BkBYIM.video
https://docplayer.net/44193111-Bwapp-sanjiv-kawa-bwapp-page-1.html
https://www.youtube.com/watch?v=wznRlLo9JOc
