https://securitybytes.io/vulnhub-com-bulldog-ctf-solution-b00b4640327a
https://medium.com/@krankoPwnz/walkthrough-for-bulldog-on-vulnhub-com-c834573e28fd
https://www.youtube.com/watch?v=_a6xgHquSnE
https://resources.infosecinstitute.com/bulldog-1-ctf-walkthrough/#gref
https://d7x.promiselabs.net/2018/02/03/ctf-bulldog-1-walkthrough/
https://reedphish.wordpress.com/2017/10/22/bulldog-1-walkthrough/
https://cqdeof.blogspot.com/2017/10/vulnhub-walkthrough-bulldog-1.html
https://hack-ed.net/2017/11/09/bulldog-ctf-walkthrough/
https://amonsec.net/ctf/bulldog-1-ctf-walkthrough
https://igbertlochstep.com/2017/11/08/ctf-walkthrough-bulldog-1/
https://gist.github.com/berzerk0/dd477837e5f07b05133bb21db8d51758
https://www.youtube.com/watch?v=CntNzJS4ozw
https://www.youtube.com/watch?v=aP7ShEOqC-c
https://www.yeahhub.com/ctf-bulldog-walkthrough/
https://n00bsecurityblog.wordpress.com/2017/10/18/vulnhub-vm-bulldog-1/
https://hornenielsen.wordpress.com/2017/10/08/walkthrough-of-bulldog-1/
https://warhable.wordpress.com/2017/11/08/ctf-bulldog/
https://blog.vonhewitt.com/2018/01/bulldog-1-vulnhub-writeup/
https://www.youtube.com/watch?v=RrmzESIGRco
https://www.youtube.com/watch?v=tLPSCucBYz0
https://www.youtube.com/watch?v=0Z7DFCXVAkI
https://www.youtube.com/watch?v=sqx3MDUnEpc
https://www.youtube.com/watch?v=0DpbWgUXvkU
