https://github.com/bsqrl/juice-shop-walkthrough#7-xss-tier-2-perform-a-persisted-xss-attack-with-scriptalertxss2script--bypassing-a-client-side-security-mechanism
https://bkimminich.gitbooks.io/pwning-owasp-juice-shop/content/appendix/solutions.html
https://github.com/apox64/OWASP-Juice-Shop-Write-Up/blob/master/juice-shop-writeup.md#16-xss-tier-2-perform-a-persisted-xss-attack-bypassing-a-client-side-security-mechanism
https://ryan-villarreal.com/2018/06/29/juice-shop-walkthrough-part-1/
https://incognitjoe.github.io/hacking-the-juice-shop.html
https://github.com/pastelito02/Challenges-sol/blob/master/JuiceShop/Apox64/solutions.md#16-xss-tier-2-perform-a-persisted-xss-attack-bypassing-a-client-side-security-mechanism
https://github.com/pastelito02/Challenges-sol/blob/master/JuiceShop/Bkmminich/solutions.md
https://mincong-h.github.io/2019/01/23/security-training-day-2/
https://github.com/pastelito02/Challenges-sol/blob/master/JuiceShop/Bsqrl/solutions.md
https://bkimminich.gitbooks.io/pwning-owasp-juice-shop/content/part2/xss.html
https://github.com/apox64/OWASP-Juice-Shop-Write-Up/blob/master/juice-shop-writeup.md
https://raw.githubusercontent.com/apox64/OWASP-Juice-Shop-Write-Up/master/juice-shop-writeup.md
