https://github.com/bsqrl/juice-shop-walkthrough#24-find-the-hidden-easter-egg
https://github.com/apox64/OWASP-Juice-Shop-Write-Up/blob/master/juice-shop-writeup.md#24-find-the-hidden-easter-egg
https://github.com/bkimminich/pwning-juice-shop/blob/master/appendix/solutions.md#perform-a-persisted-xss-attack-bypassing-a-client-side-security-mechanism
https://incognitjoe.github.io/hacking-the-juice-shop.html
https://github.com/bsqrl/juice-shop-walkthrough#25-apply-some-advanced-cryptanalysis-to-find-the-real-easter-egg
https://bkimminich.gitbooks.io/pwning-owasp-juice-shop/content/appendix/solutions.html
https://medium.com/@wisdomgoody/review-owasp-juice-shop-v-10-3-1-walkthough-solution-on-docker-6bfec4b5706c
http://selfsynchronize.com/hayne/Security/pwning-owasp-juice-shop.pdf
https://gitlab.inf.uva.es/estcuer/juice-shop/-/raw/dd92d20b0424cec419d0dc7cf8cab4e84e3769e8/data/static/challenges.yml
http://m4l1ce.me/writeups/2017/01/09/juice-shop.html
https://www.youtube.com/watch?v=MwCxfex8bvI
