https://resources.infosecinstitute.com/the-bodgeit-store-part-2/
https://passionforpentesting.com/2018/01/17/the-bodgeit-store-series-5-login-as-a-different-user-bodgeit-infosec-sqli-pentest-appsec-webapp/
http://itsorcerer.blogspot.com/2011/11/bodgeit-notes.html
https://www.synackfin.tech/documents/Final_Report_CS_Fundamentals.pdf
http://thefluffy007.com/2018/01/17/the-bodgeit-store-series-5-login-as-a-different-user-bodgeit-infosec-sqli-pentest-appsec-webapp/
http://ender0101.blogspot.com/2014/08/bodgeit.html
