https://raw.githubusercontent.com/Transfusion/hackerrank-solutions/master/Counting%20Sort%201/countingsort1.c
https://gist.githubusercontent.com/0001vrn/0dc4491331a2753a0ecbce6d66566cbf/raw/d7ab7171294609c37d0c884eeede70b3f7a5ff6b/countingSort.cpp
https://raw.githubusercontent.com/RyanFehr/HackerRank/master/Algorithms/Sorting/Counting%20Sort%201/Solution.cs
https://raw.githubusercontent.com/RodneyShag/HackerRank_solutions/master/Algorithms/Sorting/Counting%20Sort%201/Solution.java
https://raw.githubusercontent.com/handracs2007/hackerrank_counting_sort1/master/src/Main.kt
https://raw.githubusercontent.com/danhenriquesc/hackerrank/master/algorithms/sorting/counting_sort_1.php
https://raw.githubusercontent.com/acmeism/RosettaCodeData/master/Task/Sorting-algorithms-Counting-sort/Python/sorting-algorithms-counting-sort-1.py
