103 222 10 55
0 1 6
0 2 2
0 94 1
0 95 8
1 2 7
1 4 1
1 95 6
1 96 6
2 3 5
2 4 7
2 96 3
3 5 7
3 6 6
4 5 2
4 6 8
4 7 3
5 7 4
5 8 1
6 7 4
6 8 1
7 9 1
7 10 8
8 9 6
8 10 5
8 11 6
9 10 7
9 12 4
10 11 4
10 12 7
10 97 1
10 99 5
11 12 2
11 13 2
11 14 5
12 13 5
12 14 8
13 15 3
13 16 7
14 15 2
14 17 3
15 16 8
15 17 1
16 18 1
16 19 2
17 18 1
17 19 8
17 20 7
18 19 5
18 20 3
19 20 7
19 21 2
19 22 1
20 22 3
20 23 7
21 22 6
21 23 2
22 24 2
22 25 7
23 24 4
23 25 7
24 25 2
24 27 6
25 27 1
25 28 3
26 28 8
26 29 7
27 28 7
27 30 6
28 30 7
28 31 1
29 30 6
29 31 8
30 32 2
30 33 2
31 32 6
31 34 8
32 34 6
32 35 7
33 34 6
33 35 3
34 35 2
34 36 2
35 36 2
35 37 4
35 38 3
36 38 4
36 39 3
37 39 6
37 40 6
38 39 2
38 40 3
39 40 5
39 41 8
40 42 1
40 43 7
41 42 7
41 44 5
42 43 1
42 45 6
43 44 7
43 45 3
44 45 4
44 46 5
45 46 4
45 47 1
45 48 2
46 48 2
46 49 4
47 48 1
47 49 8
48 49 4
48 50 3
49 50 5
49 52 7
50 51 1
50 52 5
51 52 2
51 53 5
51 54 3
52 53 8
52 54 2
52 55 5
53 55 3
53 56 5
54 55 7
54 56 7
55 56 8
55 57 6
55 58 1
55 98 1
55 102 4
56 57 4
56 58 3
57 58 3
57 59 3
57 60 7
58 59 2
58 60 1
58 61 7
59 61 3
59 62 1
60 61 2
60 63 2
61 63 1
61 64 7
62 63 2
62 64 4
63 64 6
63 65 7
64 65 4
64 67 2
65 66 7
65 68 2
66 67 3
66 69 8
67 68 5
67 69 2
68 70 8
68 71 7
69 71 2
69 72 2
70 71 3
70 72 2
71 72 4
71 73 2
72 74 6
72 75 5
73 74 6
73 75 7
73 76 7
74 75 8
74 76 5
74 77 6
75 76 2
75 78 8
76 78 3
76 79 6
77 78 1
77 79 7
77 80 2
78 79 8
78 80 6
79 81 8
79 82 4
80 81 2
80 82 1
81 83 5
81 84 3
82 84 2
82 85 1
83 84 4
83 85 5
83 86 6
84 85 8
84 86 2
85 86 1
85 88 8
86 88 5
86 89 5
87 88 3
87 89 5
87 90 6
88 90 2
88 91 4
89 90 5
89 91 3
90 91 1
90 92 2
91 93 8
91 94 2
92 94 3
92 95 6
93 94 5
93 95 3
93 96 1
94 96 2
95 96 3
97 98 2
97 101 4
98 100 5
99 100 5
101 102 6
