https://raw.githubusercontent.com/kamyu104/LeetCode-Solutions/master/C%2B%2B/3sum-closest.cpp
https://raw.githubusercontent.com/halfrost/LeetCode-Go/master/Algorithms/0016.%203Sum%20Closest/16.%203Sum%20Closest.go
https://gist.githubusercontent.com/lsdtc1225/c9a2f7d174fa1c7cfd37/raw/0b1d94c13c861de539a86d02ed97f32aa43238b8/3Sum%2520Closest.java
https://raw.githubusercontent.com/ck-unifr/leetcode/master/algorithms/16-3sum-closest.py
