20
32 18 358085721
36 13 1900224426
25 18 370536
15 11 955
17 10 14575
9 3 68
35 14 1885089049
16 13 458
10 5 194
35 15 2422166075
30 14 88794356
8 1 5
36 13 1649580012
35 21 1742612107
35 14 1201846908
32 13 256605414
35 12 661941142
29 18 28282245
20 15 8262
32 15 410051683
