https://raw.githubusercontent.com/Aadeshp/Codeeval-Solutions/master/Medium/Array_Absurdity.java
https://raw.githubusercontent.com/pascal-bourut/codeeval-challenges/master/moderate/41%20-%20Array%20absurdity/41.js
https://raw.githubusercontent.com/blamonet/php-code-eval-solutions/master/array_absurdity.php
