https://raw.githubusercontent.com/pastelito02/Challenges-sol/master/Programming/Codeabbey/143/MortTull.cc
https://raw.githubusercontent.com/pastelito02/Challenges-sol/master/Programming/Codeabbey/143/Mastermind.cs
https://raw.githubusercontent.com/pastelito02/Challenges-sol/master/Programming/Codeabbey/143/gsou859.hs
https://raw.githubusercontent.com/pastelito02/Challenges-sol/master/Programming/Codeabbey/143/relativity.java
https://raw.githubusercontent.com/pastelito02/Challenges-sol/master/Programming/Codeabbey/143/kittyaurel.jl
https://raw.githubusercontent.com/pastelito02/Challenges-sol/master/Programming/Codeabbey/143/Hyuto.js
https://raw.githubusercontent.com/pastelito02/Challenges-sol/master/Programming/Codeabbey/143/ayy_luamao.lua
https://raw.githubusercontent.com/pastelito02/Challenges-sol/master/Programming/Codeabbey/143/DaMastaBrain.php
https://raw.githubusercontent.com/GuillermoLopezJr/CodeAbbey/master/Abbey143/main.py
https://raw.githubusercontent.com/pastelito02/Challenges-sol/master/Programming/Codeabbey/143/maverick.rb
https://raw.githubusercontent.com/javilag/codeAbbeyChalls/master/Challs/Scala/143.scala
https://raw.githubusercontent.com/pastelito02/Challenges-sol/master/Programming/Codeabbey/143/Guy-Gervais.vb
