https://raw.githubusercontent.com/walkermatt/exercism-io-solutions/master/clojure/beer-song/beer.clj
https://raw.githubusercontent.com/davearonson/exercism-solutions/master/elixir/beer-song/beer_song.exs
https://git.yannweb.net/maxime-alves/exercism-haskell/raw/commit/cb571e0dcbb7079df246ca07a31671ce0b671144/exercises/beer-song/src/Beer.hs
https://raw.githubusercontent.com/binupaul/exercism-java-solutions/master/java/beer-song/src/main/java/BeerSong.java
https://raw.githubusercontent.com/JIghtuse/exercism-solutions/master/rust/beer-song/tests/beer-song.rs
