https://www.youtube.com/watch?v=CYeVUmOar3I
https://www.youtube.com/watch?v=qDWpDLIEARc
https://www.youtube.com/watch?v=9ASNMFhVENY
https://mundo-hackers.weebly.com/cronos.html
https://jasperandgarrison.wordpress.com/2017/12/13/hackthebox-cronos/
https://drive.google.com/file/d/1fU7O_nPqL9dbhcaZftUHwFjhpC72U31M/view
https://forum.hackthebox.eu/discussion/33/cronos-write-up-by-hkh4cks#latest
https://www.peerlyst.com/posts/how-to-hackthebox-cronos-machine-writeup-spirited-wolf
https://teckk2.github.io/writeup/2018/02/22/Cronos.html
https://resources.infosecinstitute.com/hack-the-box-htb-machines-walkthrough-series-cronos/#gref
https://thehacktoday.com/hack-the-box-cronos-walkthrough/
https://www.sevenlayers.com/index.php/133-hackthebox-cronos-walkthrough
https://www.youtube.com/watch?v=DpLGgFrHe3o
https://cloud.tencent.com/developer/article/1545430
