https://ryan-villarreal.com/2018/07/07/juice-shop-walkthrough-2-star/
https://bestestredteam.com/2018/07/07/juice-shop-walkthrough-2-star/
https://bkimminich.gitbooks.io/pwning-owasp-juice-shop/content/appendix/solutions.html
https://n0j.github.io/2018/08/01/owasp-juice-shop-v7.3.0-level-2.html
https://raw.githubusercontent.com/bkimminich/pwning-juice-shop/master/appendix/solutions.md
https://www.youtube.com/watch?v=SFnfTKogZMI
https://raw.githubusercontent.com/apox64/OWASP-Juice-Shop-Write-Up/master/juice-shop-writeup.md
