https://raw.githubusercontent.com/To1ne/cryptopals-c/master/challenge_01/main.c
https://raw.githubusercontent.com/shierve/matasano-crypto-challenges/master/set1.cc
https://raw.githubusercontent.com/KingMob/cryptopals-crypto-challenges/master/src/app/set1.clj
https://raw.githubusercontent.com/cedi/cryptopals/master/Set1/Challenge1/main.cpp
https://raw.githubusercontent.com/BobGneu/cryptopals-csharp/master/src/Crypto/Solver.cs
https://raw.githubusercontent.com/gyuho/learn/master/doc/the_matasano_crypto_challenge_set_1/code/01_convert_hex_to_base64.go
https://raw.githubusercontent.com/SomMeri/matasano-cryptopals-solutions/master/src/main/java/org/meri/matasano/Set1.java
https://raw.githubusercontent.com/HirotoShioi/cryptopals-in-js/master/set1/1/run.js
https://raw.githubusercontent.com/lt/php-cryptopals/master/Cryptopals/Set1/Challenge1/Solution1.php
https://raw.githubusercontent.com/ricpacca/cryptopals/master/S1C01.py
https://raw.githubusercontent.com/technion/matasano_challenge/master/set1/chal1/chal1.rb
https://raw.githubusercontent.com/yaychris/cryptopals/master/src/challenge1.rs
