https://www.youtube.com/watch?v=EloOaaGg3nA
https://www.youtube.com/watch?v=5S5yVSbJknw
https://www.youtube.com/watch?v=gnLGRb--AoM
https://www.youtube.com/watch?v=XqZG90dNtX8
https://www.youtube.com/watch?v=K02mrGN2CYA
https://www.youtube.com/watch?v=0S5_XS3Er7Y
https://www.youtube.com/watch?v=5tkY-wbwtmM
https://v3ded.github.io/ctf/htb-aragog.html
https://dominicbreuker.com/post/htb_calamity/
https://forum.hackthebox.eu/discussion/483/aragog
https://reboare.github.io/hackthebox/calamity.html
https://video.hacking.reviews/2018/01/hackthebox-calamity.html
https://medium.com/ctf-writeups/aragog-write-up-htb-b035a467773
https://drive.google.com/file/d/1GKzkNf8kgvebX9sojTQpx8PlgWx1s6UQ/view
https://www.hackingarticles.in/hack-the-box-challenge-calamity-walkthrough/
