https://raw.githubusercontent.com/HamidTheGeek/HackerRankSolutions/master/Solutions/SparseArrays.cs
https://raw.githubusercontent.com/gabrielgiordan/hackerrank/master/algorithms/data-structures/sparse-arrays.js
https://raw.githubusercontent.com/MaskRay/HackerRank/master/sparse-arrays.py
https://raw.githubusercontent.com/witekbobrowski/HackerRank/master/Data%20Structures/Arrays/sparse-arrays.swift
