https://d7x.promiselabs.net/2018/04/10/ctf-pinkys-palace-v2-hard-vulnhub-ctf-walkthrough/
https://www.youtube.com/watch?v=3g7kphNkViw
https://www.youtube.com/watch?v=qZDGVqTCdXA
https://www.youtube.com/watch?v=3Gv3fU4Pq7g
https://bentrobotlabs.wordpress.com/2018/04/03/pinkys-palace-v2-walkthrough-part-1/
https://hackso.me/pinkys-palace-v2-walkthrough/
https://coolbyte.eu/2018/vulnhub-pinkyspalace-part1/
