https://thinbashane.wordpress.com/2015/10/22/root-me-pe-0-protections/
https://brianstormrage1134.wordpress.com/2018/11/18/pe-0-protection/
https://raw.githubusercontent.com/s1syphu5/RootMe-Challenges/master/System/ELF%20x86%20-%20Format%20string%20bug%20basic%201/README.md
