https://github.com/skiptomyliu/solutions-bwapp#remote--local-file-inclusion-rfilfi
https://hydrasky.com/network-security/remote-file-inclusion-attack/
https://youtu.be/7soa4wip7ZE
http://niiconsulting.com/checkmate/2015/04/server-side-request-forgery-ssrf/rfi-exploitation-in-bwapp3/
https://www.youtube.com/watch?v=NfBblM13CNc
https://www.hackingarticles.in/5-ways-exploit-lfi-vulnerability/
https://blog.hflsec.me/2017/03/17/BWAPP-Remote-Local-File-Inclusion/
https://www.hackingarticles.in/file-upload-exploitation-bwapp-bypass-security/
https://zhuanlan.zhihu.com/p/25334030
https://www.youtube.com/watch?v=DuHJ6t7qUtA
https://www.youtube.com/watch?v=Z0zhFvdvF6o
https://www.youtube.com/watch?v=OgW_QqNB2E0
https://www.youtube.com/watch?v=9Vn2ne-tSns
https://www.youtube.com/watch?v=4QTtlYTwWiY
https://www.youtube.com/watch?v=s3XQ1n5kdeQ&t=176s
https://www.youtube.com/watch?v=6HFOUx2KapE
https://www.youtube.com/watch?v=L4YWmU_X-VE
https://www.youtube.com/watch?v=FP229bKm5v4
https://www.cnblogs.com/Primzahl/p/6258149.html
