https://www.youtube.com/watch?v=UdBOgjlXaAI
https://resources.infosecinstitute.com/web-application-pentest-guide-part-ii/#gref
https://gist.github.com/mort666/19d3dc1051a71c2c86885e1607d69442
https://es.slideshare.net/OnurGRBZ/zero-bank-web-app-security-bulgulari
https://gist.githubusercontent.com/mort666/19d3dc1051a71c2c86885e1607d69442/raw/1763060c820d576ca5f22109da8cadc7293a2e74/secure-coding%2520workshop.md
http://onurgurbuz.blogspot.com/2017/06/zero-bank-web-app-security-bulgulari.html
