https://www.youtube.com/watch?v=CO_g3wtC7rk&t
https://0xrick.github.io/hack-the-box/safe/
https://snowscan.io/htb-writeup-safe/
https://raw.githubusercontent.com/Hackplayers/hackthebox-writeups/master/machines/Safe/3l33t-safe.pdf
https://raw.githubusercontent.com/Hackplayers/hackthebox-writeups/master/machines/Safe/BinaryShadow-Safe.pdf
https://raw.githubusercontent.com/Hackplayers/hackthebox-writeups/master/machines/Safe/Mansoor-Safe.pdf
https://raw.githubusercontent.com/Hackplayers/hackthebox-writeups/master/machines/Safe/MemoryLeaks-Safe.pdf
https://raw.githubusercontent.com/Hackplayers/hackthebox-writeups/master/machines/Safe/humurabbi-Safe.pdf
https://www.youtube.com/watch?v=-FE-M2m8UOs
https://0xdf.gitlab.io/2019/10/26/htb-safe.html
https://vulndev.io/ctf/2019/08/03/htb-safe.html
https://hackso.me/safe-htb-walkthrough/
https://medium.com/@ranakhalil101/hack-the-box-safe-writeup-w-o-metasploit-c83b00185447
