url,applies,vulnerable,details,
https://fluidattacks.com/web/es/rules/001/,no,na,no actives,
https://fluidattacks.com/web/es/rules/002/,no,na,no actives,
https://fluidattacks.com/web/es/rules/003/,no,na,no actives,
https://fluidattacks.com/web/es/rules/004,no,na,no actives,
https://fluidattacks.com/web/es/rules/005,no,na,no actives,
https://fluidattacks.com/web/es/rules/006,no,na,no actives,
https://fluidattacks.com/web/es/rules/007,no,na,no actives,
https://fluidattacks.com/web/es/rules/008,no,na,no actives,
https://fluidattacks.com/web/es/rules/009,no,na,no actives,
https://fluidattacks.com/web/es/rules/010,no,na,no actives,
https://fluidattacks.com/web/es/rules/011,no,na,no actives,
https://fluidattacks.com/web/es/rules/012,no,na,no actives,
https://fluidattacks.com/web/es/rules/013,no,na,no actives,
https://fluidattacks.com/web/es/rules/014,no,na,no actives,
https://fluidattacks.com/web/es/rules/015,no,na,no actives,
https://fluidattacks.com/web/es/rules/016,no,na,no actives,
https://fluidattacks.com/web/es/rules/017,no,na,no actives,
https://fluidattacks.com/web/es/rules/018,no,na,no third party services,
https://fluidattacks.com/web/es/rules/019,no,na,no third party services,
https://fluidattacks.com/web/es/rules/020,no,na,no third party services,
https://fluidattacks.com/web/es/rules/021,no,na,no third party services,
https://fluidattacks.com/web/es/rules/022,no,na,no third party services,
https://fluidattacks.com/web/es/rules/023,yes,yes,0613-session-expiration,
https://fluidattacks.com/web/es/rules/024,yes,no,na,
https://fluidattacks.com/web/es/rules/025,yes,yes,0384-session-fixation,
https://fluidattacks.com/web/es/rules/026,yes,no,na,
https://fluidattacks.com/web/es/rules/027,no,na,not a desktop app,
https://fluidattacks.com/web/es/rules/028,yes,no,na,
https://fluidattacks.com/web/es/rules/029,yes,yes,1004-cookie-sec-attr,
https://fluidattacks.com/web/es/rules/030,yes,no,na,
https://fluidattacks.com/web/es/rules/031,yes,no,na,
https://fluidattacks.com/web/es/rules/032,yes,no,na,
https://fluidattacks.com/web/es/rules/033,yes,no,na,
https://fluidattacks.com/web/es/rules/034,yes,yes,0286-account-management,
https://fluidattacks.com/web/es/rules/035,yes,no,na,
https://fluidattacks.com/web/es/rules/036,yes,no,na,
https://fluidattacks.com/web/es/rules/037,yes,no,na,
https://fluidattacks.com/web/es/rules/038,yes,no,na,
https://fluidattacks.com/web/es/rules/039,no,na,No file uploading,
https://fluidattacks.com/web/es/rules/040,no,na,No file uploading,
https://fluidattacks.com/web/es/rules/041,no,na,No file uploading,
https://fluidattacks.com/web/es/rules/042,no,na,No file uploading,
https://fluidattacks.com/web/es/rules/043,no,na,No file uploading,
https://fluidattacks.com/web/es/rules/044,no,na,No file uploading,
https://fluidattacks.com/web/es/rules/045,no,na,no file uploading,
https://fluidattacks.com/web/es/rules/046,no,na,no file uploading,
https://fluidattacks.com/web/es/rules/047,no,na,no file uploading,
https://fluidattacks.com/web/es/rules/048,yes,no,na,
https://fluidattacks.com/web/es/rules/049,yes,yes,0710-interfaces,
https://fluidattacks.com/web/es/rules/050,yes,no,No external js/css,
https://fluidattacks.com/web/es/rules/051,yes,no,na,
https://fluidattacks.com/web/es/rules/052,no,na,no critical components,
https://fluidattacks.com/web/es/rules/053,yes,no,writeups repo,
https://fluidattacks.com/web/es/rules/054,yes,no,writeups repo,
https://fluidattacks.com/web/es/rules/055,yes,no,writeups repo,
https://fluidattacks.com/web/es/rules/056,yes,no,writeups repo,
https://fluidattacks.com/web/es/rules/057,yes,no,writeups repo,
https://fluidattacks.com/web/es/rules/058,no,na,documentation,
https://fluidattacks.com/web/es/rules/059,no,na,documentation,
https://fluidattacks.com/web/es/rules/060,yes,no,writeups repo,
https://fluidattacks.com/web/es/rules/061,no,na,documentation,
https://fluidattacks.com/web/es/rules/062,no,na,no configuration,
https://fluidattacks.com/web/es/rules/063,yes,no,writeups repo,
https://fluidattacks.com/web/es/rules/064,yes,no,rules,
https://fluidattacks.com/web/es/rules/065,yes,no,writeups repo,
https://fluidattacks.com/web/es/rules/066,no,na,documentation,
https://fluidattacks.com/web/es/rules/067,no,na,documentation,
https://fluidattacks.com/web/es/rules/068,no,na,documentation,
https://fluidattacks.com/web/es/rules/069,yes,no,writeups repo,
https://fluidattacks.com/web/es/rules/070,no,na,vulnerable box,
https://fluidattacks.com/web/es/rules/071,no,na,no tests,
https://fluidattacks.com/web/es/rules/072,yes,no,na,
https://fluidattacks.com/web/es/rules/073,yes,no,na,
https://fluidattacks.com/web/es/rules/074,no,na,no critical components,
https://fluidattacks.com/web/es/rules/075,yes,yes,0778-insufficient-logging,
https://fluidattacks.com/web/es/rules/076,yes,yes,0778-insufficient-logging,
https://fluidattacks.com/web/es/rules/077,yes,yes,0778-insufficient-logging,
https://fluidattacks.com/web/es/rules/078,yes,yes,0778-insufficient-logging,
https://fluidattacks.com/web/es/rules/079,yes,yes,0778-insufficient-logging,
https://fluidattacks.com/web/es/rules/080,yes,yes,0778-insufficient-logging,
https://fluidattacks.com/web/es/rules/081,yes,yes,0778-insufficient-logging,
https://fluidattacks.com/web/es/rules/082,yes,yes,0778-insufficient-logging,
https://fluidattacks.com/web/es/rules/083,yes,yes,0778-insufficient-logging,
https://fluidattacks.com/web/es/rules/084,yes,yes,0778-insufficient-logging,
https://fluidattacks.com/web/es/rules/085,yes,yes,0778-insufficient-logging,
https://fluidattacks.com/web/es/rules/086,yes,yes,0778-insufficient-logging,
https://fluidattacks.com/web/es/rules/087,yes,yes,0778-insufficient-logging,
https://fluidattacks.com/web/es/rules/088,no,na,no critical data,
https://fluidattacks.com/web/es/rules/089,no,na,no critical data,
https://fluidattacks.com/web/es/rules/090,no,na,no critical data,
https://fluidattacks.com/web/es/rules/091,no,na,no critical data,
https://fluidattacks.com/web/es/rules/092,no,na,no critical data,
https://fluidattacks.com/web/es/rules/093,no,na,no critical data,
https://fluidattacks.com/web/es/rules/094,no,na,No rules for roles,
https://fluidattacks.com/web/es/rules/095,yes,no,na,
https://fluidattacks.com/web/es/rules/096,no,na,No rules for roles,
https://fluidattacks.com/web/es/rules/097,yes,no,na,
https://fluidattacks.com/web/es/rules/098,no,na,No physical facilities,
https://fluidattacks.com/web/es/rules/099,no,na,No physical facilities,
https://fluidattacks.com/web/es/rules/100,no,na,No physical facilities,
https://fluidattacks.com/web/es/rules/101,no,na,No physical facilities,
https://fluidattacks.com/web/es/rules/102,no,na,No physical facilities,
https://fluidattacks.com/web/es/rules/103,no,na,No physical facilities,
https://fluidattacks.com/web/es/rules/104,no,na,No physical facilities,
https://fluidattacks.com/web/es/rules/105,no,na,No physical facilities,
https://fluidattacks.com/web/es/rules/106,no,na,No physical facilities,
https://fluidattacks.com/web/es/rules/107,no,na,No physical facilities,
https://fluidattacks.com/web/es/rules/108,no,na,No physical facilities,
https://fluidattacks.com/web/es/rules/109,no,na,No physical facilities,
https://fluidattacks.com/web/es/rules/110,no,na,No physical facilities,
https://fluidattacks.com/web/es/rules/111,no,na,No physical facilities,
https://fluidattacks.com/web/es/rules/112,no,na,No physical facilities,
https://fluidattacks.com/web/es/rules/113,no,na,No physical facilities,
https://fluidattacks.com/web/es/rules/114,no,na,No physical facilities,
https://fluidattacks.com/web/es/rules/115,no,na,no emails,
https://fluidattacks.com/web/es/rules/116,no,na,no emails,
https://fluidattacks.com/web/es/rules/117,no,na,no emails,
https://fluidattacks.com/web/es/rules/118,no,na,no emails,
https://fluidattacks.com/web/es/rules/119,no,na,no emails,
https://fluidattacks.com/web/es/rules/120,no,na,no emails,
https://fluidattacks.com/web/es/rules/121,no,na,no emails,
https://fluidattacks.com/web/es/rules/122,no,na,no emails,
https://fluidattacks.com/web/es/rules/123,no,na,no emails,
https://fluidattacks.com/web/es/rules/124,no,na,no password expiry,
https://fluidattacks.com/web/es/rules/125,yes,no,na,
https://fluidattacks.com/web/es/rules/126,yes,no,na,
https://fluidattacks.com/web/es/rules/127,yes,yes,0256-unprotected-creds,
https://fluidattacks.com/web/es/rules/128,yes,no,na,
https://fluidattacks.com/web/es/rules/129,yes,yes,0521-precedent-passwords,
https://fluidattacks.com/web/es/rules/130,yes,yes,0262-password-expiry,
https://fluidattacks.com/web/es/rules/131,no,na,nonsense,
https://fluidattacks.com/web/es/rules/132,no,na,no passphrases,
https://fluidattacks.com/web/es/rules/133,no,na,no cross-system passwords,
https://fluidattacks.com/web/es/rules/134,no,na,no password hashing,
https://fluidattacks.com/web/es/rules/135,no,na,no password hashing,
https://fluidattacks.com/web/es/rules/136,no,na,no temp passwords,
https://fluidattacks.com/web/es/rules/137,no,na,no temp passwords,
https://fluidattacks.com/web/es/rules/138,no,na,no temp passwords,
https://fluidattacks.com/web/es/rules/139,yes,no,na,
https://fluidattacks.com/web/es/rules/140,no,na,no OTP,
https://fluidattacks.com/web/es/rules/141,yes,no,na,
https://fluidattacks.com/web/es/rules/142,no,na,no default creds,
https://fluidattacks.com/web/es/rules/143,yes,no,na,
https://fluidattacks.com/web/es/rules/144,no,na,no account deactivation,
https://fluidattacks.com/web/es/rules/145,no,na,no crypto keys,
https://fluidattacks.com/web/es/rules/146,no,na,no crypto keys,
https://fluidattacks.com/web/es/rules/147,no,na,no crypto keys,
https://fluidattacks.com/web/es/rules/148,no,na,no crypto keys,
https://fluidattacks.com/web/es/rules/149,no,na,no crypto keys,
https://fluidattacks.com/web/es/rules/150,no,na,no crypto keys,
https://fluidattacks.com/web/es/rules/151,no,na,no crypto keys,
https://fluidattacks.com/web/es/rules/152,yes,no,na,
https://fluidattacks.com/web/es/rules/153,no,na,no transactions,
https://fluidattacks.com/web/es/rules/154,no,na,no backdoors,
https://fluidattacks.com/web/es/rules/155,no,na,vulnerable box,
https://fluidattacks.com/web/es/rules/156,yes,no,na,
https://fluidattacks.com/web/es/rules/157,yes,no,na,
https://fluidattacks.com/web/es/rules/158,yes,no,na,
https://fluidattacks.com/web/es/rules/159,no,na,compiled language,
https://fluidattacks.com/web/es/rules/160,yes,yes,0079-*,
https://fluidattacks.com/web/es/rules/161,yes,no,na,
https://fluidattacks.com/web/es/rules/162,yes,no,na,
https://fluidattacks.com/web/es/rules/163,yes,no,na,
https://fluidattacks.com/web/es/rules/164,no,na,no complex data structures,
https://fluidattacks.com/web/es/rules/165,,,,??????
https://fluidattacks.com/web/es/rules/166,yes,no,na,
https://fluidattacks.com/web/es/rules/167,yes,no,na,
https://fluidattacks.com/web/es/rules/168,yes,no,na,
https://fluidattacks.com/web/es/rules/169,yes,yes,0089-*,
https://fluidattacks.com/web/es/rules/170,no,na,compiled language,
https://fluidattacks.com/web/es/rules/171,no,na,compiled language,
https://fluidattacks.com/web/es/rules/172,no,na,"in-memory db, no creds",
https://fluidattacks.com/web/es/rules/173,yes,yes,"0079-*, 0089-*",
https://fluidattacks.com/web/es/rules/174,no,na,no transactions,
https://fluidattacks.com/web/es/rules/175,yes,yes,0639-clickjacking,
https://fluidattacks.com/web/es/rules/176,yes,yes,0284-*,
https://fluidattacks.com/web/es/rules/177,yes,no,na,
https://fluidattacks.com/web/es/rules/178,no,na,no critical data,
https://fluidattacks.com/web/es/rules/179,no,na,no backups,
https://fluidattacks.com/web/es/rules/180,no,na,no different environments,
https://fluidattacks.com/web/es/rules/181,yes,yes,0319-cleartext-transmission,
https://fluidattacks.com/web/es/rules/182,no,na,docker container,
https://fluidattacks.com/web/es/rules/183,no,na,no critical data,
https://fluidattacks.com/web/es/rules/184,no,na,no critical data,
https://fluidattacks.com/web/es/rules/185,no,na,no critical data,
https://fluidattacks.com/web/es/rules/186,no,na,no cross-system transactions,
https://fluidattacks.com/web/es/rules/187,no,na,no data recolection,
https://fluidattacks.com/web/es/rules/188,no,na,no personal data,
https://fluidattacks.com/web/es/rules/189,no,na,no personal data,
https://fluidattacks.com/web/es/rules/190,no,na,no personal data,
https://fluidattacks.com/web/es/rules/191,no,na,no personal data,
https://fluidattacks.com/web/es/rules/192,no,na,no backups,
https://fluidattacks.com/web/es/rules/193,no,na,no backups,
https://fluidattacks.com/web/es/rules/194,no,na,no foreign devices,
https://fluidattacks.com/web/es/rules/195,no,na,no foreign devices,
https://fluidattacks.com/web/es/rules/196,no,na,no foreign devices,
https://fluidattacks.com/web/es/rules/197,no,na,no foreign devices,
https://fluidattacks.com/web/es/rules/198,no,na,no foreign devices,
https://fluidattacks.com/web/es/rules/199,no,na,no foreign devices,
https://fluidattacks.com/web/es/rules/200,no,na,no foreign devices,
https://fluidattacks.com/web/es/rules/201,no,na,no physical devices,
https://fluidattacks.com/web/es/rules/202,no,na,no physical devices,
https://fluidattacks.com/web/es/rules/203,no,na,no physical devices,
https://fluidattacks.com/web/es/rules/204,no,na,no physical devices,
https://fluidattacks.com/web/es/rules/205,no,na,no physical devices,
https://fluidattacks.com/web/es/rules/206,no,na,no physical devices,
https://fluidattacks.com/web/es/rules/207,no,na,no physical devices,
https://fluidattacks.com/web/es/rules/208,no,na,no physical devices,
https://fluidattacks.com/web/es/rules/209,no,na,no physical devices,
https://fluidattacks.com/web/es/rules/210,no,na,no physical devices,
https://fluidattacks.com/web/es/rules/211,no,na,no physical devices,
https://fluidattacks.com/web/es/rules/212,no,na,no physical devices,
https://fluidattacks.com/web/es/rules/213,no,na,no physical devices,
https://fluidattacks.com/web/es/rules/214,no,na,no physical devices,
https://fluidattacks.com/web/es/rules/215,no,na,no firewall,
https://fluidattacks.com/web/es/rules/216,no,na,no firewall,
https://fluidattacks.com/web/es/rules/217,no,na,no firewall,
https://fluidattacks.com/web/es/rules/218,no,na,no hypervisor,
https://fluidattacks.com/web/es/rules/219,no,na,no hypervisor,
https://fluidattacks.com/web/es/rules/220,no,na,no hypervisor,
https://fluidattacks.com/web/es/rules/221,no,na,no physical devices,
https://fluidattacks.com/web/es/rules/222,no,na,no physical devices,
https://fluidattacks.com/web/es/rules/223,no,na,no random numbers,
https://fluidattacks.com/web/es/rules/224,no,na,no crypto,
https://fluidattacks.com/web/es/rules/225,yes,no,na,
https://fluidattacks.com/web/es/rules/226,yes,no,na,
https://fluidattacks.com/web/es/rules/227,yes,no,na,
https://fluidattacks.com/web/es/rules/228,no,na,no SSO,
https://fluidattacks.com/web/es/rules/229,yes,no,na,
https://fluidattacks.com/web/es/rules/230,no,na,no critical data,
https://fluidattacks.com/web/es/rules/231,no,na,no biometrics,
https://fluidattacks.com/web/es/rules/232,no,na,no critical data,
https://fluidattacks.com/web/es/rules/233,yes,no,na,
https://fluidattacks.com/web/es/rules/234,no,na,no critical data,
https://fluidattacks.com/web/es/rules/235,yes,no,na,
https://fluidattacks.com/web/es/rules/236,yes,no,na,
https://fluidattacks.com/web/es/rules/237,yes,yes,0287-secure-actions,
https://fluidattacks.com/web/es/rules/238,yes,no,na,
https://fluidattacks.com/web/es/rules/239,no,na,no legal reqs,
https://fluidattacks.com/web/es/rules/240,no,na,no legal reqs,
https://fluidattacks.com/web/es/rules/241,no,na,no legal reqs,
https://fluidattacks.com/web/es/rules/242,no,na,no legal reqs,
https://fluidattacks.com/web/es/rules/243,no,na,documentation,
https://fluidattacks.com/web/es/rules/244,no,na,documentation,
https://fluidattacks.com/web/es/rules/245,no,na,documentation,
https://fluidattacks.com/web/es/rules/246,no,na,documentation,
https://fluidattacks.com/web/es/rules/247,no,na,no wireless,
https://fluidattacks.com/web/es/rules/248,no,na,no wireless,
https://fluidattacks.com/web/es/rules/249,no,na,no wireless,
https://fluidattacks.com/web/es/rules/250,no,na,no wireless,
https://fluidattacks.com/web/es/rules/251,no,na,no wireless,
https://fluidattacks.com/web/es/rules/252,no,na,no wireless,
https://fluidattacks.com/web/es/rules/253,no,na,no wireless,
https://fluidattacks.com/web/es/rules/254,no,na,no wireless,
https://fluidattacks.com/web/es/rules/255,yes,no,na,
https://fluidattacks.com/web/es/rules/256,yes,no,na,
https://fluidattacks.com/web/es/rules/257,no,na,no networking,
https://fluidattacks.com/web/es/rules/258,no,na,no networking,
https://fluidattacks.com/web/es/rules/259,no,na,no networking,
https://fluidattacks.com/web/es/rules/260,no,na,no social networks,
https://fluidattacks.com/web/es/rules/261,no,na,no social networks,
https://fluidattacks.com/web/es/rules/262,no,na,no third party components,
https://fluidattacks.com/web/es/rules/263,no,na,not indexable,
https://fluidattacks.com/web/es/rules/264,yes,no,na,
https://fluidattacks.com/web/es/rules/265,no,na,no critical processes,
https://fluidattacks.com/web/es/rules/266,no,na,no customization,
https://fluidattacks.com/web/es/rules/267,no,na,no customization,
https://fluidattacks.com/web/es/rules/268,no,na,no OS level,
https://fluidattacks.com/web/es/rules/269,no,na,no OS level,
https://fluidattacks.com/web/es/rules/270,no,na,no OS level,
https://fluidattacks.com/web/es/rules/271,no,na,no OS level,
https://fluidattacks.com/web/es/rules/272,no,na,no OS level,
https://fluidattacks.com/web/es/rules/273,no,na,no OS level,
https://fluidattacks.com/web/es/rules/274,no,na,no OS level,
https://fluidattacks.com/web/es/rules/275,no,na,no OS level,
https://fluidattacks.com/web/es/rules/276,no,na,no OS level,
https://fluidattacks.com/web/es/rules/277,no,na,no OS level,
https://fluidattacks.com/web/es/rules/278,no,na,no OS level,
https://fluidattacks.com/web/es/rules/279,no,na,no OS level,
https://fluidattacks.com/web/es/rules/280,no,na,no OS level,
https://fluidattacks.com/web/es/rules/281,no,na,no OS level,
https://fluidattacks.com/web/es/rules/282,no,na,no OS level,
https://fluidattacks.com/web/es/rules/283,no,na,no OS level,
https://fluidattacks.com/web/es/rules/284,no,na,no OS level,
https://fluidattacks.com/web/es/rules/285,no,na,no OS level,
https://fluidattacks.com/web/es/rules/286,no,na,no OS level,
https://fluidattacks.com/web/es/rules/287,no,na,no OS level,
https://fluidattacks.com/web/es/rules/288,no,na,no OS level,
https://fluidattacks.com/web/es/rules/289,no,na,no OS level,
https://fluidattacks.com/web/es/rules/290,no,na,no OS level,
https://fluidattacks.com/web/es/rules/291,no,na,no OS level,
https://fluidattacks.com/web/es/rules/292,no,na,no OS level,
https://fluidattacks.com/web/es/rules/293,no,na,no OS level,
https://fluidattacks.com/web/es/rules/294,no,na,no OS level,
https://fluidattacks.com/web/es/rules/295,no,na,no OS level,
https://fluidattacks.com/web/es/rules/296,no,na,no physical devices,
https://fluidattacks.com/web/es/rules/297,no,na,no physical devices,
https://fluidattacks.com/web/es/rules/298,no,na,no physical devices,
https://fluidattacks.com/web/es/rules/299,no,na,no physical devices,
https://fluidattacks.com/web/es/rules/300,no,na,no critical data,
https://fluidattacks.com/web/es/rules/301,no,na,no user settings,
https://fluidattacks.com/web/es/rules/302,yes,no,na,
https://fluidattacks.com/web/es/rules/303,no,na,no deployment,
https://fluidattacks.com/web/es/rules/304,no,na,no deployment,
https://fluidattacks.com/web/es/rules/305,no,na,no payment system,
https://fluidattacks.com/web/es/rules/306,yes,no,na,
https://fluidattacks.com/web/es/rules/307,no,na,no third party components,
https://fluidattacks.com/web/es/rules/308,no,na,no third party components,
https://fluidattacks.com/web/es/rules/309,no,na,no third party components,