https://raw.githubusercontent.com/wce-codepals/hacktoberfest-projecteuler/master/solutions/problem-22/solution.c
https://raw.githubusercontent.com/zimpha/competitive-programming/master/project-euler/volume01/22.cc
https://raw.githubusercontent.com/nayuki/Project-Euler-solutions/master/haskell/p022.hs
https://raw.githubusercontent.com/nayuki/Project-Euler-solutions/master/java/p022.java
https://raw.githubusercontent.com/kdungs/euler/master/022/euler_22.py
https://raw.githubusercontent.com/zsiciarz/euler.rs/master/src/solutions/problem22.rs
