https://rgolebiowski.blogspot.com.co/2016/06/ctf6-challenge.html
http://devloop.users.sourceforge.net/index.php?article88/solution-du-ctf-lampsecurity-6
https://highon.coffee/blog/lamp-security-ctf6-walkthrough/
https://download.vulnhub.com/lampsecurity/lampsec_ctf6.pdf
http://www.infond.fr/2010/06/tutoriel-injection-sql-lampsecurity.html
https://youtu.be/Wqyt3BCreTA
https://bebopsecurity.com/posts/lampsecurity-ctf6/
https://rgolebiowski.blogspot.com/2016/06/ctf6-challenge.html
https://www.thecybersploit.com/2019/04/lamp-security-ctf6-walk-through.html
http://rgolebiowski.blogspot.com/2016/06/ctf6-challenge.html
https://ushamim.wordpress.com/2016/04/23/pen-testing-lampsecurity-ctf6/
https://www.youtube.com/watch?v=x1zu7pZTwIM
https://null.co.in/event_sessions/183-lamp-security-ctf-6-walk-through-using-owasp-mantra
https://www.youtube.com/watch?v=CRJkGZlV6Vk
https://www.youtube.com/watch?v=uAWZsrG0v0k
http://www.infond.fr/2010/06/tutorial-sql-injection-lampsecurity-ctf.html
