https://raw.githubusercontent.com/rrylee/HackerRank-Solution/master/Algorithm/Implementation/18-encryption.cpp
https://raw.githubusercontent.com/RyanFehr/HackerRank/master/Algorithms/Implementation/Encryption/Solution.cs
https://raw.githubusercontent.com/leeychee/hackerrank/master/practice/algorithms/implementation/encryption/main.go
https://raw.githubusercontent.com/charles-wangkai/hackerrank/master/encryption/Solution.java
https://raw.githubusercontent.com/PaulNoth/hackerrank/master/practice/algorithms/implementation/encryption/Encryption.js
https://raw.githubusercontent.com/ehouarn-perret/EhouarnPerret.Python.HackerRank/master/1%20-%20Algorithms/1%20-%20Implementation/5%20-%20Encryption.py
https://raw.githubusercontent.com/PaulNoth/hackerrank/master/practice/algorithms/implementation/encryption/encryption.rb
https://raw.githubusercontent.com/PaulNoth/hackerrank/master/practice/algorithms/implementation/encryption/Encryption.scala
https://raw.githubusercontent.com/witekbobrowski/HackerRank/master/Algorithms/Implementation/encryption.swift
