https://www.youtube.com/watch?v=oGO9MEIz_tI&t
https://0xrick.github.io/hack-the-box/haystack/
https://medium.com/bugbountywriteup/hackthebox-haystack-db3682804890
https://0xdf.gitlab.io/2019/11/02/htb-haystack.html
https://shouitw.blogspot.com/2019/09/hack-box-haystack-writeup.html
https://snowscan.io/htb-writeup-haystack/
https://0x00sec.org/t/hack-the-box-haystack/17303
https://resources.infosecinstitute.com/hack-the-box-htb-machines-walkthrough-series-haystack/#gref
https://blog.4iresearch.com/ctf-writeup/hack-the-box/haystack/
https://xploit.sh/2020/02/21/htb-haystack/
https://www.hackingarticles.in/hack-the-box-haystack-walkthrough/
