https://raw.githubusercontent.com/pastelito02/Challenges-sol/master/Programming/codewars/going-to-cinema/yrcbry.c
https://raw.githubusercontent.com/pastelito02/Challenges-sol/master/Programming/codewars/going-to-cinema/Ryzee119.cc
https://raw.githubusercontent.com/pastelito02/Challenges-sol/master/Programming/codewars/going-to-cinema/rbsilvati.clj
https://raw.githubusercontent.com/pastelito02/Challenges-sol/master/Programming/codewars/going-to-cinema/g964.coffee
https://raw.githubusercontent.com/pastelito02/Challenges-sol/master/Programming/codewars/going-to-cinema/Ryzee119.cpp
https://raw.githubusercontent.com/pastelito02/Challenges-sol/master/Programming/codewars/going-to-cinema/g964.cr
https://raw.githubusercontent.com/pastelito02/Challenges-sol/master/Programming/codewars/going-to-cinema/dogg1222.cs
https://raw.githubusercontent.com/pastelito02/Challenges-sol/master/Programming/codewars/going-to-cinema/ZnZ.dart
https://raw.githubusercontent.com/pastelito02/Challenges-sol/master/Programming/codewars/going-to-cinema/konka.ex
https://raw.githubusercontent.com/pastelito02/Challenges-sol/master/Programming/codewars/going-to-cinema/konka.exs
https://raw.githubusercontent.com/pastelito02/Challenges-sol/master/Programming/codewars/going-to-cinema/hxdhttk.fs
https://raw.githubusercontent.com/pastelito02/Challenges-sol/master/Programming/codewars/going-to-cinema/g964.ftn
https://raw.githubusercontent.com/pastelito02/Challenges-sol/master/Programming/codewars/going-to-cinema/GoGio.go
https://raw.githubusercontent.com/pastelito02/Challenges-sol/master/Programming/codewars/going-to-cinema/solitude.hs
https://raw.githubusercontent.com/pastelito02/Challenges-sol/master/Programming/codewars/going-to-cinema/g964.hx
https://raw.githubusercontent.com/pastelito02/Challenges-sol/master/Programming/codewars/going-to-cinema/cranvil.java
https://raw.githubusercontent.com/pastelito02/Challenges-sol/master/Programming/codewars/going-to-cinema/g964.jl
https://raw.githubusercontent.com/pastelito02/Challenges-sol/master/Programming/codewars/going-to-cinema/AaronHarris.js
https://raw.githubusercontent.com/pastelito02/Challenges-sol/master/Programming/codewars/going-to-cinema/g964.kt
https://raw.githubusercontent.com/pastelito02/Challenges-sol/master/Programming/codewars/going-to-cinema/g964.ml
https://raw.githubusercontent.com/pastelito02/Challenges-sol/master/Programming/codewars/going-to-cinema/Vadimovna.php
https://raw.githubusercontent.com/pastelito02/Challenges-sol/master/Programming/codewars/going-to-cinema/buckrodg.py
https://raw.githubusercontent.com/pastelito02/Challenges-sol/master/Programming/codewars/going-to-cinema/rschifini.r
https://raw.githubusercontent.com/pastelito02/Challenges-sol/master/Programming/codewars/going-to-cinema/hibreez.rb
https://raw.githubusercontent.com/pastelito02/Challenges-sol/master/Programming/codewars/going-to-cinema/blaketarter.re
https://raw.githubusercontent.com/pastelito02/Challenges-sol/master/Programming/codewars/going-to-cinema/sjud.rs
https://raw.githubusercontent.com/pastelito02/Challenges-sol/master/Programming/codewars/going-to-cinema/nuzyly.scala
https://raw.githubusercontent.com/pastelito02/Challenges-sol/master/Programming/codewars/going-to-cinema/Dzienny.sh
https://raw.githubusercontent.com/pastelito02/Challenges-sol/master/Programming/codewars/going-to-cinema/Walik.ts
