https://raw.githubusercontent.com/MaskRay/HackerRank/master/reverse-shuffle-merge.cc
https://raw.githubusercontent.com/HamidTheGeek/HackerRankSolutions/master/Solutions/ReverseShuffleMerge.cs
https://raw.githubusercontent.com/charles-wangkai/hackerrank/master/reverse-shuffle-merge/Solution.java
https://raw.githubusercontent.com/yznpku/HackerRank/master/solution/practice/algorithms/greedy/reverse-shuffle-merge/solution.py
