https://medium.com/@sonalibhavsar977/ruby-on-rails-sql-injection-attack-and-prevention-9eb065f2ab67
https://www.vdalabs.com/2018/01/12/rails-vulnerabilities-find-part-1/
https://techvomit.net/railsgoat-notes/
https://www.youtube.com/watch?v=I5XAN_pkfIY
https://github.com/OWASP/railsgoat/wiki/A1-SQL-Injection-Concatentation
https://git.io/JvP26
https://github.com/OWASP/railsgoat/wiki/A1-SQL-Injection-Interpolation
https://slideplayer.com/slide/8208620/
http://manviksecureit.com/railsgoat/tutorials/injection
