https://raw.githubusercontent.com/Jean13/Enigma_Programming/master/3_prog.py
https://raw.githubusercontent.com/luceatnobis/challenges/master/enigmagroup.org/programming/3/3.pl
https://github.com/luceatnobis/challenges/tree/master/enigmagroup.org/programming/3
