https://bjmarr.uk/htb-devel-walkthrough/
https://www.bilibili.com/video/av20683752/
https://www.youtube.com/watch?v=2LNyAbroZUk
https://www.youtube.com/watch?v=DQINGMOoBdk
https://www.youtube.com/watch?v=-q0CSJUDF4I
https://www.youtube.com/watch?v=W7sweezNNFE
https://www.youtube.com/watch?v=uV3VsP-VM7M
https://www.youtube.com/watch?v=LNB3e-JXyQA
https://nomtechbytes.com/hack-the-box-ctf-devel/
https://forum.hackthebox.eu/discussion/680/devel-the-manual-way
https://www.reddit.com/r/hackthebox/comments/6c4zsl/1010105_devel/
https://drive.google.com/file/d/1PUn8iNFfwvTSNNp6m85x_F1lcX1Wxhul/view
https://caffeinated-security.com/2018/01/09/the-devel-is-in-the-details/
https://www.youtube.com/playlist?list=PLqM63j87R5p5RP6XOuAObtZ6z_P-xQ5CC
https://www.hackingarticles.in/hack-the-box-challenge-devel-walkthrough/
https://medium.com/vulnerables/hackthebox-devel-ecf86cf7822f
https://blog.barradell-johns.com/index.php/2019/02/13/htb-devel-writeup/
https://cybexsec.es/writeup-devel-hackthebox/
https://teckk2.github.io/writeup/2017/12/19/Devel.html
https://wudiaries.me/2019/03/04/HTB-Devel-Write-Up/
https://resources.infosecinstitute.com/hack-the-box-walkthrough-devel/#gref

