https://raw.githubusercontent.com/LFlare/picoctf_2017_writeup/master/miscellanous/worldchat/README.md
https://www.youtube.com/watch?v=svEuKmdK_9Y
https://raw.githubusercontent.com/BOAKGP/CTF-Writeups/master/PicoCTF%202017/Level%201/Misc/WorldChat/README.md
