https://cysecguide.blogspot.com/2017/10/root-me-write-up-bash-system-1.html
https://raw.githubusercontent.com/Vinnyz/Root-me-challenge-App-Script/master/Bash%20-%20System%201
https://underc0de.org/foro/soluciones-de-wargames/(root-me)-elf32-system-1/
http://guidedtourofmythoughts.blogspot.com/2016/08/app-script-elf32-system-1.html
https://infostatex.blogspot.com/2017/12/root-me-bash-password-authentication.html
https://bitbelle.wordpress.com/portfolio/root-me-web-server-challenge-solutions/
https://medium.com/@15520767/app-script-bash-system-1-500a11b84d7e
https://delt-a.github.io/app-script-bash-system-1/
https://1993-constant.tistory.com/512
https://duwjdtn11.tistory.com/178
https://raw.githubusercontent.com/RomaniukVadim/wargaming-challenges/master/RootMe/app-script/bash-system1.txt
https://gitlab.com/rsheasby/root-me-app-system/-/raw/master/01.%20Bash%20-%20System%201/instructions.md
https://devrant.com/rants/1879709/ok-i-need-help-have-you-done-root-me-challenges-im-stuck-in-app-script-section-b
