http://www.varunchaudhry.in/2017/03/kioptrix-level-4/
http://eng.omegaton.com/2017/03/lior-rahamim-kioptrix-report-first-of.html
http://www.gcura.tech/kioptrix-level-1-3-4/
https://jhalon.github.io/vulnhub-kioptrix4/
http://www.abatchy.com/2016/12/kioptrix-level-13-4-walkthrough-vulnhub.html
https://ub3rsec.github.io/pages/2016/kioptrix_level_4.html
http://www.hackingarticles.in/hack-kioptrix-vm-ctf-challenge/
https://kongwenbin.wordpress.com/2016/10/31/writeup-for-kioptrix-level-1-3-4/
https://yuriystanchev.blogspot.co.uk/2016/08/kioptrix-level-4.html
https://rgolebiowski.blogspot.co.uk/2016/07/kioptrix-4.html
http://ly0n.me/2015/06/11/hacking-series-kioptrix-level-4/
http://www.doyler.net/security-not-included/kioptrix-level-1-3-4-walkthrough
http://defsecurityjam.blogspot.co.uk/2015/05/kioptrix-level-4-walkthough.html
https://chousensha.github.io/blog/2014/06/22/pentest-lab-kioptrix-level-4/
http://rastamouse.me/blog/2013/kioptrix-level-1-dot-3/
http://forelsec.blogspot.com/2012/12/solving-kioptrix-level-4.html
https://blog.g0tmi1k.com/2012/02/kioptrix-level-4-limited-shell/
http://carlosrodallega.blogspot.co.uk/2012/03/kioptrix-4-solucionario.html
http://ghostinthelab.wordpress.com/2012/02/27/kioptrix-level-4-run2shell-script/
https://blog.g0tmi1k.com/2012/02/kioptrix-level-4-local-file/
https://blog.g0tmi1k.com/2012/02/kioptrix-level-4-sql-injection/
https://vimeo.com/36877630
http://www.mattandreko.com/2012/02/12/kioptrix-4/
http://www.sec-track.com/kioptrix-4-penetration-testing-challenge
https://volta-sec.blogspot.co.uk/2017/02/kioptrix-level-4.html
