https://raw.githubusercontent.com/fuwutu/CodeForces/master/2A%20-%20Winner.cpp
https://raw.githubusercontent.com/0JAdams/JavaCodeForcesSolutions/master/2A/Main.java
https://raw.githubusercontent.com/Sarthak30/Codeforces/master/winner.py
