https://raw.githubusercontent.com/skilled19/sols/master/cl/code-3/Pythagoras-63-integer-factorization.bf
https://gist.githubusercontent.com/CarterA/1587394/raw/822efea07a7ba6b22fee65f751c658e1b50b66ad/Trial%2520Division%2520Factorization%2520using%2520Prime%2520Sieve.c
https://raw.githubusercontent.com/DionysiosB/CodeAbbey/master/IntegerFactorization.cpp
https://raw.githubusercontent.com/javilag/codeAbbeyChalls/master/Challs/Go/063.go
https://raw.githubusercontent.com/pastelito02/Challenges-sol/master/Programming/Codeabbey/063/ecadena.hs
https://raw.githubusercontent.com/igor-kutepov/codeabbey/master/src/main/java/com/kutepov/samples/codeabbey/IntegerFactorization.java
https://gist.githubusercontent.com/jonathanmarvens/7206278/raw/ddda7447da79af931532941cf5d783031bc28b0a/math-prime-factorization.js
https://raw.githubusercontent.com/skilled19/sols/master/cl/code-3/omasloksa-63-integer-factorization.julia
https://raw.githubusercontent.com/pastelito02/Challenges-sol/master/Programming/Codeabbey/063/gerhardt_funk.lisp
https://raw.githubusercontent.com/skilled19/sols/master/cl/code-3/tinbtinb-square-root-18.lua
https://gist.githubusercontent.com/fasiha/61e57fd51bd98e87d0d1/raw/c0ee6bef934fdc03b3bbbe3b8c237ad3a4e89e88/nextpowlow.matlab
https://raw.githubusercontent.com/LaurentRosenfeld/Perl-6-Miscellaneous/master/Challenges-in-Perl6/Prime-factorization.md
https://raw.githubusercontent.com/pastelito02/Challenges-sol/master/Programming/Codeabbey/063/stefan.schmiedl.ml
https://raw.githubusercontent.com/GuillermoLopezJr/CodeAbbey/master/Abbey063/main.py
https://raw.githubusercontent.com/ruby/ruby/master/lib/prime.rb
https://raw.githubusercontent.com/pastelito02/Challenges-sol/master/Programming/Codeabbey/063/serviceable.rs
https://raw.githubusercontent.com/skilled19/sols/master/cl/code-3/litso_roman-63-integer-factorization.rst
https://raw.githubusercontent.com/mmcdon20/code_abbey/master/src/main/scala/Abbey063.scala
https://gist.githubusercontent.com/kristopherjohnson/e205cdbe1a7941ec8425/raw/e7edbbe6e4fbe5238d039b919962236ac3054173/primeFactorsOf.swift
https://raw.githubusercontent.com/skilled19/sols/master/cl/code-3/arhman.amr.2000-square-root-18.vb
https://raw.githubusercontent.com/JesseClarkND/codeabbey_in_C-NET/master/Integer%20Factorization
