https://raw.githubusercontent.com/PlatyPew/picoctf-2018-writeup/master/Forensics/admin%20panel/README.md
https://raw.githubusercontent.com/mzfr/ctf-writeups/master/picoCTF-2018/Forensics/admin%20panel/readme.md
https://raw.githubusercontent.com/Dvd848/CTFs/master/2018_picoCTF/admin%20panel.md
https://wannabyte.xyz/2018/10/picoctf-admin-panel/
https://tcode2k16.github.io/blog/posts/picoctf-2018-writeup/forensics/#solution-5
https://0x90sploiter.wordpress.com/2019/03/12/picoctf-2018-forensics-solutions-part-3/
https://team2wipe.blogspot.com/2019/04/picoctf-2018-admin-panel-challenge.html
