https://github.com/PlatyPew/picoctf-2018-writeup/tree/master/Web%20Exploitation/Client%20Side%20is%20Still%20Bad
https://raw.githubusercontent.com/Chad-Ballay/CTF-writeups/master/picoCTF2019/dont-use-client-side.md
https://raw.githubusercontent.com/Dvd848/CTFs/master/2019_picoCTF/dont-use-client-side.md
https://www.youtube.com/watch?v=VywA3SAAD2k
https://www.youtube.com/watch?v=mGQlkFTB0l4
https://www.youtube.com/watch?v=OA894vYquuo
https://4rth4s.blogspot.com/2019/10/picoctf2019webexploitation-write-up.html
https://nhthongdfvn.wordpress.com/2019/10/11/picoctf-2019-write-up-web/
https://www.jianshu.com/p/8e4688044e78
https://sites.google.com/view/cyberg0100/ctf/picoctf/picoctf-2019#h.p_ztwKb5M3Jdde
