https://raw.githubusercontent.com/zimpha/competitive-programming/master/project-euler/volume01/23.cc
https://raw.githubusercontent.com/wce-codepals/hacktoberfest-projecteuler/master/solutions/problem-23/solution.cpp
https://raw.githubusercontent.com/nayuki/Project-Euler-solutions/master/haskell/p023.hs
https://raw.githubusercontent.com/nayuki/Project-Euler-solutions/master/java/p023.java
https://raw.githubusercontent.com/sile/euler.rs/master/euler_00/src/problem023.rs
