https://ironhackers.es/en/writeups/writeup-rabbit-hackthebox/
https://github.com/Hackplayers/hackthebox-writeups/blob/master/machines/Rabbit/frosters-rabbit.pdf
https://www.youtube.com/watch?v=5nnJq_IWJog
https://www.secjuice.com/hackthebox-rabbit-write-up/
https://medium.com/@eDodo90/writeup-hack-the-box-machines-rabbi-d1384bd1df79
https://www.puckiestyle.nl/htb-rabbit/
