https://tuonilabs.wordpress.com/2016/12/17/overthewire-behemoth-write-up/
http://r4stl1n.github.io/2014/12/15/OverTheWire-Behemoth3.html
http://blog.zairo.kr/entry/OverTheWire-%E2%80%93-Behemoth-Level-3?category=570169
https://raw.githubusercontent.com/USCGA/writeups/master/overthewire/behemoth/level3/README.md
