https://raw.githubusercontent.com/RyanFehr/HackerRank/master/Algorithms/Implementation/Equalize%20the%20Array/Solution.cs
https://raw.githubusercontent.com/leeychee/hackerrank/master/practice/algorithms/implementation/equality_in_a_array/main.go
https://raw.githubusercontent.com/charles-wangkai/hackerrank/master/equality-in-a-array/Solution.java
https://raw.githubusercontent.com/PaulNoth/hackerrank/master/practice/algorithms/implementation/equalize_the_array/EqualizeTheArray.js
https://raw.githubusercontent.com/bhaskarkalahasthi/pythonprograms/master/equalize%20the%20array%20alogorithm%20in%20hacker%20rank.py
https://raw.githubusercontent.com/PaulNoth/hackerrank/master/practice/algorithms/implementation/equalize_the_array/equalize_the_array.rb
https://raw.githubusercontent.com/PaulNoth/hackerrank/master/practice/algorithms/implementation/equalize_the_array/EqualizeTheArray.scala
https://raw.githubusercontent.com/witekbobrowski/HackerRank/master/Algorithms/Implementation/equalize-the-array.swift
