https://raw.githubusercontent.com/pastelito02/Challenges-sol/master/Programming/codewars/how-good-are-you-really/KallDrogo.c
https://raw.githubusercontent.com/pastelito02/Challenges-sol/master/Programming/codewars/how-good-are-you-really/7097511.cc
https://raw.githubusercontent.com/pastelito02/Challenges-sol/master/Programming/codewars/how-good-are-you-really/ethercrow.clj
https://raw.githubusercontent.com/pastelito02/Challenges-sol/master/Programming/codewars/how-good-are-you-really/Shanethegamer.coffee
https://raw.githubusercontent.com/pastelito02/Challenges-sol/master/Programming/codewars/how-good-are-you-really/7097511.cpp
https://raw.githubusercontent.com/pastelito02/Challenges-sol/master/Programming/codewars/how-good-are-you-really/materialfuture.cr
https://raw.githubusercontent.com/pastelito02/Challenges-sol/master/Programming/codewars/how-good-are-you-really/ItisAsimulation.cs
https://raw.githubusercontent.com/pastelito02/Challenges-sol/master/Programming/codewars/how-good-are-you-really/MarcoMihaiCondrache.dart
https://raw.githubusercontent.com/pastelito02/Challenges-sol/master/Programming/codewars/how-good-are-you-really/jlgeering.ex
https://raw.githubusercontent.com/pastelito02/Challenges-sol/master/Programming/codewars/how-good-are-you-really/jlgeering.exs
https://raw.githubusercontent.com/pastelito02/Challenges-sol/master/Programming/codewars/how-good-are-you-really/Unnamed.hs
https://raw.githubusercontent.com/pastelito02/Challenges-sol/master/Programming/codewars/how-good-are-you-really/DSoroka22k.java
https://raw.githubusercontent.com/pastelito02/Challenges-sol/master/Programming/codewars/how-good-are-you-really/tesio.jl
https://raw.githubusercontent.com/pastelito02/Challenges-sol/master/Programming/codewars/how-good-are-you-really/stackcats.js
https://raw.githubusercontent.com/pastelito02/Challenges-sol/master/Programming/codewars/how-good-are-you-really/Munto.lua
https://raw.githubusercontent.com/pastelito02/Challenges-sol/master/Programming/codewars/how-good-are-you-really/N-Aon-Ma.php
https://raw.githubusercontent.com/pastelito02/Challenges-sol/master/Programming/codewars/how-good-are-you-really/crimsujii.py
https://raw.githubusercontent.com/pastelito02/Challenges-sol/master/Programming/codewars/how-good-are-you-really/acaccia.rb
https://raw.githubusercontent.com/pastelito02/Challenges-sol/master/Programming/codewars/how-good-are-you-really/villesau.re
https://raw.githubusercontent.com/pastelito02/Challenges-sol/master/Programming/codewars/how-good-are-you-really/demikhovr.ts
