https://raw.githubusercontent.com/nayuki/Project-Euler-solutions/master/haskell/p121.hs
https://raw.githubusercontent.com/nayuki/Project-Euler-solutions/master/java/p121.java
https://raw.githubusercontent.com/nayuki/Project-Euler-solutions/master/python/p121.py
https://raw.githubusercontent.com/nayuki/Project-Euler-solutions/master/mathematica/p121.mathematica
