https://raw.githubusercontent.com/zyjsuper/root-me-4/master/Web-Server/Install%20Files
https://bitbelle.wordpress.com/2018/01/10/root-me-web-server-challenge-solutions/
https://www.youtube.com/watch?v=_EMZhUhFxfs
https://www.youtube.com/watch?v=mZNQeUN1CYw
https://www.securecorp.co.kr/tag/root-me%20install%20files
https://rootable.tistory.com/entry/RootmeWebServer-install-files
https://mtucx.tistory.com/category/%23Challenges/Root-Me
https://hackinblood.lasermark.co/web-server-root-me-2/
https://jeonyoungsin.tistory.com/192
