https://raw.githubusercontent.com/KingMob/cryptopals-crypto-challenges/master/src/app/set2.clj
https://raw.githubusercontent.com/vedranMv/cryptoChallenge/master/set2/ch11.cpp
https://raw.githubusercontent.com/JarLob/MatasanoCryptoChallenge/master/Tests/Set2.cs
https://raw.githubusercontent.com/ysmolsky/cryptopals-matasano-solutions/master/11/main.go
https://raw.githubusercontent.com/ilchen/cryptopals/master/src/main/java/com/cryptopals/Set2.java
https://raw.githubusercontent.com/stripedpajamas/cryptopals/master/set2/3.js
https://raw.githubusercontent.com/lt/php-cryptopals/master/Cryptopals/Set2/Challenge11/Solution11.php
https://raw.githubusercontent.com/jaybosamiya/cryptopals-solutions/master/set2/11/run.py
https://raw.githubusercontent.com/technion/matasano_challenge/master/set2/chal11/chal11.rb
https://raw.githubusercontent.com/Daeinar/cryptopals/master/src/c11.rs
