https://pastebin.com/raw/kETQk7Bb
https://muirlandoracle.co.uk/2020/03/14/inclusion-write-up/
https://raw.githubusercontent.com/DeluxeOwl/CTF_Writeups/master/Inclusion/Inclusion.md
https://www.pinguytaz.net/index.php/2020/03/15/tryhackme-inclusion-reto-lfi/
https://www.youtube.com/watch?v=17adtSbp0Pg
