https://ryan-villarreal.com/2018/06/29/juice-shop-walkthrough-part-1/
https://www.youtube.com/watch?v=yhci-esLBT8
https://www.youtube.com/watch?v=yhci-esLBT8&list=PLelhKCa4OeJN56V4KF-CglBV15oS7MQUK&index=5
https://www.youtube.com/watch?v=Yo2NVzZsArQ
https://github.com/pastelito02/Challenges-sol/blob/master/JuiceShop/Bsqrl/solutions.md
https://raw.githubusercontent.com/apox64/OWASP-Juice-Shop-Write-Up/master/juice-shop-writeup.md
https://bkimminich.gitbooks.io/pwning-owasp-juice-shop/content/part2/xss.html
https://github.com/apox64/OWASP-Juice-Shop-Write-Up/blob/master/juice-shop-writeup.md
https://incognitjoe.github.io/hacking-the-juice-shop.html
