https://www.youtube.com/watch?v=vESegBSrm_U
https://0xrick.github.io/hack-the-box/chainsaw/
https://medium.com/bugbountywriteup/chainsaw-hackthebox-6b882d6ef5d1
https://www.youtube.com/watch?v=OKRyG0Vde9g
https://snowscan.io/htb-writeup-chainsaw/
https://defarbs.com/htb-chainsaw/
https://rootflag.io/hack-the-box-chainsaw/
https://hackso.me/chainsaw-htb-walkthrough/
https://www.youtube.com/watch?v=dq7qHScBYv4
https://ritcsec.wordpress.com/2020/04/28/2014/
