https://raw.githubusercontent.com/ShrikantJadhav/HackerRank-Solutions/master/MakeAnagram.cpp
https://raw.githubusercontent.com/leeychee/hackerrank/master/practice/algorithms/strings/make_anagram/main.go
https://raw.githubusercontent.com/charles-wangkai/hackerrank/master/ctci-making-anagrams/Solution.java
https://raw.githubusercontent.com/witekbobrowski/HackerRank/master/Cracking%20the%20Coding%20Interview/Data%20Structures/strings-making-anagrams.swift
