20
19 17 14 8 8 19
15 5 18 16 13 20
4 11 15 0 20 3
17 8 2 18 18 13
19 13 10 19 8 15
18 3 14 12 4 18
11 5 13 9 11 7
12 5 3 7 1 13
20 2 10 2 5 1
17 20 11 6 0 18
4 17 18 19 19 15
5 20 15 19 8 9
11 1 0 15 9 16
16 7 8 5 8 6
2 6 8 13 9 9
8 17 2 6 12 6
15 20 10 10 15 10
5 9 20 6 19 19
12 20 15 0 4 7
9 7 10 17 4 4
