https://raw.githubusercontent.com/pastelito02/Challenges-sol/master/Programming/codewars/sum-of-positive/kevin111.c
https://raw.githubusercontent.com/pastelito02/Challenges-sol/master/Programming/codewars/sum-of-positive/Demonadik.cc
https://raw.githubusercontent.com/pastelito02/Challenges-sol/master/Programming/codewars/sum-of-positive/CrazyMerlyn.coffee
https://raw.githubusercontent.com/pastelito02/Challenges-sol/master/Programming/codewars/sum-of-positive/Demonadik.cpp
https://raw.githubusercontent.com/pastelito02/Challenges-sol/master/Programming/codewars/sum-of-positive/spTorin.cr
https://raw.githubusercontent.com/pastelito02/Challenges-sol/master/Programming/codewars/sum-of-positive/SheenyMini.cs
https://raw.githubusercontent.com/pastelito02/Challenges-sol/master/Programming/codewars/sum-of-positive/Unnamed.dart
https://raw.githubusercontent.com/pastelito02/Challenges-sol/master/Programming/codewars/sum-of-positive/Evmorov.ex
https://raw.githubusercontent.com/pastelito02/Challenges-sol/master/Programming/codewars/sum-of-positive/Evmorov.exs
https://raw.githubusercontent.com/pastelito02/Challenges-sol/master/Programming/codewars/sum-of-positive/SlavaDaun.go
https://raw.githubusercontent.com/pastelito02/Challenges-sol/master/Programming/codewars/sum-of-positive/ovidiu141.groovy
https://raw.githubusercontent.com/pastelito02/Challenges-sol/master/Programming/codewars/sum-of-positive/statianzo.hs
https://raw.githubusercontent.com/pastelito02/Challenges-sol/master/Programming/codewars/sum-of-positive/DSoroka22k.java
https://raw.githubusercontent.com/pastelito02/Challenges-sol/master/Programming/codewars/sum-of-positive/dstarerstor.jl
https://raw.githubusercontent.com/pastelito02/Challenges-sol/master/Programming/codewars/sum-of-positive/julian-Durdur.js
https://raw.githubusercontent.com/pastelito02/Challenges-sol/master/Programming/codewars/sum-of-positive/cljabasa.kt
https://raw.githubusercontent.com/pastelito02/Challenges-sol/master/Programming/codewars/sum-of-positive/vladshyrinov.lua
https://raw.githubusercontent.com/pastelito02/Challenges-sol/master/Programming/codewars/sum-of-positive/GrayJack.ml
https://raw.githubusercontent.com/pastelito02/Challenges-sol/master/Programming/codewars/sum-of-positive/tod2002.php
https://raw.githubusercontent.com/pastelito02/Challenges-sol/master/Programming/codewars/sum-of-positive/AcesOfGlory.py
https://raw.githubusercontent.com/pastelito02/Challenges-sol/master/Programming/codewars/sum-of-positive/CrazyMerlyn.rb
https://raw.githubusercontent.com/pastelito02/Challenges-sol/master/Programming/codewars/sum-of-positive/olvnikon.re
https://raw.githubusercontent.com/pastelito02/Challenges-sol/master/Programming/codewars/sum-of-positive/Argrath67.rs
https://raw.githubusercontent.com/pastelito02/Challenges-sol/master/Programming/codewars/sum-of-positive/jealous.scala
https://raw.githubusercontent.com/pastelito02/Challenges-sol/master/Programming/codewars/sum-of-positive/jlwillo.swift
https://raw.githubusercontent.com/pastelito02/Challenges-sol/master/Programming/codewars/sum-of-positive/michaljuris.ts
