https://raw.githubusercontent.com/pastelito02/Challenges-sol/master/Programming/Codeabbey/053/khaledzaki37.cc
https://raw.githubusercontent.com/pastelito02/Challenges-sol/master/Programming/Codeabbey/053/doutelet.cs
https://raw.githubusercontent.com/pastelito02/Challenges-sol/master/Programming/Codeabbey/053/Ratzenfutz.d
https://raw.githubusercontent.com/pastelito02/Challenges-sol/master/Programming/Codeabbey/053/siloimwald.fs
https://raw.githubusercontent.com/igor-kutepov/codeabbey/master/src/main/java/com/kutepov/samples/codeabbey/KingAndQueen.java
https://raw.githubusercontent.com/pastelito02/Challenges-sol/master/Programming/Codeabbey/053/cankayabebesi.js
https://raw.githubusercontent.com/pastelito02/Challenges-sol/master/Programming/Codeabbey/053/treeproc.lisp
https://raw.githubusercontent.com/pastelito02/Challenges-sol/master/Programming/Codeabbey/053/atercattus.lua
https://raw.githubusercontent.com/pastelito02/Challenges-sol/master/Programming/Codeabbey/053/KOR_Ryat.php
https://raw.githubusercontent.com/pastelito02/Challenges-sol/master/Programming/Codeabbey/053/pearl_barley.pl
https://raw.githubusercontent.com/Rsilnav/Codeabbey/master/53.py
https://raw.githubusercontent.com/pastelito02/Challenges-sol/master/Programming/Codeabbey/053/maverick.rb
https://raw.githubusercontent.com/mmcdon20/code_abbey/master/src/main/scala/Abbey053.scala
https://raw.githubusercontent.com/skilled19/sols/master/cl/code-3/hamza772000-63-integer-factorization.vb
https://raw.githubusercontent.com/JesseClarkND/codeabbey_in_C-NET/master/King%20and%20Queen
