https://raw.githubusercontent.com/MikeMirzayanov/binary-heap-benchmark/master/cpp/heap.cpp
https://raw.githubusercontent.com/MikeMirzayanov/binary-heap-benchmark/master/csharp/Heap.cs
https://raw.githubusercontent.com/MikeMirzayanov/binary-heap-benchmark/master/d/heap.d
https://raw.githubusercontent.com/MikeMirzayanov/binary-heap-benchmark/master/go/heap.go
https://raw.githubusercontent.com/igor-kutepov/codeabbey/master/src/main/java/com/kutepov/samples/codeabbey/BinaryHeap.java
https://raw.githubusercontent.com/MikeMirzayanov/binary-heap-benchmark/master/javascript/heap.js
https://raw.githubusercontent.com/MikeMirzayanov/binary-heap-benchmark/master/pascal/heap.pas
https://raw.githubusercontent.com/MikeMirzayanov/binary-heap-benchmark/master/php/heap.php
https://raw.githubusercontent.com/MikeMirzayanov/binary-heap-benchmark/master/perl/heap.pl
https://raw.githubusercontent.com/MikeMirzayanov/binary-heap-benchmark/master/ruby/heap.rb
https://raw.githubusercontent.com/MikeMirzayanov/binary-heap-benchmark/master/rust/src/main.rs
https://raw.githubusercontent.com/MikeMirzayanov/binary-heap-benchmark/master/scala/heap.scala
https://raw.githubusercontent.com/JesseClarkND/codeabbey_in_C-NET/master/Binary%20Heap
