https://raw.githubusercontent.com/Gamer1092/Coderbyte/Easy/Powers%20of%20Two.cpp
https://raw.githubusercontent.com/ZLester/Coderbyte-Solutions/master/Easy/27%20-%20Powers%20of%20Two.js
https://raw.githubusercontent.com/tomyancey/coderbyte_solutions/master/powers_of_two.rb
