https://raw.githubusercontent.com/pastelito02/Challenges-sol/master/Programming/Codeabbey/153/Gintaras_S.cc
https://raw.githubusercontent.com/pastelito02/Challenges-sol/master/Programming/Codeabbey/153/Signum_X.cs
https://raw.githubusercontent.com/pastelito02/Challenges-sol/master/Programming/Codeabbey/153/go_coder.go
https://raw.githubusercontent.com/pastelito02/Challenges-sol/master/Programming/Codeabbey/153/Hennes.hs
https://raw.githubusercontent.com/pastelito02/Challenges-sol/master/Programming/Codeabbey/153/Mar-Alex.java
https://raw.githubusercontent.com/pastelito02/Challenges-sol/master/Programming/Codeabbey/153/matthias.js
https://raw.githubusercontent.com/pastelito02/Challenges-sol/master/Programming/Codeabbey/153/Dmytro-Pryhornytskyi.php
https://raw.githubusercontent.com/pastelito02/Challenges-sol/master/Programming/Codeabbey/153/Kenshin.py
https://raw.githubusercontent.com/pastelito02/Challenges-sol/master/Programming/Codeabbey/153/bluknite.scala
https://raw.githubusercontent.com/pastelito02/Challenges-sol/master/Programming/Codeabbey/153/Guy-Gervais.vb
