https://www.cloud.tencent.com/developer/article/1078965
https://ctf-time.com/bwapp-walkthrough-sql-injection-cross-site-scripting/
https://teckk2.github.io/web-pentesting/2018/02/07/SQL-Injection-Stored-(User-Agent).html
https://www.youtube.com/watch?v=j_pg--XmVGU
