https://thefluffy007.com/2019/03/14/tryhackme-pickle-rick-ctf/
https://floreaiulianpfa.com/pickle-rick-try-hack-me/
https://www.embeddedhacker.com/2019/09/hacking-walkthrough-thm-pickle-rick/
https://fr33s0ul.tech/pickle-rick/
https://book.hacktricks.xyz/ctf-write-ups/try-hack-me/pickle-rick
https://shafdo.github.io/pages/blog/ctf/pickleRick/
https://bobloblaw321.wixsite.com/website/post/tryhackme-picklerick
https://medium.com/bugbountywriteup/picklerick-tryhackme-writeup-74c6fedae081
https://www.cybergoat.co.uk/writeup/Pickle-Rick/
https://saharshtapi.github.io/pickleRick
https://sckull.github.io/posts/picklerick/
