https://raw.githubusercontent.com/mneudert/codeeval/master/easy/multiplication-tables/c.c
https://raw.githubusercontent.com/mneudert/codeeval/master/easy/multiplication-tables/cpp.cpp
https://raw.githubusercontent.com/mneudert/codeeval/master/easy/multiplication-tables/cs.cs
https://raw.githubusercontent.com/mneudert/codeeval/master/easy/multiplication-tables/go.go
https://raw.githubusercontent.com/pascal-bourut/codeeval-challenges/master/easy/23%20-%20Multiplication%20Tables/main.js
https://raw.githubusercontent.com/pascal-bourut/codeeval-challenges/master/easy/23%20-%20Multiplication%20Tables/main.php
