33
47 51 63 56
62 41 58 50 53
48 52 55 55 67 36
39 42 58 51 63
58 50 66 78
77 80 77 72
52 64 71 79 64
58 70 73 76 64
64 88 69 84
54 51 47 42
58 46 49 37 53
53 62 69 41 57
68 64 52 80 64 72
68 60 65
60 69 76 45 57
71 44 64
77 72 69 77 60
75 69 63 81 84
28 52 70 55 40
82 67 79 86
62 82 78 74 66
59 67 47 62 43
59 56 52 59 64
35 51 30
65 57 73 57
51 44 47 47 35
94 67 70 55 74
86 67 83 74 71 95
57 75 66 87
74 83 67
31 23 43 51
65 69 62 53
53 96 57 72
