https://github.com/Hackplayers/hackthebox-writeups/blob/master/machines/Valentine/Ghostpp7-Valentine.pdf
https://github.com/Hackplayers/hackthebox-writeups/blob/master/machines/Valentine/drx51-valentine.pdf
https://github.com/Hackplayers/hackthebox-writeups/blob/master/machines/Valentine/fiti-valentine.pdf
https://github.com/Hackplayers/hackthebox-writeups/blob/master/machines/Valentine/frosters-valentine.pdf
https://github.com/Hackplayers/hackthebox-writeups/blob/master/machines/Valentine/mcruz-valentine.pdf
https://github.com/Hackplayers/hackthebox-writeups/blob/master/machines/Valentine/pimmytrousers-valentine.pdf
https://v3ded.github.io/ctf/htb-valentine.html
https://medium.com/@DRX_Sicher/walkthrough-valentine-d03fbc295fab
https://dastinia.io/write-up/hackthebox/2018/05/11/hackthebox-valentine-writeup/
https://www.youtube.com/watch?v=gnLGRb--AoM
https://www.youtube.com/watch?v=koiwiJELNiY
https://www.absolomb.com/2018-07-31-HackTheBox-Valentine/
https://www.hackingarticles.in/hack-the-box-valentine-walkthrough/
https://resources.infosecinstitute.com/hack-the-box-htb-machines-walkthrough-series-valentine/#gref
https://medium.com/ctf-writeups/valentine-write-up-htb-a4d3c950fa6d
https://0xdf.gitlab.io/2018/07/28/htb-valentine.html
https://redteamtutorials.com/2018/10/07/hack-the-box-htb-valentine/
https://hkh4cks.com/blog/2018/07/28/htb-valentine-walkthrough/
https://initinfosec.com/writeups/htb/2020/01/19/valentine-htb-writeup/
https://medium.com/@ranakhalil101/hack-the-box-valentine-writeup-w-o-metasploit-1b4288406713
https://exploitnetworking.com/en/security-en/htb-valentine-writeup-2
https://github.com/Kyuu-Ji/htb-write-up/blob/master/valentine/write-up-valentine.md
