https://raw.githubusercontent.com/texus/codingame/master/SingePlayer/Easy/Defibrillators.cpp
https://raw.githubusercontent.com/pathosDev/CodinGame-Solutions/master/Puzzles/Easy/Defibrillators/CSharp.cs
https://raw.githubusercontent.com/joand/codingame/master/easy/Defibrillators/src/main/java/Solution.java
https://raw.githubusercontent.com/denvash/codingame-puzzles-solutions/master/1-Easy/Defibrillators.js
https://raw.githubusercontent.com/vadim-job-hg/Codingame/master/EASY/DEFIBRILLATORS/php/defibrillators.php
https://raw.githubusercontent.com/pathosDev/CodinGame-Solutions/master/Puzzles/Easy/Defibrillators/Python.py
