https://raw.githubusercontent.com/charles-wangkai/hacker.org/master/challenge/DidacticGreen.py
http://hackerorgsolution.blogspot.com.co/2014/09/didactic-green.html
https://raw.githubusercontent.com/luceatnobis/challenges/master/hacker.org/didactic_green/read.pl
