https://www.pvsm.ru/web/2625
https://www.youtube.com/watch?v=De9KJqA55mE
https://www.youtube.com/watch?v=LANpG2n52xA
https://www.acunetix.com/blog/web-security-zone/how-to-verify-a-cross-site-scripting-vulnerability/
