https://resources.infosecinstitute.com/the-bodgeit-store-part-1-2/
https://passionforpentesting.com/2018/01/15/the-bodgeit-store-series-3-get-the-store-to-owe-you-money-bodgeit-infosec-pentest-appsec-webapp/
http://itsorcerer.blogspot.com/2011/11/bodgeit-notes.html
http://ender0101.blogspot.com/2014/08/bodgeit.html
https://thefluffy007.com/2018/01/15/the-bodgeit-store-series-3-get-the-store-to-owe-you-money-bodgeit-infosec-pentest-appsec-webapp/
