https://raw.githubusercontent.com/Irioth/tickets-solver/master/solver.go
https://raw.githubusercontent.com/davidparedes/Spotify-puzzle-ticket-lottery/master/Ticketlottery.java
https://raw.githubusercontent.com/alonsovidales/Spotify-Puzzles/master/ticket_lottery/lottery.py
https://raw.githubusercontent.com/dys2/ticketing-puzzle/master/src/index.ts
