https://raw.githubusercontent.com/djcomidi/enigmagroup/master/programming/programming01.py
https://raw.githubusercontent.com/Jean13/Enigma_Programming/master/1_prog.py
https://raw.githubusercontent.com/luceatnobis/challenges/master/enigmagroup.org/programming/1/header.pl
https://github.com/luceatnobis/challenges/tree/master/enigmagroup.org/programming/1
