https://catatansiical.blogspot.com/2015/06/writeup-telnet-authentication-root-me.html
https://medium.com/secttp/root-me-network-telnet-authentication-1198f2af3efe
https://github.com/sfpskywood/babyctf/blob/master/doc/1.3_network.md#telnet-authentication
https://tgraph.io/CTF-Network-Zadaniya-s-Root-Me-chast-1-09-15
https://raw.githubusercontent.com/RomaniukVadim/wargaming-challenges/master/RootMe/network/telnet.txt
