http://c6h4cl2.lab.uy.to/688
http://sithlab.tistory.com/m/688
https://www.yeahhub.com/enigma-group-starter-challenges-solutions/
https://www.youtube.com/watch?v=74b4uv51HMk
https://raw.githubusercontent.com/luceatnobis/challenges/master/enigmagroup.org/audit/1/solution
https://sithlab.tistory.com/688
