https://raw.githubusercontent.com/nayuki/Project-Euler-solutions/master/haskell/p055.hs
https://raw.githubusercontent.com/nayuki/Project-Euler-solutions/master/java/p055.java
https://raw.githubusercontent.com/DestructHub/ProjectEuler/master/Problem055/CommonLisp/solution_1.lisp
https://raw.githubusercontent.com/kdungs/euler/master/055/euler_55.py
https://raw.githubusercontent.com/sile/euler.rs/master/euler_02/src/problem055.rs
