https://www.hackplayers.com/2010/11/solucion-al-reto-de-la-caja-fuerte.html
http://www.sinfocol.org/2010/11/resolucion-reto-la-caja-fuerte-de-hackplayersblogspotcom/
http://www.sinfocol.org/category/ingenieria-inversa/
