https://5t0rm5had0w.wordpress.com/categories/walkthroughs/owasp-security-shepherd-walkthrough
https://linuxsecurityblog.com/2018/09/12/owasp-security-shepherd-cross-site-scripting-one-solution-lsb/
http://purpleskypeter.blogspot.com/2018/04/owasp-securityshepherd-xss1.html
https://susiecybersecurity.wordpress.com/2017/06/20/owasp-security-shepherd-cross-site-scriptingxss-writes-up/
https://sythonic.github.io/2016/OWASP-Security-Shepherd/
https://www.youtube.com/watch?v=6WFhkjaWc_4
https://www.youtube.com/watch?v=tDSa7jNiCYo
