https://www.youtube.com/watch?v=MemQDS5YSNg
https://www.youtube.com/watch?v=uA_gjPMAYUU
https://www.youtube.com/watch?v=H_nkPmlbDQw
http://www.infosecisland.com/articleview/23-HTTP-Cache-Poisoning-and-Host-Header-Injection.html
https://dzone.com/articles/what-is-a-host-header-attack
https://github.com/skiptomyliu/solutions-bwapp/blob/master/README.md
https://portswigger.net/blog/practical-web-cache-poisoning
https://wooly6bear.files.wordpress.com/2016/01/bwapp-tutorial.pdf
https://es.scribd.com/document/346770715/bwapp-tutorial-pdf
https://sitegallery.ru/video/OzYaDjcMAA4hIw4/http-header-injection-mannual-and-burpsuite.html
https://www.youtube.com/watch?v=DxJQIAz2lA0
https://www.youtube.com/watch?v=44d8hKMglbU
https://www.youtube.com/watch?v=E3qpFV-tErY
https://www.youtube.com/watch?v=xSmWUn9S_Os
https://www.youtube.com/watch?v=LG2N67dGy_U
https://www.youtube.com/watch?v=Raab4ktl2so
https://www.youtube.com/watch?v=PicCsNnRznQ
https://www.youtube.com/watch?v=JH8k3bM01cg
https://www.youtube.com/watch?v=iOc0tuMJx0I
https://www.youtube.com/watch?v=1d1tUefYn4U
