https://raw.githubusercontent.com/mpillar/codeeval/master/1-moderate/try-to-solve-it/main.cpp
https://raw.githubusercontent.com/TheCK/codeChallenges/master/codeEval/src/main/java/org/ck/codeEval/medium/trytosolveit/Main.java
https://raw.githubusercontent.com/ferhatelmas/algo/master/codeEval/medium/try_to_solve_it.py
