https://raw.githubusercontent.com/pastelito02/Challenges-sol/master/Programming/Codeabbey/048/emmanuelle.cc
https://raw.githubusercontent.com/spokenlore/CodeAbbey/master/Beginner/19.%20collatzSeq/collatzSeq.cpp
https://raw.githubusercontent.com/Tempurturtul/CodeAbbey/master/C%23/CollatzSequence.cs
https://raw.githubusercontent.com/pastelito02/Challenges-sol/master/Programming/Codeabbey/048/Ratzenfutz.d
https://raw.githubusercontent.com/pastelito02/Challenges-sol/master/Programming/Codeabbey/048/siloimwald.fs
https://raw.githubusercontent.com/johnfredswift/CodeAbbey/master/ProblemsCode/CollatzSequence.go
https://raw.githubusercontent.com/pastelito02/Challenges-sol/master/Programming/Codeabbey/048/faked_IQ.hs
https://raw.githubusercontent.com/madhavbharadwaj/CodeAbbey/master/java_20_Collatz%20Sequence.java
https://raw.githubusercontent.com/pastelito02/Challenges-sol/master/Programming/Codeabbey/048/tomdooley.jl
https://raw.githubusercontent.com/beesmart/codeAbbey_problems/master/collatzSequence.js
https://raw.githubusercontent.com/chriswood/codeabbey/master/caid48.lisp
https://raw.githubusercontent.com/pastelito02/Challenges-sol/master/Programming/Codeabbey/048/ayy_luamao.lua
https://raw.githubusercontent.com/pastelito02/Challenges-sol/master/Programming/Codeabbey/048/stefan.schmiedl.ml
https://raw.githubusercontent.com/pastelito02/Challenges-sol/master/Programming/Codeabbey/048/uncletobe.php
https://raw.githubusercontent.com/pastelito02/Challenges-sol/master/Programming/Codeabbey/048/pearl_barley.pl
https://raw.githubusercontent.com/jason-ellis/codeabbey/master/python3/048.py
https://raw.githubusercontent.com/John-Russell/CodeAbbey/master/Collatz%20Sequence.rb
https://gitlab.com/CodeArtisan/codeabbey/raw/master/problem_48/solution.rkt
https://raw.githubusercontent.com/mmcdon20/code_abbey/master/src/main/scala/Abbey048.scala
https://raw.githubusercontent.com/pastelito02/Challenges-sol/master/Programming/Codeabbey/048/matthew_h.vb
https://raw.githubusercontent.com/JesseClarkND/codeabbey_in_C-NET/master/Collatz%20Sequence
