https://raw.githubusercontent.com/KingMob/cryptopals-crypto-challenges/master/src/app/set3.clj
https://raw.githubusercontent.com/JarLob/MatasanoCryptoChallenge/master/Tests/Set3.cs
https://raw.githubusercontent.com/ysmolsky/cryptopals-matasano-solutions/master/19/main.go
https://raw.githubusercontent.com/ilchen/cryptopals/master/src/main/java/com/cryptopals/Set3.java
https://raw.githubusercontent.com/lt/php-cryptopals/master/Cryptopals/Set3/Challenge19/Solution19.php
https://raw.githubusercontent.com/jaybosamiya/cryptopals-solutions/master/set3/19/run.py
https://raw.githubusercontent.com/technion/matasano_challenge/master/set3/chal19/chal19.rb
https://raw.githubusercontent.com/Daeinar/cryptopals/master/src/c19.rs
