https://raw.githubusercontent.com/zimpha/competitive-programming/master/project-euler/volume01/41.cc
https://raw.githubusercontent.com/nayuki/Project-Euler-solutions/master/java/p041.java
https://raw.githubusercontent.com/DestructHub/ProjectEuler/master/Problem041/CommonLisp/solution_1.lisp
https://raw.githubusercontent.com/kdungs/euler/master/041/euler_41.py
https://raw.githubusercontent.com/zsiciarz/euler.rs/master/src/solutions/problem41.rs
https://raw.githubusercontent.com/DestructHub/ProjectEuler/master/Problem041/Swift/solution_1.swift
