https://www.jianshu.com/p/5a95a40439b4
https://www.cnblogs.com/lcamry/p/5762973.html
https://museljh.github.io/2019/02/11/sqli-labs%20less%2026%20~%2030/
https://flag0.com/2019/10/05/sqli-lib/
https://www.v0n.top/2019/08/21/sqli-labs%E5%81%9A%E9%A2%98%E8%AE%B0%E5%BD%95(%E4%BA%8C)/
http://lz2y.top/index.php/2020/02/sqli-labs-less-23-to-less-28a/
https://www.itdaan.com/tw/329716b25dee638f45e8b767fd25241c
https://flora.gitbooks.io/web-application-security/sqli-labs_lesson_27_&_27a.html
