http://itknowledgeexchange.techtarget.com/Irregular-Expressions/hackthissite-org-application-level-7/
http://itknowledgeexchange.techtarget.com/Irregular-Expressions/hackthissite-org-application-level-7-part-2/
http://itknowledgeexchange.techtarget.com/Irregular-Expressions/hackthissite-org-application-level-7-part-3/
http://itknowledgeexchange.techtarget.com/Irregular-Expressions/hackthissite-org-application-level-7-part-4/
http://itknowledgeexchange.techtarget.com/Irregular-Expressions/hackthissite-org-application-level-7-part-5/
