https://raw.githubusercontent.com/HamidTheGeek/HackerRankSolutions/master/Solutions/NewYearChaos.cs
https://raw.githubusercontent.com/irlndts/go-hackerrank/master/interview-preparation-kit/arrays/4.new-year-chaos.go
https://raw.githubusercontent.com/PeterASteele/HackerRankProblems/master/NewYearChaos.java
https://raw.githubusercontent.com/gabrielgiordan/hackerrank/master/algorithms/constructive-algorithms/new-year-chaos.js
https://raw.githubusercontent.com/JaredLGillespie/HackerRank/master/Python/new-year-chaos.py
