https://www.youtube.com/watch?v=vABvYNf84eQ&feature=youtu.be&t=50s
https://www.youtube.com/watch?v=JtXeD9pNznA&feature=youtu.be&t=55s
https://raw.githubusercontent.com/pastelito02/Challenges-sol/master/canyouhackit/Web/Solution02.lst
