https://raw.githubusercontent.com/royalpranjal/Hackerrank/master/BonApp%C3%A9tit.cpp
https://raw.githubusercontent.com/RyanFehr/HackerRank/master/Algorithms/Implementation/Bon%20Appetit/Solution.cs
https://raw.githubusercontent.com/rshaghoulian/HackerRank_solutions/master/General%20Programming/Basic%20Programming/Bon%20Appetit/Solution.java
https://raw.githubusercontent.com/dalenguyen/hackerrank-javascript/master/algorithms/bon-appetit.js
https://raw.githubusercontent.com/danhenriquesc/hackerrank/master/algorithms/implementation/bon_appetit.php
https://raw.githubusercontent.com/ynyeh0221/HackerRank/master/Bon%20App%C3%A9tit.py
https://raw.githubusercontent.com/raghav97/Hackerrank-Solutions/master/bon_appetit.rb
https://raw.githubusercontent.com/witekbobrowski/HackerRank/master/Algorithms/Implementation/bon-appetit.swift
