https://raw.githubusercontent.com/gravoo/codeabbey/master/Prime%20Numbers%20Generation%20.cpp
https://raw.githubusercontent.com/AleksandrSD/CodeAbbeyProblems/master/Problem61/Program.cs
https://raw.githubusercontent.com/emafazillah/codeabbey/master/src/problem061To070/PrimeNumbersGeneration.java
https://raw.githubusercontent.com/vonmecheln/prime-numbers/master/primo.php
https://raw.githubusercontent.com/Xzya/CodeAbbeySolutions/master/PrimeNumbersGeneration.py
https://raw.githubusercontent.com/andyywz3/prime_numbers/master/prime_numbers.rb
https://raw.githubusercontent.com/mmcdon20/code_abbey/master/src/main/scala/Abbey061.scala
https://raw.githubusercontent.com/JesseClarkND/codeabbey_in_C-NET/master/Prime%20Numbers%20Generation
