https://alexandervoidstar.wordpress.com/2015/11/08/hackthis-real-level-xmas/
https://www.youtube.com/watch?v=ObIqFfOFkdU
https://www.youtube.com/watch?v=8qZ9mjStflE
http://juancho056.blogspot.com/2016/01/hackthis_27.html
https://raw.githubusercontent.com/luceatnobis/challenges/master/hackthis.co.uk/real/xmas/notes
