https://www.irongeek.com/i.php?page=videos/web-application-pen-testing-tutorials-with-mutillidae#determine-http-methods-using-netcat
https://youtu.be/sTTdFujJIAA
https://youtu.be/DXtLNGqfgMo
https://youtu.be/dIGJ7kuj9Qo
https://youtu.be/uJoMHujjo_I
