https://raw.githubusercontent.com/pastelito02/Challenges-sol/master/Programming/codewars/century-from-year/joelDuring.c
https://raw.githubusercontent.com/pastelito02/Challenges-sol/master/Programming/codewars/century-from-year/serk87.cc
https://raw.githubusercontent.com/pastelito02/Challenges-sol/master/Programming/codewars/century-from-year/markisk.coffee
https://raw.githubusercontent.com/pastelito02/Challenges-sol/master/Programming/codewars/century-from-year/serk87.cpp
https://raw.githubusercontent.com/pastelito02/Challenges-sol/master/Programming/codewars/century-from-year/Beast.cr
https://raw.githubusercontent.com/pastelito02/Challenges-sol/master/Programming/codewars/century-from-year/khovey.cs
https://raw.githubusercontent.com/pastelito02/Challenges-sol/master/Programming/codewars/century-from-year/eugenesu.dart
https://raw.githubusercontent.com/pastelito02/Challenges-sol/master/Programming/codewars/century-from-year/hecbuch.ex
https://raw.githubusercontent.com/pastelito02/Challenges-sol/master/Programming/codewars/century-from-year/hecbuch.exs
https://raw.githubusercontent.com/pastelito02/Challenges-sol/master/Programming/codewars/century-from-year/moemica.fs
https://raw.githubusercontent.com/pastelito02/Challenges-sol/master/Programming/codewars/century-from-year/michellescripts.go
https://raw.githubusercontent.com/pastelito02/Challenges-sol/master/Programming/codewars/century-from-year/CcYuza.groovy
https://raw.githubusercontent.com/pastelito02/Challenges-sol/master/Programming/codewars/century-from-year/reveriel.hs
https://raw.githubusercontent.com/pastelito02/Challenges-sol/master/Programming/codewars/century-from-year/scottyboutin.java
https://raw.githubusercontent.com/pastelito02/Challenges-sol/master/Programming/codewars/century-from-year/pavadeli.jl
https://raw.githubusercontent.com/pastelito02/Challenges-sol/master/Programming/codewars/century-from-year/vatson.js
https://raw.githubusercontent.com/pastelito02/Challenges-sol/master/Programming/codewars/century-from-year/sgw.kt
https://raw.githubusercontent.com/pastelito02/Challenges-sol/master/Programming/codewars/century-from-year/Rhidlor.lua
https://raw.githubusercontent.com/pastelito02/Challenges-sol/master/Programming/codewars/century-from-year/cyberneon.ml
https://raw.githubusercontent.com/pastelito02/Challenges-sol/master/Programming/codewars/century-from-year/TinBryn.nim
https://raw.githubusercontent.com/pastelito02/Challenges-sol/master/Programming/codewars/century-from-year/Dobefu.php
https://raw.githubusercontent.com/pastelito02/Challenges-sol/master/Programming/codewars/century-from-year/steffan153.pro
https://raw.githubusercontent.com/pastelito02/Challenges-sol/master/Programming/codewars/century-from-year/user8751232.purs
https://raw.githubusercontent.com/pastelito02/Challenges-sol/master/Programming/codewars/century-from-year/daddepledge.py
https://raw.githubusercontent.com/pastelito02/Challenges-sol/master/Programming/codewars/century-from-year/jnickson.rb
https://raw.githubusercontent.com/pastelito02/Challenges-sol/master/Programming/codewars/century-from-year/CcYuza.re
