http://hackerorgsolution.blogspot.com.co/2014/09/melodic.html
https://raw.githubusercontent.com/charles-wangkai/hacker.org/master/challenge/Melodic.txt
https://raw.githubusercontent.com/luceatnobis/challenges/master/hacker.org/melody/notes
