https://nodegoat.herokuapp.com/tutorial/a7
https://www.youtube.com/watch?v=ej6NCVd1Fo4
https://www.youtube.com/watch?v=ej6NCVd1Fo4&feature=emb_logo
https://ckarande.gitbooks.io/owasp-nodegoat-tutorial/content/tutorial/a7-missing_function_level_access_control.html
