https://pentester.land/challenge/2018/07/10/owasp-broken-web-apps-owasp-bricks-challenge-walkthrough.html#content-5
https://youtu.be/UvgmaiT8n9E
https://www.youtube.com/watch?v=age-trMxOcg
https://www.youtube.com/watch?v=6JFE_pXGDNg
