https://raw.githubusercontent.com/leeychee/hackerrank/master/practice/algorithms/implementation/taum_and_bday/main.go
https://raw.githubusercontent.com/charles-wangkai/hackerrank/master/taum-and-bday/Solution.java
https://raw.githubusercontent.com/raghav97/Hackerrank-Solutions/master/taum_and_birthday.rb
https://raw.githubusercontent.com/witekbobrowski/HackerRank/master/Algorithms/Implementation/taum-and-bday.swift
