https://www.youtube.com/watch?v=tOL2wyuv618
https://www.youtube.com/watch?v=ivFkLpLKrAc
https://www.youtube.com/watch?v=9jMaMDUcyNk
https://www.aldeid.com/wiki/OWASP_WebGoat:LAB_Client_Side_Filtering
http://fallensnow-jack.blogspot.com/2011/08/webgoat-client-side-filtering.html
https://oktoriorizkiprasetya.wordpress.com/2017/05/08/webgoat-ajax-security-lab-client-side-filtering/
https://support.portswigger.net/customer/portal/articles/1964212-using-burp-to-bypass-client-side-javascript-validation
https://www.youtube.com/watch?v=a1ApkQuQpOc
https://www.youtube.com/watch?v=a87C8G4jK0g
https://www.youtube.com/watch?v=lnsEradHug8
https://www.youtube.com/watch?v=ycpYK7oM_qE
https://www.youtube.com/watch?v=BTefcHFPvio
https://www.youtube.com/watch?v=js5SZTNXPA4
https://www.youtube.com/watch?v=3t38I6b0EJE
https://www.youtube.com/watch?v=78sKKLHMYSs
https://www.youtube.com/watch?v=RYLMOsxdKdQ
https://www.youtube.com/watch?v=kEjHkaLxmTs
https://www.youtube.com/watch?v=-hW8mj0R9gY
https://www.youtube.com/watch?v=YHKhW24M_FA
https://www.youtube.com/watch?v=Lk8EuvYgid8
https://www.youtube.com/watch?v=gpHex1v8z1c
https://www.youtube.com/watch?v=gptOojB5oMk
https://www.youtube.com/watch?v=PpEGhUmUFRM
https://www.youtube.com/watch?v=ziWxjzffulo
https://www.youtube.com/watch?v=ukQ55umsIYI
https://www.youtube.com/watch?v=KtOPUlWgAUE
https://www.youtube.com/watch?v=JmUYqlLLqOA
http://b4b00nd41.egloos.com/3564841
https://www.youtube.com/watch?v=MB_5gb_c1fE
http://limjetwee.blogspot.com/2018/08/owasp-webgoat-8-client-side-filtering-2.html
https://sithlab.tistory.com/662
https://webapppentest.wordpress.com/2012/08/06/webgoat-week-3/
https://sithlab.tistory.com/623
https://github.com/WebGoat/WebGoat/wiki/(Almost)-Fully-Documented-Solution-(en)
