https://medium.com/bugbountywriteup/wechall-wargame-solutions-76f60ea39b16
https://joizel.readthedocs.io/ko/latest/wargame/web/[wechall]%20php0816.html
https://raw.githubusercontent.com/rk700/rk700.github.io/master/_posts/2014-05-26-php-0816.md
