https://metasploit.help.rapid7.com/docs/metasploitable-2-exploitability-guide
https://stuffwithaurum.blog/2015/06/14/metasploitable-2-walkthrough-an-exploitation-guide/
https://311hrs.wordpress.com/2016/04/27/metasploitable-2-ingreslock-part-7/
http://y2u.be/FuwWjWt75dM
https://www.youtube.com/watch?v=FuwWjWt75dM
https://www.youtube.com/watch?v=3YqpwHixiIA
