https://github.com/skiptomyliu/solutions-bwapp#xss---reflected-json
https://www.youtube.com/watch?v=j6xWro_BHHY
https://youtu.be/x6AhGnt3fbk?t=1m32s
https://www.youtube.com/watch?v=n0BOWmM0gcI
http://www.h3399.cn/201707/111479.html
http://www.sec-art.net/2018/06/bwapp-buggy-web-application-xss.html
https://cloud.tencent.com/developer/article/1078917
https://www.youtube.com/watch?v=PR-99Eh1tsE
https://www.digitalmunition.me/bwapp-xss-reflected-get-post-ajaxjson-ajaxxml/
