http://www.hackingarticles.in/hack-the-box-challenge-node-walkthrough/
https://www.youtube.com/watch?v=sW10TlZF62w
https://www.youtube.com/watch?v=Kc-J_RgBauI
https://drive.google.com/file/d/1dhKeTUC5YWCkYrIcE4DYAXyYWSjfesLV/view
https://www.absolomb.com/2018-03-03-HackTheBox-Node/
https://forum.hackthebox.eu/discussion/548/node-write-up-by-alamot#latest
https://medium.com/pentestsec/hackthebox-node-writeup-e485be9aea3
https://rastating.github.io/hackthebox-node-walkthrough/
https://thehacktoday.com/hack-the-box-node-walkthrough/
