https://raw.githubusercontent.com/rootulp/exercism/master/javascript/bob/bob.js
https://raw.githubusercontent.com/rootulp/exercism/master/python/bob/bob.py
https://raw.githubusercontent.com/rootulp/exercism/master/ruby/exercises/bob/bob.rb
