http://www.google-gruyere.appspot.com/part2#2__file_upload_xss
https://brutelogic.com.br/blog/file-upload-xss/
http://jggge.blogspot.com/2014/03/week-1-cross-site-scripting-xss.html
https://samsclass.info/120/proj/p2x-Gruyere.html
