https://github.com/smholsen/backdoorctf/tree/master/beginners/location-51#location-51
https://www.youtube.com/watch?v=HNjlYdJl-74
https://sithlab.tistory.com/1941
https://github.com/spnow/writeups-1/tree/master/Backdoor/LOCATION-51
