https://appspider.help.rapid7.com/docs/conducting-a-basic-test-manually-against-hackazon
https://github.com/rapid7/hackazon/blob/master/VULNERABILITIES.md#os-command-injection
https://www.imuo.com/a/b38bed3d14dc12471653709e896a07f3633443feb0410e79a7383ea3c57ba5aa
https://uceka.com/2017/05/29/deloitte-de-hacking-challenge-prequals-ctf/
https://blog.securityevaluators.com/hacking-hackazon-2bda9830ccf0
