https://raw.githubusercontent.com/MaskRay/HackerRank/master/matrix.cc
https://raw.githubusercontent.com/fernandoBRS/HackerRank/master/matrix.cpp
https://raw.githubusercontent.com/HamidTheGeek/HackerRankSolutions/master/Solutions/Matrix.cs
https://raw.githubusercontent.com/MrinmoiHossain/HackerRank/master/Python/Regex%20and%20Parsing/Matrix%20Script.py
