https://raw.githubusercontent.com/MaskRay/HackerRank/master/quicksort1.cc
https://raw.githubusercontent.com/derekhh/HackerRank/master/Algorithms/Sorting/quicksort1.cpp
https://raw.githubusercontent.com/RyanFehr/HackerRank/master/Algorithms/Sorting/Quicksort%201%20-%20Partition/Solution.cs
https://raw.githubusercontent.com/charles-wangkai/hackerrank/master/quicksort1/Solution.java
https://raw.githubusercontent.com/witekbobrowski/HackerRank/master/Algorithms/Sorting/quicksort-1-partition.swift
