https://www.peerlyst.com/posts/sql-injections-part-1-hari-charan
https://benspring100.wordpress.com/2016/07/17/bwapp-sql-injection-getsearch-and-introduction/
https://th3phantoms.blogspot.com/2017/06/exploit-sql-injection-getsearch-flaw-on.html
http://softage.be/bwappexploited/inject1.php
https://www.youtube.com/watch?v=2K1fGBfHrw0
https://www.youtube.com/watch?v=clczL7x1T4Y
https://github.com/skiptomyliu/solutions-bwapp#sql-injection-getsearch
https://www.youtube.com/watch?v=cPTM59xj5rM
https://youtu.be/oQOpyA72OT0?t=3m12s
https://youtu.be/vtIM3R6pC5M?t=3s
https://www.hackeroyale.com/hacking-with-bwapp/
https://github.com/naiduv/codecrawl/blob/master/code/bwapp-sqli.rb
https://stackoverflow.com/questions/45808447/sql-injection-in-bwapp
http://thehackpot.blogspot.com/2014/04/exploiting-sql-injection-with-sqlmap.html
https://youtu.be/8q6XLSRotno?t=3m9s
https://www.youtube.com/watch?v=vs76kiOY9ck
http://itsecgames.blogspot.com/2014/06/
https://github.com/hbayramov/bWAPP-Solutions#bwapp-solutions
http://thehackpot.blogspot.com/2014/05/exploiting-error-based-sql-injection-in.html
http://www.h3399.cn/201707/111479.html
https://www.youtube.com/watch?v=QFxXAbI5cRA
https://teckk2.github.io/web-pentesting/2018/02/07/SQL-Injection-(Search-GET).html
https://ctf-time.com/bwapp-walkthrough-sql-injection-cross-site-scripting/
https://pentestmag.com/how-to-train-your-skills-in-sql-injection/
https://www.youtube.com/watch?v=jbZ3XbfvZJY
https://www.youtube.com/watch?v=dZkXa0pUvm8
https://www.youtube.com/watch?v=nhKetwqAddw
https://youtu.be/heHlDq7eQW0?t=1m58s
https://www.youtube.com/watch?v=NnCRq_RLxe8
https://www.solvetic.com/tutoriales/article/2916-pentesting-atacar-y-defender-aplicaciones-web-con-bwapp/
https://inforensicsuex.wordpress.com/2014/05/10/sql-injection-en-bwapp-primer-ejemplo/
https://wh0s.org/tag/bwapp-app-security/
http://hackingandsecurity.blogspot.com/2017/07/notes-from-bwapp-v22.html
https://nileshsapariya.blogspot.com/2014/10/john-ripper-password-cracking-tool-how.html
https://www.youtube.com/watch?v=3BXnl-6k4mA&list=PLb5P0I7Dt6Rb4x-_7hNGc5qA5xUXbUUGD&index=10
https://studysecurity-world.tistory.com/62?category=806005
https://habr.com/ru/post/250551/
https://net123.tistory.com/450?category=695510
https://medium.com/@grep_security/sql-injections-part-1-4b1fa5b8758d
