https://www.youtube.com/watch?v=fO8005eRhP8
https://www.youtube.com/watch?v=i914Ndy6kWQ
https://www.youtube.com/watch?v=Q34S6Q-MoIg
https://www.youtube.com/watch?v=IU_pP8IsEZk
https://www.youtube.com/watch?v=ypOX6jktAys
https://www.youtube.com/watch?v=Cc-ucE7absM
https://trello.com/c/xLz1pVRM/15-html-tampering
https://tuonilabs.wordpress.com/tag/parameter-tampering/
http://limjetwee.blogspot.com/2018/10/owasp-webgoat-8-html-tampering-2.html
https://raw.githubusercontent.com/OWASP/WebGoat/master/webgoat/src/main/java/org/owasp/webgoat/lessons/HiddenFieldTampering.java
https://www.youtube.com/watch?v=i914Ndy6kWQ&list=PLrHVSJmDPvlqxCfBhPuksHdpViPyeZTsF&index=35
