https://raw.githubusercontent.com/feix/ctf-writeup/master/canyouhackit/reconnaissance/solution2
https://sithlab.tistory.com/1454
https://raw.githubusercontent.com/pastelito02/Challenges-sol/master/canyouhackit/Reco/solution2.lst
