https://cysecguide.blogspot.com/2018/04/root-me-write-up-bash-cron.html
https://raw.githubusercontent.com/Vinnyz/Root-me-challenge-App-Script/master/Bash%20-%20cron
https://raw.githubusercontent.com/skilled19/sols/master/cl/hack-1/root-me-Bash-cron-1.txt
https://www.cnblogs.com/heycomputer/articles/10610051.html
https://raw.githubusercontent.com/RomaniukVadim/wargaming-challenges/master/RootMe/app-script/bash-cron.txt
