https://gist.githubusercontent.com/ashwin/dfa7800a2e1858bfb715/raw/2027bf870f07c0a87181603b36da569630eaa28c/rotate_point_opencv.cpp
https://raw.githubusercontent.com/pastelito02/Challenges-sol/master/Programming/Codeabbey/085/istudent.go
https://raw.githubusercontent.com/pastelito02/Challenges-sol/master/Programming/Codeabbey/085/Hennes.hs
https://raw.githubusercontent.com/igor-kutepov/codeabbey/master/src/main/java/com/kutepov/samples/codeabbey/DijkstraInTheNetwork.java
https://raw.githubusercontent.com/pastelito02/Challenges-sol/master/Programming/Codeabbey/085/indentationerror.js
https://raw.githubusercontent.com/pastelito02/Challenges-sol/master/Programming/Codeabbey/085/gerhardt_funk.lisp
https://raw.githubusercontent.com/pastelito02/Challenges-sol/master/Programming/Codeabbey/085/atercattus.lua
https://raw.githubusercontent.com/pastelito02/Challenges-sol/master/Programming/Codeabbey/085/carogomezt.ml
https://raw.githubusercontent.com/pastelito02/Challenges-sol/master/Programming/Codeabbey/085/KOR_Ryat.php
https://raw.githubusercontent.com/Xzya/CodeAbbeySolutions/master/RotationIn2DSpace.py
https://raw.githubusercontent.com/pastelito02/Challenges-sol/master/Programming/Codeabbey/085/maverick.rb
https://gitlab.com/CodeArtisan/codeabbey/raw/master/problem_85/solution.rkt
https://raw.githubusercontent.com/pastelito02/Challenges-sol/master/Programming/Codeabbey/085/scala_scholar.scala
https://raw.githubusercontent.com/pastelito02/Challenges-sol/master/Programming/Codeabbey/085/Guy-Gervais.vb
https://raw.githubusercontent.com/JesseClarkND/codeabbey_in_C-NET/master/Rotation%20in%202D%20Space
