https://github.com/skiptomyliu/solutions-bwapp#xss---reflected-custom-header
https://www.youtube.com/watch?v=DxJQIAz2lA0
http://www.h3399.cn/201707/111479.html
http://www.sec-art.net/2018/06/bwapp-buggy-web-application-xss.html
https://www.youtube.com/watch?v=_2S8lgd4BTg
https://godetube.com/video-god-is-bwapp-xss-reflected-back-button-custom-header_god_2S8lgd4BTg
https://cloud.tencent.com/developer/article/1078917
