https://resources.infosecinstitute.com/the-bodgeit-store-part-1-2/
https://passionforpentesting.com/2018/01/18/the-bodgeit-store-series-6-access-someone-elses-basket-bodgeit-infosec-pentest-appsec-webapp/
http://itsorcerer.blogspot.com/2011/11/bodgeit-notes.html
http://ender0101.blogspot.com/2014/08/bodgeit.html
