https://securityshards.wordpress.com/2016/05/08/bwapp-sql-injection-ajaxjsonjquery-challenge/
https://github.com/skiptomyliu/solutions-bwapp#sql-injection-ajaxjsonjquery
https://youtu.be/oQOpyA72OT0?t=15m2s
https://youtu.be/x6AhGnt3fbk?t=1m32s
http://www.h3399.cn/201707/111479.html
https://teckk2.github.io/web-pentesting/2018/02/07/SQL-Injection(AJAX-JSON-jQuery).html
https://ctf-time.com/bwapp-walkthrough-sql-injection-cross-site-scripting/
https://youtu.be/KvQSrGMITm8
https://youtu.be/CjNzzrEzTsU
https://www.youtube.com/watch?v=Lr3M2JMJ_tU
https://studysecurity-world.tistory.com/69?category=806005
https://net123.tistory.com/454?category=695510
