https://raw.githubusercontent.com/pastelito02/Challenges-sol/master/Programming/codewars/square-n-sum/kedemsnir.c
https://raw.githubusercontent.com/pastelito02/Challenges-sol/master/Programming/codewars/square-n-sum/yougaindra.cc
https://raw.githubusercontent.com/pastelito02/Challenges-sol/master/Programming/codewars/square-n-sum/aar0nTw.coffee
https://raw.githubusercontent.com/pastelito02/Challenges-sol/master/Programming/codewars/square-n-sum/yougaindra.cpp
https://raw.githubusercontent.com/pastelito02/Challenges-sol/master/Programming/codewars/square-n-sum/Unnamed.cr
https://raw.githubusercontent.com/pastelito02/Challenges-sol/master/Programming/codewars/square-n-sum/byteflux.cs
https://raw.githubusercontent.com/pastelito02/Challenges-sol/master/Programming/codewars/square-n-sum/kazk.dart
https://raw.githubusercontent.com/pastelito02/Challenges-sol/master/Programming/codewars/square-n-sum/labdevs.ex
https://raw.githubusercontent.com/pastelito02/Challenges-sol/master/Programming/codewars/square-n-sum/labdevs.exs
https://raw.githubusercontent.com/pastelito02/Challenges-sol/master/Programming/codewars/square-n-sum/aouainia.go
https://raw.githubusercontent.com/pastelito02/Challenges-sol/master/Programming/codewars/square-n-sum/code4food.hs
https://raw.githubusercontent.com/pastelito02/Challenges-sol/master/Programming/codewars/square-n-sum/Unnamed,.java
https://raw.githubusercontent.com/pastelito02/Challenges-sol/master/Programming/codewars/square-n-sum/dzautner.js
https://raw.githubusercontent.com/pastelito02/Challenges-sol/master/Programming/codewars/square-n-sum/JohnyRlk.php
https://raw.githubusercontent.com/pastelito02/Challenges-sol/master/Programming/codewars/square-n-sum/Unnamed.pro
https://raw.githubusercontent.com/pastelito02/Challenges-sol/master/Programming/codewars/square-n-sum/vrabecc.py
https://raw.githubusercontent.com/pastelito02/Challenges-sol/master/Programming/codewars/square-n-sum/Azgerod.r
https://raw.githubusercontent.com/pastelito02/Challenges-sol/master/Programming/codewars/square-n-sum/lkdjiin.rb
https://raw.githubusercontent.com/pastelito02/Challenges-sol/master/Programming/codewars/square-n-sum/skywalker262.rs
https://raw.githubusercontent.com/pastelito02/Challenges-sol/master/Programming/codewars/square-n-sum/xavierguihot.scala
https://raw.githubusercontent.com/pastelito02/Challenges-sol/master/Programming/codewars/square-n-sum/IamStefan.ts
