https://raw.githubusercontent.com/derekhh/HackerRank/master/security/cryptography/basic-cryptanalysis.cpp
https://raw.githubusercontent.com/charles-wangkai/hackerrank/master/basic-cryptanalysis/Solution.java
https://raw.githubusercontent.com/georgePadolsey/HackerRank/master/Challenges/Algorithms/Cryptography/basic-cryptanalysis/python/basic-cryptanalysis/georgep/pokuit/main.py
