https://www.youtube.com/watch?v=Do5vvinyCJY
https://www.youtube.com/watch?v=oYfunlMKGAU
https://www.youtube.com/watch?v=sW3p1-KN9Uc
https://www.youtube.com/watch?v=-6_QEYt4v88
https://www.youtube.com/watch?v=yNBrH_Vikp8
https://www.youtube.com/watch?v=jMKbprgJQLY
https://www.youtube.com/watch?v=LBQcexBdMNE
https://www.youtube.com/watch?v=pxvnU9G2nwM
https://www.youtube.com/watch?v=h0DuBfcdbbs
https://www.youtube.com/watch?v=j12V8d_Nh9Q
https://fluidattacks.com/web/en/blog/asymmetric-dos-slow-http-attack/
