https://raw.githubusercontent.com/nayuki/Project-Euler-solutions/master/java/p079.java
https://raw.githubusercontent.com/nayuki/Project-Euler-solutions/master/python/p079.py
https://raw.githubusercontent.com/sile/euler.rs/master/euler_03/src/problem079.rs
