https://raw.githubusercontent.com/nayuki/Project-Euler-solutions/master/haskell/p114.hs
https://raw.githubusercontent.com/nayuki/Project-Euler-solutions/master/java/p114.java
https://raw.githubusercontent.com/nayuki/Project-Euler-solutions/master/python/p114.py
https://raw.githubusercontent.com/nayuki/Project-Euler-solutions/master/mathematica/p114.mathematica
