https://raw.githubusercontent.com/eagletmt/project-euler-c/master/1-9/problem3.c
https://raw.githubusercontent.com/zimpha/competitive-programming/master/project-euler/volume01/3.cc
https://raw.githubusercontent.com/danielfm/euler-clojure/master/euler/problem_3.clj
https://raw.githubusercontent.com/EaterOA/Euler/master/1-25/euler003.cpp
https://raw.githubusercontent.com/jmoiron/euler.go/master/003.go
https://raw.githubusercontent.com/nayuki/Project-Euler-solutions/master/haskell/p003.hs
https://raw.githubusercontent.com/nayuki/Project-Euler-solutions/master/java/p003.java
https://raw.githubusercontent.com/johnmyleswhite/projecteuler.jl/master/003.jl
https://raw.githubusercontent.com/necolas/project-euler/master/003/003.js
https://raw.githubusercontent.com/lilyball/projecteuler-ocaml/master/prob3.ml
https://raw.githubusercontent.com/fedeisas/project-euler/master/03/run.php
https://raw.githubusercontent.com/jpillora/euler-in-perl/master/003.pl
https://raw.githubusercontent.com/zsiciarz/euler.rs/master/src/solutions/problem3.rs
https://raw.githubusercontent.com/samskivert/euler-scala/master/Euler003.scala
https://raw.githubusercontent.com/nayuki/Project-Euler-solutions/master/mathematica/p003.mathematica
