https://www.youtube.com/watch?v=5gKvhgTWxjU
https://www.youtube.com/watch?v=giuDVkF4zyU
https://forum.hackthebox.eu/discussion/17/lame-write-up-by-arrexel
http://www.hackingarticles.in/hack-the-box-challenge-lame-walkthrough/
https://deceiveyour.team/2017/12/05/hack-the-box-lame-walkthrough/
https://codemonkeyism.co.uk/htb-lame/
https://bjmarr.uk/htb-lame-walkthrough/
https://htbsolution.blogspot.com/2018/04/lame-hackthebox-machine-1010103-write-up.html
https://teckk2.github.io/writeup/2017/12/17/Lame.html
https://video.hacking.reviews/2018/01/hack-box-ctf-walkthrough-blocky-and-lame.html
https://medium.com/@sdgeek/hack-the-box-htb-lame-597810e98978

