https://rundata.wordpress.com/2013/03/21/overthewire-bandit-wargame-solutions-1-24/
https://raw.githubusercontent.com/Cathon/mySolutions/master/overthewire/Bandit/Level_3.md
https://raw.githubusercontent.com/lv22/otw-natas/master/L03/level3.txt
https://medium.com/@Kan1shka9/overthewire-wargames-bandit-walkthrough-df2b86826c67
https://github.com/milescrabill/overthewire-solutions/blob/master/Bandit.md#level-3
https://www.youtube.com/watch?v=34_DDIAkxdY
https://www.youtube.com/watch?v=_a7mOCmqsVI
https://www.youtube.com/watch?v=U8urYejzUY
https://raw.githubusercontent.com/Lorenyx/OverTheWire-Solutions/master/bandit/level_3.md
https://raw.githubusercontent.com/Whimmery/CTF-Bandit/gh-pages/CTF%20Code/CTF%20Bandit3.txt
https://jhalon.github.io/over-the-wire-bandit1/
https://home.adelphi.edu/~ni21347/cybersecgames/OverTheWire/Bandit/index.html
https://github.com/masonc15/CTF-Wargame-Writeups/blob/master/OverTheWire/bandit/README.md
