https://raw.githubusercontent.com/roku6185/smashthestack/master/io/level08/exploit.c
https://www.greyhat.dk/io-smashthestack-level-08/
https://infamoussyn.wordpress.com/2013/09/11/smashthestack-io-walkthrough-part-b-levels-6-10/
