https://raw.githubusercontent.com/StevenDunn/CodeEval/master/StackImplementation/c/stack.c
https://raw.githubusercontent.com/StevenDunn/CodeEval/master/StackImplementation/cpp/StackImplementation.cpp
https://gist.githubusercontent.com/yuheiomori/7509609/raw/df69115eeff10d9d0873f72da2abee33687f09cf/main.go
https://raw.githubusercontent.com/Aadeshp/Codeeval-Solutions/master/Medium/Stack_Implementation.java
https://raw.githubusercontent.com/pascal-bourut/codeeval-challenges/master/moderate/9%20-%20Stack%20implementation/9.js
https://raw.githubusercontent.com/mneudert/codeeval/master/moderate/stack-implementation/php.php
https://raw.githubusercontent.com/ssmehta/programming-challanges/master/codeeval/009_stack-implementation.py
https://raw.githubusercontent.com/jtibbertsma/code-eval/master/stack-implementation/stack.rb
