https://raw.githubusercontent.com/SH-anonta/Problem-solutions/master/Code%20Forces/Code%20forces%20Div%202/Code%20forces%20617A%20-%20Elephant.cpp
https://raw.githubusercontent.com/yeicol/CodeForces/master/CF617AElephant.java
https://raw.githubusercontent.com/dwiajik/codeforces/master/617A.py
