https://www.hackingarticles.in/evm-1-vulnhub-walkthrough/
https://www.hacknos.com/evm-1-walkthrough-vulnhub-ctf/
https://ischizo.com/write-up-evm1-vulnhub/
https://medium.com/@andr3w_hilton/evm-vulnhub-com-6dd755ea38fb
https://medium.com/@shaundixonuk/evm-1-vm-walkthrough-412bfa10cc4e
https://www.maritimecybersecurity.center/evm-1-vulnhub-walkthrough/
https://mattgeraldcomputingjourney.wordpress.com/2019/11/29/evm-1-vulnhub/
