https://ratil.life/hack-the-box-europa/
https://www.youtube.com/watch?v=OsxDB41jg6A
https://www.youtube.com/watch?v=II1w1RaM8DM
https://www.youtube.com/watch?v=DXa5uYjijXc
https://v3ded.github.io/ctf/htb-europa.html
https://www.pinterest.com.au/pin/540994973981006164/
https://medium.com/secjuice/europa-ctf-writeup-50d2554da716
https://video.hacking.reviews/2018/01/hackthebox-europa.html
https://www.roguesecurity.in/2017/12/02/hack-the-box-europa-writeup/
https://gist.github.com/berzerk0/6733d4c0d965a754a13d2ab18848472e
https://drive.google.com/file/d/1IGPYgQaICSH4MSzWVvaXrGgRcBss7WMb/view
https://www.youtube.com/playlist?list=PLqM63j87R5p5RP6XOuAObtZ6z_P-xQ5CC
https://www.youtube.com/playlist?list=PLidcsTyj9JXL8AIU-45CQ9GBfqjArnkkZ
https://www.youtube.com/playlist?list=PLT43st3i00VxMBD7lMZd8NGWcQQWsQtQt
https://www.hackingarticles.in/hack-the-box-challenge-europa-walkthrough/
https://s4vitar.github.io/europa-hackthebox/
https://www.puckiestyle.nl/htb-europa/
https://n0w4n.nl/europa/
