https://raw.githubusercontent.com/kamyu104/LeetCode-Solutions/master/C%2B%2B/4sum.cpp
https://raw.githubusercontent.com/Rikin04/leetcode/master/0018.4sum/4sum.java
https://raw.githubusercontent.com/ngrt/LeetCode/master/Python/4sum.py
