http://sp4hack.blogspot.com.co/2014/01/overthewire-bandit-level-16-to-level-18.html
https://www.yalpski.net/bandit-wargame/bandit-walkthrough-level-16
https://hackmethod.com/overthewire-bandit-16/
https://kongwenbin.wordpress.com/2016/09/01/overthewire-bandit-level-16-to-level-17/
https://alexandervoidstar.wordpress.com/2016/02/28/overthewire-bandit-level-16/
https://infamoussyn.com/2013/11/08/overthewire-bandit-level-0-25-writeup-completed/#level15
https://jdow.io/blog/2017/12/16/overthewire-bandit-wargame-walkthrough/#level-15---16
https://raw.githubusercontent.com/Cathon/mySolutions/master/overthewire/Bandit/Level_16.md
https://medium.com/@Kan1shka9/overthewire-wargames-bandit-walkthrough-df2b86826c67
https://github.com/milescrabill/overthewire-solutions/blob/master/Bandit.md
https://jhalon.github.io/over-the-wire-bandit2/
https://www.youtube.com/watch?v=RK8dljkbpbM
http://blog.zairo.kr/entry/OverTheWire-%E2%80%93-Bandit-Level-16?category=569917
https://raw.githubusercontent.com/Lorenyx/OverTheWire-Solutions/master/bandit/level_16.md
https://www.youtube.com/watch?v=v8v2GSEkgug
