https://raw.githubusercontent.com/KingMob/cryptopals-crypto-challenges/master/src/app/set2.clj
https://raw.githubusercontent.com/JarLob/MatasanoCryptoChallenge/master/Tests/Set2.cs
https://raw.githubusercontent.com/ysmolsky/cryptopals-matasano-solutions/master/14/main.go
https://raw.githubusercontent.com/ilchen/cryptopals/master/src/main/java/com/cryptopals/Set2.java
https://raw.githubusercontent.com/stripedpajamas/cryptopals/master/set2/6.js
https://raw.githubusercontent.com/lt/php-cryptopals/master/Cryptopals/Set2/Challenge14/Solution14.php
https://raw.githubusercontent.com/jaybosamiya/cryptopals-solutions/master/set2/14/run.py
https://raw.githubusercontent.com/Daeinar/cryptopals/master/src/c14.rs
