https://posix.tistory.com/7
https://kangsecu.tistory.com/76
https://studyit312.tistory.com/59
https://kkamikoon.tistory.com/205
https://newbiepwn.tistory.com/264
https://mandu-mandu.tistory.com/282
https://ndb796.tistory.com/332
https://1m7ghost.tistory.com/entry/Wargamekrmd5-password-writeup
https://btr95.tistory.com/entry/WarGame-md5-password
https://say2.tistory.com/entry/wargamekrmd5password
https://m.blog.naver.com/hongjg3229/221753437509
https://darever.tistory.com/8
https://tkdrms568.tistory.com/156?category=853508
https://intunknown.tistory.com/426
https://ii4gsp.tistory.com/37
https://jeonyoungsin.tistory.com/28
https://b.fantazm.net/entry/wargamekr-Challenge-9-md5-password
https://teamisaac.tistory.com/entry/Wargamekr-md5-password-Write-up
https://code1018.tistory.com/135
https://skyhell.tistory.com/45
