https://www.youtube.com/watch?v=fmBb6BgLsC8&t=496s
https://0xrick.github.io/hack-the-box/heist/
https://hackso.me/heist-htb-walkthrough/
https://snowscan.io/htb-writeup-heist/
https://medium.com/@h4x0r101/write-up-htb-heist-b01d0f1cd60f
https://0xdf.gitlab.io/2019/11/30/htb-heist.html
https://resources.infosecinstitute.com/hack-the-box-htb-machines-walkthrough-series-heist/#gref
https://www.phoenixbioinfosys.in/2019/12/27/heist-the-htb-walkthrough/
https://securityboulevard.com/2020/02/hack-the-box-htb-machines-walkthrough-series-heist/
https://sevenlayers.com/index.php/272-hackthebox-heist-walkthrough
https://sheerazali.com/heist-writeup-hack-the-box/
https://programmer.group/no.4-heist-easy-htb-walkthrough.html
https://mxrch.dev/heist-walkthrough/
https://www.hackingarticles.in/hack-the-box-heist-walkthrough/
