https://github.com/bsqrl/juice-shop-walkthrough#22-inform-the-shop-about-a-vulnerable-library-it-is-using
https://github.com/apox64/OWASP-Juice-Shop-Write-Up/blob/master/juice-shop-writeup.md#23-inform-the-shop-about-a-vulnerable-library-it-is-using-mention-the-exact-library-name-and-version-in-your-comment
https://github.com/bkimminich/pwning-juice-shop/blob/master/appendix/solutions.md#perform-a-persisted-xss-attack-bypassing-a-client-side-security-mechanism
https://incognitjoe.github.io/hacking-the-juice-shop.html
https://raw.githubusercontent.com/apox64/OWASP-Juice-Shop-Write-Up/master/juice-shop-writeup.md
https://bkimminich.gitbooks.io/pwning-owasp-juice-shop/content/appendix/solutions.html
