https://raw.githubusercontent.com/milapsheth/Crypto-Challenges/master/src/set4/cbc_key_recovery.clj
https://raw.githubusercontent.com/ysmolsky/cryptopals-matasano-solutions/master/27/main.go
https://raw.githubusercontent.com/ilchen/cryptopals/master/src/main/java/com/cryptopals/Set4.java
https://raw.githubusercontent.com/lt/php-cryptopals/master/Cryptopals/Set4/Challenge27/Solution27.php
https://raw.githubusercontent.com/jaybosamiya/cryptopals-solutions/master/set4/27/run.py
https://raw.githubusercontent.com/technion/matasano_challenge/master/set4/chal27/chal27.rb
https://raw.githubusercontent.com/Daeinar/cryptopals/master/src/c27.rs
