https://raw.githubusercontent.com/gravoo/codeabbey/master/Linear%20Function%20.cpp
https://raw.githubusercontent.com/pastelito02/Challenges-sol/master/Programming/Codeabbey/010/slayfer1112.cr
https://raw.githubusercontent.com/skilled19/sols/master/harv/codeabbey-10-linear-function.cs
https://raw.githubusercontent.com/skilled19/sols/master/harv/codeabbey-10-linear-function.d
https://raw.githubusercontent.com/skilled19/sols/master/harv/codeabbey-10-linear-function.fs
https://raw.githubusercontent.com/pastelito02/Challenges-sol/master/Programming/Codeabbey/010/vodmin.go
https://raw.githubusercontent.com/skilled19/sols/master/harv/codeabbey-10-linear-function.hs
https://raw.githubusercontent.com/bkawan/codeabbey_python/master/problem-10.ipynb
https://raw.githubusercontent.com/JFMurphy/Codeabbey-solutions/master/Java/P010_LinearFunction.java
https://raw.githubusercontent.com/skilled19/sols/master/harv/codeabbey-10-linear-function.jl
https://raw.githubusercontent.com/McQuinTrix/CodeAbbey/master/10.%20Linear_Function.js
https://raw.githubusercontent.com/chriswood/codeabbey/master/caid10.lisp
https://raw.githubusercontent.com/skilled19/sols/master/harv/codeabbey-10-linear-function.ml
https://raw.githubusercontent.com/pastelito02/Challenges-sol/master/Programming/Codeabbey/010/doormaker.php
https://raw.githubusercontent.com/skilled19/sols/master/harv/codeabbey-10-linear-function.pl
https://raw.githubusercontent.com/vinitkantrod/codeabbey-Solutions-in-Python/master/10_median_of_three.py
https://raw.githubusercontent.com/pastelito02/Challenges-sol/master/Programming/Codeabbey/010/klauswarzecha.rb
https://raw.githubusercontent.com/YetAnotherMinion/YAMScratch/master/CodeAbbey/rust-sol/src/10.rs
https://raw.githubusercontent.com/mmcdon20/code_abbey/master/src/main/scala/Abbey010.scala
https://raw.githubusercontent.com/skilled19/sols/master/harv/codeabbey-10-linear-function.vb
https://raw.githubusercontent.com/JesseClarkND/codeabbey_in_C-NET/master/Linear%20Function
