https://www.youtube.com/watch?v=iTnTzc23SRQ
https://es.slideshare.net/ciskosv/hackthissite-3402645
https://www.youtube.com/watch?v=yxsq6mqBT-Q
https://www.youtube.com/watch?v=jeAxjJcGzO0
https://www.youtube.com/watch?v=y4tkSdMHfks
https://www.youtube.com/watch?v=uXvsguWKm-8
https://www.youtube.com/watch?v=mAQTXX24lns
https://www.youtube.com/watch?v=Y5SwVHFDj6A&feature=youtu.be&t=2s
https://blog.abhishekg.com/2011/12/basic-1-the-idiot-test/
https://github.com/attilathedud/HackThisSite/blob/master/Basic/README.md
https://github.com/DivyanshuSahu/HackThisSite/blob/master/Basic/files/1solved.png
https://raw.githubusercontent.com/USCGA/writeups/master/hack_this_site/basic_missions/level1/README.md
https://truemiller.com/hack-this-site-all-basic-solutions#basic_1
https://www.youtube.com/watch?v=tkKGFCnJbjk
https://www.youtube.com/watch?v=SImO2Y4SObo&list=PL38E72D34562DC6A8
https://www.hackingcastle.com/2020/01/hack-this-site-info-walkthrough.html
https://medium.com/@sgrchaudhari141/hack-this-site-info-walkthrough-and-review-79b60371af64
https://www.unknowncheats.me/forum/other-mmorpg-and-strategy/46386-hack-site-solutions.html
