https://raw.githubusercontent.com/rootulp/exercism/master/java/sum-of-multiples/src/main/java/SumOfMultiples.java
https://raw.githubusercontent.com/rootulp/exercism/master/python/sum-of-multiples/sum_of_multiples.py
https://raw.githubusercontent.com/rootulp/exercism/master/ruby/exercises/sum-of-multiples/sum.rb
