https://raw.githubusercontent.com/Transfusion/hackerrank-solutions/master/Mark-and-Toys/mark_and_toys.c
https://raw.githubusercontent.com/derekhh/HackerRank/master/Algorithms/greedy/mark-and-toys.cpp
https://raw.githubusercontent.com/HamidTheGeek/HackerRankSolutions/master/Solutions/MarkandToys.cs
https://raw.githubusercontent.com/PaulNoth/hackerrank/master/practice/algorithms/greedy/mark_and_toys/Solution.java
https://raw.githubusercontent.com/PaulNoth/hackerrank/master/practice/algorithms/greedy/mark_and_toys/solution.js
https://raw.githubusercontent.com/JaredLGillespie/HackerRank/master/Python/mark-and-toys.py
https://raw.githubusercontent.com/raghav97/Hackerrank-Solutions/master/mark_and_toys.rb
https://raw.githubusercontent.com/PaulNoth/hackerrank/master/practice/algorithms/greedy/mark_and_toys/solution.scala
