https://www.youtube.com/watch?v=D_eLxW9QRcc
https://www.youtube.com/watch?v=165wuW92ypY
http://tricks247.blogspot.com/2011/06/hack-this-site-basic-mission-2-hts.html
https://es.slideshare.net/ciskosv/hackthissite-3402645
https://www.youtube.com/watch?v=kWdd3UH7qIY
https://www.youtube.com/watch?v=RmWLedOOJd4
https://www.youtube.com/watch?v=W5AikgBGueY
https://www.youtube.com/watch?v=Y5SwVHFDj6A&feature=youtu.be&t=3m36s
https://blog.abhishekg.com/2011/12/basic-2-common-sense/
https://raw.githubusercontent.com/tiancode/learn-hacking/master/hackthissite/Basic.md
https://raw.githubusercontent.com/USCGA/writeups/master/hack_this_site/basic_missions/level2/README.md
https://truemiller.com/hack-this-site-all-basic-solutions#basic_2
https://github.com/attilathedud/HackThisSite/tree/master/Basic
https://www.youtube.com/watch?v=vhRSlYw27JI
https://www.youtube.com/watch?v=q1jnwVOnEsA&list=PL38E72D34562DC6A8&index=2
https://github.com/divyanshusahu/HackThisSite/tree/master/Basic#mission-2
https://www.hackingcastle.com/2020/01/hack-this-site-info-walkthrough.html
https://www.unknowncheats.me/forum/other-mmorpg-and-strategy/46386-hack-site-solutions.html
