https://raw.githubusercontent.com/c650/hackerrank-solutions/master/Algorithms/Implementation/drawing-book.cpp
https://raw.githubusercontent.com/RyanFehr/HackerRank/master/Algorithms/Implementation/Drawing%20Book/Solution.cs
https://raw.githubusercontent.com/RyanFehr/HackerRank/master/Algorithms/Implementation/Drawing%20Book/Solution.java
https://raw.githubusercontent.com/matinfazli/HackerRank/master/contests/week-of-code-27/01-drawing-book/solution.js
https://raw.githubusercontent.com/danhenriquesc/hackerrank/master/algorithms/implementation/drawing_book.php
https://raw.githubusercontent.com/hatienl0i261299/hackerrank-Algorithms/master/Drawing%20Book.py
https://raw.githubusercontent.com/raghav97/Hackerrank-Solutions/master/drawing_book.rb
https://raw.githubusercontent.com/witekbobrowski/HackerRank/master/Algorithms/Implementation/drawing-book.swift
