https://raw.githubusercontent.com/DavidWittman/cryptopals-challenge/master/set5/38.go
https://raw.githubusercontent.com/ilchen/cryptopals/master/src/main/java/com/cryptopals/Set5.java
https://raw.githubusercontent.com/lt/php-cryptopals/master/Cryptopals/Set5/Challenge38/Solution38.php
https://raw.githubusercontent.com/akalin/cryptopals-python3/master/challenge38_server.py
https://raw.githubusercontent.com/technion/matasano_challenge/master/set5/chal38/chal38.rb
