https://www.youtube.com/watch?v=J2I-5xPgyXk
https://www.absolomb.com/2018-04-14-HackTheBox-Inception/
https://forum.hackthebox.eu/discussion/666/inception-write-up-by-alamot
https://www.hackingarticles.in/hack-the-box-challenge-inception-walkthrough/
https://thehacktoday.com/hack-the-box-inception-walkthrough/
https://medium.com/@orhan_yildirim/inception-hackthebox-write-up-8e71cc0fc3c5
https://sankalpsingha.com/2018/02/14/inception-hackthebox-walkthrough/
https://www.puckiestyle.nl/htb-inception/
https://github.com/lokori/htb-notes/blob/master/inception/inception-walkthrough.md
https://www.jdksec.com/hack-the-box/inception
http://offsecnewbie.com/2018/04/14/inception-hack-the-box/
https://raw.githubusercontent.com/lokori/htb-notes/master/inception/inception-walkthrough.md
https://qiita.com/v_avenger/items/c85d946ed2b6bf340a84
