https://raw.githubusercontent.com/zimpha/competitive-programming/master/project-euler/volume01/31.cc
https://raw.githubusercontent.com/nayuki/Project-Euler-solutions/master/haskell/p031.hs
https://raw.githubusercontent.com/nayuki/Project-Euler-solutions/master/java/p031.java
https://raw.githubusercontent.com/kdungs/euler/master/031/euler_31.py
https://raw.githubusercontent.com/sile/euler.rs/master/euler_01/src/problem031.rs
https://raw.githubusercontent.com/nayuki/Project-Euler-solutions/master/mathematica/p031.mathematica
