100 2000
BA DE 5
BA XO 6
BA NE 5
BA DO 6
BA HA 6
BA KA 6
BA GE 6
BA JE 5
BA JO 5
BA RI 6
BA HU 5
BA LO 5
BA GO 4
BA MU 6
BA XE 6
BA CU 4
BA SE 6
BA MA 5
BA FA 6
BA TI 4
BE GO 5
BE TI 6
BE ZU 5
BE RU 6
BE SE 6
BE HU 4
BE VO 6
BE CA 4
BE FA 6
BE CU 6
BE VE 6
BE LO 6
BE MU 5
BE NE 6
BE HA 5
BE FU 6
BE LE 5
BE XE 5
BE RA 6
BE SO 4
BI WI 4
BI GE 5
BI KA 4
BI WU 4
BI RI 4
BI MA 6
BI BO 5
BI LE 6
BI SE 6
BI HU 4
BI CI 6
BI DO 6
BI FU 4
BI MU 5
BI FI 6
BI CU 6
BI DE 6
BI JE 5
BI SO 6
BI TA 5
BO LE 4
BO RI 5
BO MA 6
BO PU 4
BO ZI 6
BO GO 5
BO KI 5
BO TA 6
BO HA 5
BO FA 5
BO QE 5
BO MI 6
BO VE 5
BO JE 6
BO DO 4
BO KA 4
BO XO 5
BO TI 5
BO QO 6
BO RA 6
BU KA 4
BU HU 6
BU FA 5
BU CU 4
BU RI 6
BU TI 6
BU NE 5
BU FU 5
BU RA 5
BU RU 6
BU ZU 5
BU PI 6
BU PU 5
BU SO 5
BU ZI 6
BU XO 6
BU CI 4
BU HA 5
BU FI 4
BU MI 5
CA KI 5
CA ZA 5
CA TI 6
CA PA 5
CA GE 5
CA HI 6
CA WU 5
CA QO 5
CA HA 4
CA ZU 6
CA MU 5
CA HU 6
CA TA 4
CA LE 4
CA JO 6
CA KU 6
CA RI 5
CA RU 5
CA QE 4
CA JE 6
CE RA 5
CE NE 4
CE MA 6
CE RI 6
CE XO 5
CE SE 6
CE SO 5
CE LO 4
CE WU 6
CE FA 6
CE HA 4
CE GO 6
CE RU 4
CE PI 5
CE PA 5
CE WA 5
CE VO 6
CE QE 4
CE FU 6
CE NO 5
CI SE 4
CI RU 4
CI VO 4
CI WU 5
CI BO 6
CI LE 4
CI ZA 6
CI BE 4
CI KU 5
CI CA 5
CI TU 5
CI DO 5
CI KI 5
CI DE 4
CI HI 5
CI WA 6
CI ZU 5
CI MA 6
CI NO 4
CI JO 5
CO TA 5
CO HU 6
CO QO 6
CO BE 5
CO WI 6
CO WA 4
CO HI 5
CO PI 5
CO DE 5
CO SO 6
CO GO 5
CO MA 4
CO PA 5
CO TI 6
CO KI 6
CO PU 5
CO JE 6
CO WU 6
CO KU 4
CO DO 6
CU TU 4
CU WU 5
CU MI 4
CU RU 6
CU WI 5
CU BE 6
CU QO 4
CU JO 5
CU ZU 5
CU HA 6
CU NE 5
CU ZI 5
CU ZA 4
CU LE 6
CU BO 4
CU HU 5
CU KA 6
CU QE 5
CU VE 5
CU CI 5
DA TI 5
DA WI 4
DA KI 6
DA VO 5
DA QE 4
DA QO 5
DA SE 4
DA GE 6
DA XE 6
DA MU 5
DA NE 6
DA WU 5
DA TA 5
DA LO 5
DA BE 4
DA CU 5
DA PU 5
DA DO 5
DA FU 5
DA RI 6
DE JO 4
DE LO 5
DE WA 5
DE XE 4
DE DO 4
DE PA 6
DE LE 6
DE KU 5
DE KI 4
DE GO 4
DE HU 5
DE ZU 5
DE RA 5
DE NE 6
DE PI 5
DE ZI 4
DE TA 5
DE CU 4
DE ZE 5
DE XA 6
DI TE 4
DI WE 6
DI VU 4
DI CE 5
DI LU 4
DI GI 6
DI LA 6
DI ME 4
DI KO 4
DI DA 5
DI BA 6
DI QI 5
DI QU 6
DI TO 6
DI VA 5
DI HO 5
DI DU 5
DI XI 6
DI SU 5
DI XA 6
DO FE 5
DO CE 6
DO LU 4
DO KO 4
DO LA 6
DO QI 5
DO SI 4
DO XA 4
DO BU 6
DO DI 6
DO PO 6
DO ZE 5
DO WE 5
DO ME 6
DO VI 4
DO HO 6
DO ZO 4
DO GA 5
DO FO 6
DO DU 6
DU QU 4
DU ZO 6
DU WO 5
DU SA 5
DU GA 6
DU CE 5
DU JI 5
DU WE 6
DU MO 6
DU TO 4
DU GI 5
DU LU 4
DU CO 5
DU NA 6
DU XU 4
DU BU 6
DU SU 6
DU QA 6
DU KO 5
DU XI 5
FA JA 5
FA SI 6
FA FO 6
FA ZE 6
FA SA 6
FA CO 6
FA VI 5
FA XI 5
FA RE 6
FA TO 4
FA FE 5
FA ZO 5
FA GU 4
FA DU 6
FA PE 6
FA BI 6
FA KE 4
FA CE 5
FA QA 5
FA HO 6
FE SA 4
FE HO 6
FE ZO 4
FE QA 4
FE JU 6
FE GA 5
FE XA 5
FE LA 6
FE JA 6
FE BU 4
FE PO 5
FE WO 5
FE ME 4
FE ZE 5
FE FO 5
FE VA 5
FE TO 4
FE XU 5
FE LU 5
FE HE 5
FI VA 5
FI QI 5
FI RO 5
FI ME 4
FI ZE 5
FI DA 5
FI NU 6
FI GA 5
FI JA 5
FI GU 6
FI FO 4
FI BU 5
FI RE 5
FI DI 5
FI DU 5
FI CO 6
FI TO 5
FI HE 6
FI GI 6
FI XA 6
FO LA 5
FO DU 6
FO TE 4
FO NU 4
FO RO 6
FO JA 5
FO HO 4
FO QU 5
FO ZO 6
FO DI 5
FO VI 4
FO FE 6
FO HI 6
FO PI 5
FO BO 6
FO WU 5
FO VO 5
FO SO 5
FO MU 5
FO LO 6
FU LE 6
FU JE 5
FU CA 5
FU MI 4
FU BE 6
FU KU 6
FU KI 4
FU VA 5
FU PO 6
FU MO 5
FU CE 6
FU FE 6
FU TO 6
FU NI 5
FU XU 4
FU RO 6
FU PE 4
FU SA 5
FU GA 6
FU JA 6
GA BU 5
GA NA 5
GA SI 6
GA LI 4
GA LU 5
GA GU 4
GA WE 5
GA VU 6
GA WO 5
GA SA 6
GA TO 4
GA TE 4
GA BI 5
GA QU 5
GA DI 6
GA ZO 6
GA ZE 5
GA KO 4
GA JU 5
GA RE 5
GE LA 4
GE KO 6
GE BA 6
GE DU 6
GE BU 4
GE LI 5
GE NI 6
GE ME 5
GE QU 6
GE FE 5
GE JU 5
GE GA 5
GE WE 6
GE NU 6
GE JI 6
GE SU 6
GE FO 4
GE VA 6
GE SA 6
GE RO 5
GI NA 5
GI VU 6
GI DI 5
GI TO 5
GI VA 4
GI XA 5
GI LU 4
GI DA 5
GI GA 5
GI QU 6
GI BA 5
GI LI 4
GI ME 6
GI SI 6
GI XU 6
GI PE 4
GI ZO 6
GI ZE 5
GI MO 6
GI SA 4
GO DI 6
GO TO 5
GO QA 4
GO GI 5
GO RO 5
GO KO 5
GO NI 6
GO MO 5
GO JA 5
GO LA 5
GO RE 4
GO PO 5
GO WO 4
GO JI 6
GO QI 6
GO BA 6
GO JU 6
GO HO 6
GO ZO 5
GO DA 6
GU KE 5
GU PO 6
GU BU 4
GU BI 6
GU TE 5
GU NU 5
GU LA 4
GU CE 5
GU DU 5
GU SI 6
GU SU 4
GU GA 5
GU QI 4
GU MO 4
GU KO 4
GU LE 5
GU HI 5
GU XO 5
GU KU 6
GU RU 6
HA GO 5
HA JO 5
HA TA 4
HA JE 4
HA MA 4
HA SE 5
HA KI 5
HA KU 6
HA GE 6
HA VO 4
HA DO 5
HA WA 6
HA ZU 4
HA BI 4
HA CO 6
HA DA 5
HA VU 5
HA PO 6
HA RO 6
HA VI 6
HE JI 4
HE FO 5
HE CO 5
HE XA 6
HE GU 4
HE XU 6
HE TE 6
HE SU 4
HE DI 5
HE CE 6
HE GA 5
HE JA 6
HE BA 6
HE DU 4
HE MO 4
HE ZO 4
HE WE 4
HE VA 5
HE WO 4
HE QI 4
HI QU 4
HI TO 4
HI ZE 6
HI DU 4
HI KE 6
HI JU 4
HI SU 6
HI HO 5
HI NI 5
HI HE 5
HI WO 4
HI SA 5
HI QI 4
HI DI 5
HI VI 4
HI MO 6
HI PE 4
HI KO 6
HI LA 5
HI VU 5
HO GI 5
HO MU 5
HO CI 5
HO FI 4
HO GO 5
HO WA 5
HO BO 6
HO NO 4
HO JE 6
HO XO 4
HO HI 6
HO PA 6
HO PI 6
HO TA 5
HO JO 5
HO PU 5
HO MA 6
HO QE 6
HO XE 5
HO CA 5
HU CI 5
HU SO 5
HU JE 6
HU GE 5
HU MI 5
HU WU 6
HU KA 6
HU MU 5
HU TA 6
HU QE 4
HU WA 5
HU ZU 5
HU HA 4
HU KU 6
HU PA 4
HU LE 5
HU QO 4
HU FA 4
HU CA 4
HU HI 5
JA ZI 6
JA TU 5
JA VE 5
JA SE 5
JA SO 5
JA VO 6
JA HU 4
JA QO 5
JA GE 4
JA ZA 5
JA XO 5
JA DO 4
JA TA 5
JA WA 5
JA LO 5
JA BE 4
JA MU 5
JA DE 6
JA FI 6
JA CA 5
JE XE 4
JE TI 5
JE KA 4
JE DO 4
JE ZU 6
JE SO 6
JE CI 6
JE NO 6
JE WA 6
JE QO 4
JE MU 5
JE VO 6
JE GE 4
JE NE 5
JE XO 4
JE BO 5
JE RU 5
JE KU 6
JE FA 6
JE WU 4
JI FU 6
JI RA 5
JI LO 5
JI XO 6
JI ZA 6
JI ZI 6
JI NE 6
JI CA 5
JI PU 5
JI QE 5
JI MI 6
JI HU 6
JI TU 5
JI NO 6
JI DE 6
JI BO 6
JI MU 5
JI QO 4
JI MA 6
JI FA 6
JO PI 6
JO MI 6
JO BE 6
JO TA 6
JO RA 5
JO LO 4
JO NO 4
JO TU 5
JO ZI 5
JO PU 4
JO QE 6
JO BO 5
JO WI 4
JO FI 6
JO NE 6
JO DO 4
JO ZU 6
JO DE 6
JO MA 6
JO XO 4
JU FU 5
JU SO 5
JU TU 5
JU WA 4
JU HI 4
JU RI 5
JU TI 6
JU BE 4
JU JE 4
JU QE 5
JU TA 6
JU LE 6
JU FA 6
JU CA 6
JU BO 5
JU ZA 6
JU RA 5
JU SE 5
JU VE 5
JU WI 5
KA VE 6
KA TA 5
KA MA 5
KA HI 6
KA PI 5
KA QO 5
KA PA 5
KA HU 6
KA KU 5
KA WA 6
KA FU 5
KA CA 4
KA MI 5
KA JO 4
KA HA 6
KA NE 4
KA ZA 5
KA ZI 4
KA RI 4
KA SE 5
KE NO 5
KE GO 6
KE PI 4
KE QO 5
KE CU 6
KE RI 5
KE DO 6
KE XE 4
KE WI 5
KE QE 5
KE BO 6
KE HU 5
KE MI 5
KE FI 5
KE VO 6
KE ZA 5
KE VE 5
KE MU 5
KE PU 5
KE ZU 6
KI VE 5
KI BO 5
KI CA 4
KI PA 6
KI GE 5
KI WI 6
KI TI 4
KI ZU 5
KI FA 6
KI WU 5
KI BE 5
KI JO 6
KI JU 4
KI JI 6
KI FO 5
KI BU 6
KI QI 6
KI SI 5
KI SA 5
KI RO 4
KO QI 4
KO GU 6
KO WE 6
KO MO 6
KO CE 4
KO GA 5
KO LI 5
KO KE 4
KO VA 6
KO HE 4
KO PE 6
KO VI 6
KO HO 5
KO JU 4
KO NU 6
KO XI 5
KO DU 6
KO QU 6
KO QA 5
KO RE 6
KU VU 5
KU VI 5
KU XI 6
KU BA 5
KU NU 5
KU PE 4
KU ZO 6
KU SI 6
KU DU 6
KU QA 6
KU GI 4
KU CO 6
KU RO 5
KU DA 6
KU HO 4
KU LI 4
KU NI 6
KU XU 6
KU LA 6
KU PO 4
LA SI 4
LA NA 6
LA FE 4
LA SA 5
LA QU 6
LA GI 5
LA GA 6
LA TE 6
LA MO 6
LA LI 5
LA BU 5
LA DU 5
LA NI 4
LA XU 6
LA CO 5
LA JU 5
LA CU 4
LA HI 5
LA SO 6
LA BO 4
LE ZI 6
LE DE 6
LE RU 5
LE LO 4
LE TO 5
LE QA 5
LE VI 5
LE NI 6
LE SA 6
LE LA 6
LE LU 6
LE CE 5
LE FE 6
LE FO 4
LE VA 4
LE GI 5
LE ZE 6
LE NA 6
LE VU 6
LE XU 6
LI LA 4
LI SA 6
LI VU 5
LI GU 6
LI GI 6
LI DI 6
LI SU 6
LI WO 5
LI ZO 5
LI RO 6
LI XU 5
LI LU 6
LI ME 5
LI XI 6
LI RE 5
LI FE 5
LI JI 4
LI MO 4
LI JE 6
LI ZI 5
LO ZU 6
LO ZI 5
LO DE 5
LO XI 6
LO XU 6
LO QA 5
LO NU 5
LO GU 4
LO WE 6
LO BA 5
LO JA 5
LO MO 4
LO KO 5
LO NI 6
LO DU 6
LO LU 5
LO HE 5
LO WO 4
LO CO 5
LO ME 5
LU RO 6
LU TO 5
LU KE 5
LU DA 5
LU HO 5
LU HE 5
LU TE 4
LU PO 5
LU SA 6
LU XA 4
LU XI 5
LU WE 6
LU MO 6
LU DI 4
LU CE 6
LU CO 6
LU SU 5
LU FO 5
LU SI 5
LU BI 6
MA GU 4
MA FO 5
MA RO 5
MA NU 4
MA LU 6
MA NA 5
MA GA 4
MA WE 6
MA SI 5
MA JU 6
MA TO 4
MA PE 6
MA PO 4
MA ME 5
MA MO 6
MA SU 5
MA HO 5
MA SA 4
MA NI 5
MA JA 5
ME ZE 5
ME BI 6
ME QA 5
ME RE 5
ME WO 4
ME KO 6
ME HO 4
ME SA 6
ME DI 6
ME KE 5
ME KU 6
ME FI 5
ME KA 5
ME CU 4
ME PU 4
ME ZI 5
ME TU 6
ME WU 6
ME HI 5
ME QO 6
MI BE 4
MI TA 5
MI ZI 4
MI KA 6
MI DO 6
MI PU 5
MI CU 5
MI RI 5
MI VE 6
MI SO 6
MI FA 5
MI JO 6
MI KU 6
MI RA 5
MI FU 4
MI WA 5
MI KI 5
MI LU 4
MI TO 5
MI SI 6
MO SU 6
MO GU 4
MO RE 5
MO WO 4
MO JU 5
MO ZE 5
MO TO 5
MO NI 5
MO NA 4
MO CO 6
MO DI 5
MO FE 5
MO DA 5
MO VA 5
MO CE 6
MO JI 6
MO KO 5
MO GA 6
MO QI 6
MO BI 6
MU FE 5
MU DA 6
MU PE 5
MU NU 5
MU WO 5
MU BI 6
MU XU 5
MU HO 5
MU WE 6
MU GA 6
MU HE 6
MU QU 5
MU LI 6
MU LA 4
MU BU 6
MU KO 5
MU RO 5
MU RE 4
MU LU 5
MU GU 6
NA GI 5
NA BU 6
NA XU 6
NA GU 5
NA BI 5
NA BA 5
NA JA 4
NA ZE 4
NA ZO 5
NA QU 6
NA WE 5
NA GA 6
NA RE 6
NA HO 4
NA KO 5
NA JI 5
NA PO 6
NA LI 4
NA SI 5
NA JU 6
NE NI 6
NE QI 5
NE PE 5
NE HO 6
NE FO 5
NE QU 5
NE DA 5
NE RO 6
NE WO 5
NE XI 6
NE CE 6
NE BU 5
NE RE 5
NE HE 5
NE LA 6
NE SA 6
NE QA 5
NE BI 5
NE KE 4
NE WE 4
NI TE 6
NI SA 6
NI JI 4
NI GI 4
NI GU 6
NI FO 5
NI VA 6
NI BI 5
NI PE 4
NI XU 6
NI VU 4
NI CE 4
NI NA 5
NI FE 5
NI QI 5
NI KO 5
NI TO 6
NI KE 5
NI DA 6
NI BA 6
NO TO 5
NO MO 6
NO RE 5
NO QA 6
NO XA 4
NO LA 6
NO NI 5
NO NA 6
NO SA 5
NO GA 5
NO KE 5
NO RO 5
NO KO 6
NO JA 6
NO BU 4
NO FO 5
NO XU 4
NO LU 5
NO ZO 5
NO JU 4
NU TE 5
NU KO 6
NU LU 5
NU WI 5
NU MU 5
NU NE 4
NU PI 4
NU DE 6
NU ZI 5
NU FU 5
NU QE 6
NU ZA 5
NU HU 6
NU RI 5
NU WA 5
NU JO 4
NU FI 4
NU VO 4
NU HA 5
NU KI 4
PA LO 6
PA KI 4
PA QO 4
PA RU 6
PA RI 6
PA WA 6
PA MI 4
PA RA 5
PA TA 6
PA DO 5
PA HI 6
PA MU 5
PA SE 5
PA GO 5
PA SO 4
PA CI 6
PA NO 6
PA CU 6
PA JO 5
PA FA 6
PE CA 5
PE FA 5
PE LE 6
PE ZU 5
PE NO 6
PE SE 5
PE PI 5
PE ZA 6
PE TI 6
PE RI 5
PE ZI 5
PE CI 5
PE HU 4
PE GO 4
PE FU 5
PE MU 5
PE XE 6
PE DO 6
PE HA 6
PE KA 5
PI WU 5
PI DE 6
PI HU 5
PI FA 5
PI SE 4
PI ZI 6
PI ZA 6
PI QE 6
PI PA 5
PI VE 4
PI FU 5
PI MU 4
PI DO 5
PI TI 4
PI ZU 6
PI CU 5
PI CI 6
PI RI 4
PI BE 5
PI NO 5
PO VO 4
PO NO 6
PO LO 6
PO WA 6
PO FU 5
PO MU 6
PO MI 5
PO BE 5
PO SO 6
PO TA 6
PO GE 6
PO HI 5
PO JO 6
PO BO 4
PO XO 6
PO NE 5
PO HA 5
PO WI 5
PO CA 5
PO XE 5
PU RU 6
PU FA 6
PU MI 5
PU SO 5
PU CI 4
PU VE 4
PU GE 4
PU DE 6
PU RA 4
PU KA 6
PU JO 5
PU JE 5
PU BE 5
PU RI 6
PU FU 5
PU DO 5
PU TA 6
PU CA 5
PU HA 5
PU QU 5
QA SA 5
QA QU 4
QA BI 5
QA ZE 6
QA JU 6
QA GU 6
QA NU 4
QA DI 5
QA JA 5
QA KO 5
QA XI 6
QA CE 4
QA VI 6
QA GI 6
QA GA 6
QA MO 6
QA XA 6
QA SI 4
QA XU 6
QA HO 5
QE BI 6
QE VA 6
QE FO 5
QE XI 6
QE NA 6
QE CO 6
QE WE 5
QE JI 5
QE ME 5
QE QU 6
QE SU 4
QE GA 6
QE PO 6
QE SI 4
QE FE 6
QE XA 6
QE BA 6
QE HE 4
QE XU 4
QE ZO 4
QI HO 6
QI PO 5
QI BA 6
QI HE 5
QI KE 4
QI DU 4
QI QA 6
QI JU 4
QI MO 6
QI FO 4
QI NI 5
QI CE 5
QI JI 6
QI LU 5
QI TO 6
QI CO 6
QI ZO 6
QI BU 4
QI WE 6
QI XA 6
QO WO 5
QO JU 5
QO ZE 5
QO NU 6
QO JI 4
QO SU 5
QO TE 6
QO SA 4
QO QA 6
QO NA 6
QO BA 5
QO WE 5
QO HO 6
QO LI 4
QO GU 6
QO CE 5
QO MO 5
QO TO 6
QO QU 5
QO XA 6
QU KE 5
QU ZO 6
QU XI 5
QU CE 6
QU RO 6
QU VU 6
QU HE 5
QU TE 4
QU TO 5
QU ZE 6
QU ME 5
QU PE 5
QU RE 5
QU GA 6
QU NU 6
QU SI 5
QU FO 4
QU XA 5
QU HO 5
QU WE 6
RA GA 4
RA BI 6
RA PE 5
RA TO 5
RA SI 5
RA SU 6
RA QU 4
RA WE 5
RA RO 6
RA KO 5
RA BU 5
RA QI 5
RA MO 4
RA GI 6
RA CO 4
RA BA 4
RA PO 6
RA HO 5
RA VU 6
RA WO 4
RE JU 6
RE GU 6
RE SU 6
RE QA 5
RE KO 6
RE XI 6
RE XU 5
RE FE 4
RE VI 4
RE WO 5
RE HO 5
RE SA 5
RE DI 6
RE GA 4
RE LI 6
RE VA 4
RE ME 6
RE LU 5
RE VU 4
RE PO 6
RI CO 4
RI DA 5
RI FE 4
RI CE 6
RI KE 4
RI RE 5
RI BA 5
RI LI 5
RI XI 6
RI PO 4
RI VI 4
RI BU 5
RI SU 5
RI NA 5
RI NI 5
RI GI 5
RI QA 6
RI GA 6
RI NU 6
RI TE 6
RO XA 4
RO PE 4
RO JU 5
RO QU 5
RO WE 6
RO TE 6
RO SA 5
RO HO 6
RO JA 4
RO BE 6
RO JE 5
RO CU 6
RO WI 4
RO FI 5
RO ZA 6
RO MU 4
RO KA 6
RO PI 4
RO RI 5
RO SO 4
RU XE 6
RU CU 4
RU GO 4
RU TI 4
RU TU 6
RU XO 6
RU WI 6
RU HA 4
RU LO 6
RU MU 6
RU FU 6
RU PI 5
RU FA 6
RU RI 5
RU MA 6
RU BO 6
RU JO 5
RU KI 6
RU ZU 4
RU DO 6
SA KA 6
SA GE 5
SA GO 5
SA HA 6
SA NE 6
SA PI 6
SA JE 6
SA RI 4
SA XO 5
SA PA 5
SA KI 4
SA WI 4
SA CA 6
SA DE 5
SA KU 6
SA MU 5
SA MI 6
SA WA 5
SA RU 6
SA LO 6
SE MA 6
SE TU 5
SE VE 5
SE PA 4
SE JO 5
SE VO 5
SE WU 6
SE HI 5
SE LE 6
SE DE 6
SE HA 4
SE XO 5
SE MI 5
SE CA 5
SE FA 6
SE QO 5
SE SO 5
SE FU 6
SE CI 4
SE PU 5
SI GE 6
SI QO 4
SI QE 4
SI TU 5
SI DO 6
SI XE 5
SI HU 5
SI PU 4
SI WA 4
SI KA 5
SI MU 5
SI SE 6
SI RA 6
SI FU 5
SI ZI 5
SI CI 5
SI FI 5
SI DE 6
SI CA 6
SI NO 6
SO KU 6
SO HA 4
SO PA 5
SO RA 5
SO WI 6
SO MA 5
SO VE 5
SO SE 6
SO CI 5
SO CU 4
SO JO 4
SO TA 5
SO WU 5
SO FA 4
SO HU 4
SO FU 4
SO WA 6
SO ZI 5
SO LO 4
SO MU 6
SU NE 6
SU QE 6
SU LO 6
SU FI 6
SU PA 6
SU HA 4
SU TA 5
SU HU 6
SU MI 5
SU GE 6
SU SE 6
SU XO 5
SU GO 4
SU MA 5
SU ZI 6
SU DE 5
SU KA 5
SU WA 4
SU KI 4
SU BE 5
TA DE 5
TA QE 5
TA CI 4
TA CA 5
TA XE 6
TA XO 6
TA PA 6
TA BE 5
TA HI 5
TA VE 6
TA SO 6
TA SE 5
TA NO 6
TA WI 5
TA LE 5
TA DO 6
TA KA 6
TA ZA 5
TA WA 6
TA TU 4
TE XO 4
TE JE 5
TE NO 5
TE KA 4
TE WA 6
TE MU 4
TE SE 6
TE QE 6
TE FU 5
TE MA 6
TE KI 6
TE MI 5
TE ZI 4
TE PA 5
TE PI 6
TE ZU 5
TE WU 4
TE HI 6
TE LO 6
TE LE 6
TI QO 6
TI RU 6
TI GO 4
TI MU 6
TI TU 5
TI CU 5
TI FU 6
TI MA 5
TI KI 4
TI LO 4
TI LE 5
TI CI 4
TI CA 4
TI JE 5
TI XU 6
TI CO 6
TI JU 6
TI TE 5
TI NA 4
TI QU 6
TO NA 6
TO QA 5
TO ME 5
TO RO 6
TO CE 6
TO LA 5
TO QI 4
TO PE 6
TO DA 5
TO CO 6
TO VI 5
TO GU 6
TO HE 6
TO SU 4
TO LU 5
TO NU 4
TO ZE 5
TO JA 4
TO TE 4
TO ZO 4
TU LA 5
TU RE 6
TU VA 5
TU XU 6
TU GA 6
TU BI 5
TU SI 6
TU DU 4
TU XI 6
TU RO 6
TU MO 6
TU LI 5
TU QU 5
TU DA 5
TU JI 6
TU GI 6
TU CO 5
TU SA 5
TU ZE 5
TU NU 4
VA PE 6
VA SA 5
VA BA 5
VA XA 6
VA GA 6
VA LI 6
VA QA 5
VA FE 5
VA HE 6
VA ZE 6
VA TO 5
VA RE 6
VA KE 6
VA FO 5
VA QU 5
VA QI 6
VA XU 6
VA JI 5
VA GI 4
VA KO 5
VE GA 5
VE DA 5
VE MO 5
VE ME 6
VE GU 6
VE XU 4
VE BU 5
VE QI 5
VE BI 6
VE LU 6
VE XA 6
VE DU 5
VE KE 5
VE WO 6
VE GI 5
VE KO 4
VE RE 6
VE QA 6
VE XI 6
VE VI 5
VI SI 5
VI SA 4
VI KE 6
VI SU 5
VI QA 5
VI RE 6
VI FE 6
VI ME 5
VI RO 6
VI JA 6
VI LA 4
VI CO 6
VI DU 6
VI GA 5
VI XA 4
VI XI 5
VI GU 5
VI KU 6
VI HU 6
VI SE 6
VO KI 5
VO ZU 4
VO MU 4
VO WI 4
VO CA 5
VO LO 6
VO VE 6
VO SE 6
VO WU 6
VO KA 6
VO LE 5
VO PA 5
VO ZI 5
VO GO 6
VO HU 6
VO NE 6
VO RU 6
VO WO 6
VO PO 5
VO QU 4
VU KO 6
VU LA 6
VU DA 6
VU SI 5
VU FO 5
VU VA 4
VU NA 4
VU GU 6
VU HA 6
VU NE 6
VU HI 6
VU XE 5
VU MU 6
VU BE 6
VU TA 5
VU TI 5
VU GE 6
VU KA 4
VU GO 6
VU VE 4
WA KA 4
WA FI 6
WA ZA 5
WA RA 6
WA FA 5
WA KI 5
WA NE 4
WA VE 5
WA PA 6
WA GE 5
WA PU 5
WA BI 4
WA RO 5
WA NA 6
WA WO 6
WA XA 5
WA GA 4
WA JA 6
WA CO 6
WA RE 6
WE XI 6
WE HE 4
WE WO 5
WE KO 4
WE SI 5
WE GI 5
WE FE 6
WE FO 5
WE CO 5
WE QI 6
WE LU 4
WE BA 5
WE LI 4
WE TE 6
WE QA 5
WE RE 6
WE NI 6
WE ME 6
WE ZE 5
WE ZO 6
WI PE 4
WI CE 6
WI GA 5
WI XU 4
WI LA 6
WI SA 6
WI QA 4
WI DU 5
WI NI 5
WI QI 6
WI LI 4
WI VU 6
WI ME 4
WI ZE 5
WI GI 5
WI KE 5
WI XI 5
WI ZO 5
WI QU 4
WI SU 6
WO BA 5
WO TO 4
WO HO 5
WO HE 5
WO VU 5
WO GI 5
WO MO 5
WO WE 6
WO RO 6
WO XU 6
WO ZO 5
WO FO 4
WO CO 5
WO DU 6
WO ZE 6
WO SU 4
WO LI 5
WO QU 5
WO FE 6
WO BU 5
WU KO 4
WU LA 6
WU RE 5
WU WO 6
WU BI 5
WU CO 6
WU DU 4
WU JI 4
WU SA 5
WU BA 4
WU VI 6
WU MO 6
WU TO 5
WU VU 6
WU WE 5
WU FE 4
WU NA 4
WU NI 5
WU PO 5
WU SU 6
XA PE 6
XA WE 4
XA QA 6
XA NU 4
XA BU 5
XA VI 5
XA MO 6
XA QI 6
XA LU 6
XA LI 5
XA NI 5
XA GI 6
XA KE 4
XA SA 5
XA VU 4
XA RE 4
XA ZE 6
XA HE 6
XA DI 6
XA JU 5
XE ZE 5
XE TO 6
XE QA 5
XE GI 6
XE ME 6
XE TE 6
XE QI 6
XE MO 6
XE DA 6
XE JI 4
XE RO 6
XE VI 5
XE GU 5
XE JU 5
XE DU 5
XE BU 4
XE JA 4
XE ZO 6
XE WO 6
XE RE 6
XI GU 5
XI CE 4
XI WO 5
XI PO 5
XI BA 5
XI DU 5
XI VA 6
XI NA 5
XI LU 5
XI XU 6
XI GA 5
XI XA 6
XI QU 4
XI ZO 5
XI SA 6
XI HE 6
XI VI 4
XI DI 4
XI SI 5
XI SU 5
XO XI 4
XO VI 5
XO MO 6
XO NA 6
XO SA 6
XO VU 5
XO HO 6
XO ME 5
XO TE 4
XO PO 4
XO GA 5
XO DU 6
XO QU 5
XO NU 6
XO JI 5
XO XA 5
XO LI 6
XO SI 6
XO JU 6
XO ZE 6
XU TO 5
XU JI 4
XU NU 5
XU ZE 4
XU JA 5
XU GA 4
XU SU 5
XU VU 6
XU HE 4
XU TE 6
XU FO 5
XU VA 5
XU BI 5
XU XI 4
XU VI 6
XU TU 4
XU RA 5
XU QO 5
XU CA 6
XU GO 6
ZA BE 6
ZA ZU 6
ZA JE 5
ZA MA 6
ZA TA 6
ZA HA 5
ZA XO 5
ZA DO 5
ZA BO 5
ZA SE 6
ZA WU 5
ZA CI 6
ZA QO 5
ZA MI 6
ZA FI 5
ZA TU 5
ZA JO 6
ZA WA 4
ZA HI 6
ZA MU 6
ZE HI 5
ZE VE 5
ZE CA 6
ZE BO 5
ZE MA 4
ZE XE 5
ZE TI 5
ZE HU 5
ZE VO 6
ZE BE 4
ZE FU 6
ZE QE 4
ZE ZA 6
ZE MI 5
ZE NO 5
ZE CI 5
ZE QO 6
ZE RA 4
ZE LO 4
ZE DO 6
ZI GO 5
ZI TI 6
ZI WI 4
ZI DO 5
ZI KU 6
ZI PI 5
ZI JE 5
ZI QO 6
ZI JO 4
ZI TU 6
ZI RA 4
ZI DE 5
ZI CU 4
ZI ZU 6
ZI WU 5
ZI TA 6
ZI NO 5
ZI RI 6
ZI GE 6
ZI PU 5
ZO VE 5
ZO ZA 5
ZO NO 6
ZO TU 6
ZO WA 6
ZO QO 5
ZO TI 5
ZO FU 6
ZO BE 6
ZO ZU 4
ZO MA 6
ZO HA 5
ZO WI 5
ZO XO 5
ZO CI 5
ZO XE 6
ZO WU 6
ZO PU 5
ZO MI 5
ZO SE 6
ZU MU 4
ZU VO 5
ZU DO 4
ZU CA 5
ZU FU 6
ZU PI 4
ZU XE 6
ZU XO 5
ZU DE 5
ZU WU 5
ZU JO 5
ZU MI 5
ZU SO 6
ZU NE 5
ZU VE 6
ZU ZA 6
ZU HA 5
ZU PU 5
ZU QE 6
ZU PA 4
