https://raw.githubusercontent.com/andersonvom/spoj/master/0014-ikeyb/0014-ikeyb.c
https://gist.githubusercontent.com/osjayaprakash/4548994/raw/aa0f300c991c39bc6cdeac7d86bf21c38514a703/SPOJ-IKEYB.cpp
https://raw.githubusercontent.com/andersonvom/spoj/master/0014-ikeyb/0014-ikeyb.rb
