https://raw.githubusercontent.com/mpillar/codeeval/master/0-easy/hex-to-decimal/main.cpp
https://raw.githubusercontent.com/AvetisG/CodeEval/master/01%20-%20Easy/C%23/HexToDecimal/HexToDecimalSolution.cs
https://raw.githubusercontent.com/mpillar/codeeval/master/0-easy/hex-to-decimal/HexToDecimal.java
https://raw.githubusercontent.com/pascal-bourut/codeeval-challenges/master/easy/67%20-%20Hex%20To%20Decimal/67.js
https://raw.githubusercontent.com/pascal-bourut/codeeval-challenges/master/easy/67%20-%20Hex%20To%20Decimal/67.php
https://raw.githubusercontent.com/leaen/Codeeval-solutions/master/hex-to-decimal.py
