https://www.imuo.com/a/b38bed3d14dc12471653709e896a07f3633443feb0410e79a7383ea3c57ba5aa
https://blog.securityevaluators.com/hacking-hackazon-2bda9830ccf0
https://es.slideshare.net/ssuserdec930/hackazon-realistic-ecommerce-hack-platform
