https://raw.githubusercontent.com/c650/hackerrank-solutions/master/Algorithms/Implementation/day-of-the-programmer.cpp
https://raw.githubusercontent.com/RyanFehr/HackerRank/master/Algorithms/Implementation/Day%20Of%20The%20Programmer/Solution.cs
https://raw.githubusercontent.com/irlndts/go-hackerrank/master/weekofcode29/day-of-the-programmer.go
https://raw.githubusercontent.com/RyanFehr/HackerRank/master/Algorithms/Implementation/Day%20Of%20The%20Programmer/Solution.java
https://raw.githubusercontent.com/gabrielgiordan/hackerrank/master/algorithms/implementation/day-of-the-programmer.js
https://raw.githubusercontent.com/danhenriquesc/hackerrank/master/algorithms/implementation/day_of_the_programmer.py
https://raw.githubusercontent.com/raghav97/Hackerrank-Solutions/master/day_of_the_programmer.rb
https://raw.githubusercontent.com/witekbobrowski/HackerRank/master/Algorithms/Implementation/day-of-the-programmer.swift
