https://raw.githubusercontent.com/nayuki/Project-Euler-solutions/master/haskell/p100.hs
https://raw.githubusercontent.com/nayuki/Project-Euler-solutions/master/java/p100.java
https://raw.githubusercontent.com/nayuki/Project-Euler-solutions/master/python/p100.py
