https://raw.githubusercontent.com/Samleo8/CoderByte/master/Easy/LongestWord.c
https://raw.githubusercontent.com/Gamer1092/Coderbyte/Easy/Longest%20Word.cpp
https://raw.githubusercontent.com/Nigelmnz/CoderbyteSolutions/master/03-LongestWord/3.hs
https://raw.githubusercontent.com/ZLester/Coderbyte-Solutions/master/Easy/03%20-%20Longest%20Word.js
https://raw.githubusercontent.com/copacubanana/phpCoderbyteEasy/master/03longestword.php
https://raw.githubusercontent.com/juyongsim/coderbyte/master/LongestWord.rb
