https://5h4d0wb0y.github.io/2017-03-08-seattle/#sql-injection
https://www.youtube.com/watch?v=dCHwoZ0c04I
https://www.infosec-ninjas.com/lab-seattle
https://medium.com/@hninja049/seattle-vulnhub-writeup-30ea21e7d7b8
https://www.hackingarticles.in/hack-seattle-vm-ctf-challenge/
