https://raw.githubusercontent.com/PlatyPew/picoctf-2018-writeup/master/Web%20Exploitation/Client%20Side%20is%20Still%20Bad/README.md
https://raw.githubusercontent.com/mzfr/ctf-writeups/master/picoCTF-2018/Web_exploitation/Client%20Side%20is%20Still%20Bad/readme.md
https://medium.com/@2019ko70012/picoctf-client-side-is-still-bad-solved-25a8f8d23710
https://www.youtube.com/watch?v=Rh0TA6fdnnk
https://www.youtube.com/watch?v=xmsvY1DBiiw
https://www.youtube.com/watch?v=dkTfI7goJwc
https://ctftime.org/writeup/11728
