https://raw.githubusercontent.com/ngoyal2707/SPOJ-solutions/master/julka.c
https://raw.githubusercontent.com/vfonic/SPOJ/master/julka.cpp
https://raw.githubusercontent.com/venkatrn/SPOJ/master/julka.java
https://raw.githubusercontent.com/AlexanderAA/spoj.pl/master/JULKA/julka.py
