13
97 56 174 154 123 72 35
39 20 101 183 70 131 159
117 65 137 23 81 95 39
36 55 113 158 128 72 88
146 94 119 62 44 80 29
44 142 91 114 18 172 60
124 88 74 61 148 36 104
162 79 131 60 148 100 32
44 131 156 73 94 107 25
120 150 66 53 24 176 95
81 171 108 29 141 55 123
113 93 71 139 56 37 20
54 73 174 100 31 116 147
