https://www.youtube.com/watch?v=EKGBskG8APc
https://www.youtube.com/watch?v=8NwL2P0pCLg
https://ironhackers.es/en/writeups/jeeves-hackthebox/
https://largoat.uk/jeeves/
https://www.hackingarticles.in/hack-the-box-challenge-jeeves-walkthrough/
https://thehacktoday.com/hack-the-box-jeeves-walkthrough/
https://lastlistener.github.io/Walkthroughs--HackTheBox_Jeeves_Walkthrough_and_Lessons.html
https://medium.com/@OneebMalik/hack-the-box-jeeves-write-up-f1427462dc19
https://areyou1or0.blogspot.com/2019/07/htb-jeeves-walkthrough.html
https://chris-young.net/2018/05/19/hack-the-box-jeeves-walkthrough/
https://dastinia.io/write-up/hackthebox/2018/05/19/hackthebox-jeeves-writeup/
https://dreaddigital.com/2018/05/21/htb-jeeves/
https://netosec.com/jeeves-hackthebox-writeup/
https://blog.barradell-johns.com/index.php/2019/10/16/htb-jeeves/
