https://raw.githubusercontent.com/KingMob/cryptopals-crypto-challenges/master/src/app/set4.clj
https://raw.githubusercontent.com/ysmolsky/cryptopals-matasano-solutions/master/25/main.go
https://raw.githubusercontent.com/ilchen/cryptopals/master/src/main/java/com/cryptopals/Set4.java
https://raw.githubusercontent.com/lt/php-cryptopals/master/Cryptopals/Set4/Challenge25/Solution25.php
https://raw.githubusercontent.com/jaybosamiya/cryptopals-solutions/master/set4/25/run.py
https://raw.githubusercontent.com/technion/matasano_challenge/master/set4/chal25/chal25.rb
https://raw.githubusercontent.com/Daeinar/cryptopals/master/src/c25.rs
