https://raw.githubusercontent.com/c650/hackerrank-solutions/master/Algorithms/Implementation/picking-numbers.cpp
https://raw.githubusercontent.com/rshaghoulian/HackerRank_solutions/master/General%20Programming/Basic%20Programming/Picking%20Numbers/Solution.java
https://raw.githubusercontent.com/gabrielgiordan/hackerrank/master/algorithms/implementation/picking-numbers.js
https://raw.githubusercontent.com/danhenriquesc/hackerrank/master/algorithms/implementation/picking_numbers.php
https://raw.githubusercontent.com/raghav97/Hackerrank-Solutions/master/picking_numbers.rb
https://raw.githubusercontent.com/witekbobrowski/HackerRank/master/Algorithms/Implementation/picking-numbers.swift
