https://raw.githubusercontent.com/yahwes/project-euler/master/R-Files-0001-0100/pe0015.R
https://raw.githubusercontent.com/zimpha/competitive-programming/master/project-euler/volume01/15.cc
https://raw.githubusercontent.com/danielfm/euler-clojure/master/euler/problem_15.clj
https://raw.githubusercontent.com/EaterOA/Euler/master/1-25/euler015.cpp
https://raw.githubusercontent.com/Dukotech/Project-Euler-Solutions/master/dotnet/src/Problem15.cs
https://raw.githubusercontent.com/jmoiron/euler.go/master/015.go
https://raw.githubusercontent.com/nayuki/Project-Euler-solutions/master/haskell/p015.hs
https://raw.githubusercontent.com/nayuki/Project-Euler-solutions/master/java/p015.java
https://raw.githubusercontent.com/johnmyleswhite/projecteuler.jl/master/015.jl
https://raw.githubusercontent.com/lilyball/projecteuler-ocaml/master/prob15.ml
https://raw.githubusercontent.com/fedeisas/project-euler/master/15/problem-15.php
https://raw.githubusercontent.com/jpillora/euler-in-perl/master/015.pl
https://raw.githubusercontent.com/zsiciarz/euler.rs/master/src/solutions/problem15.rs
https://raw.githubusercontent.com/samskivert/euler-scala/master/Euler015.scala
https://raw.githubusercontent.com/nayuki/Project-Euler-solutions/master/mathematica/p015.mathematica
