https://raw.githubusercontent.com/gavin--/hackerrank/master/Sherlock%20and%20Squares/Sherlock%20and%20Squares.cpp
https://raw.githubusercontent.com/mikkysati/Hackerrank-Solution-in-C/master/Sherlock-and-Queries/Solution.cs
https://raw.githubusercontent.com/MaskRay/HackerRank/master/sherlock-and-queries.rb
