https://vimeo.com/251204903
https://www.youtube.com/watch?v=Pc4tzsn-ats
https://www.youtube.com/watch?v=mWfitZWGadA
https://www.youtube.com/watch?v=04R6EZwXNbo
https://www.youtube.com/watch?v=gcCQ4FOVKIU
https://reboare.github.io/hackthebox/ariekei.html
https://www.vimore.org/watch/Pc4tzsn-ats/hackthebox-ariekei/
https://video.hacking.reviews/2018/04/hackthebox-ariekei.html
https://www.hackingarticles.in/hack-the-box-challenge-ariekei-walkthrough/
https://forum.hackthebox.eu/discussion/688/ariekei-writeup-by-booj#latest
https://www.linkedin.com/pulse/hack-box-challenge-ariekei-walkthrough-aarti-singh
https://yaserfaraj.github.io/hackthebox/Ariekei-Walkthrough-HackTheBox
https://medium.com/@gabriel.pirjolescu/hack-the-box-ariekei-write-up-cd8f261cd2ca
https://www.puckiestyle.nl/htb-ariekei/
