https://infamoussyn.com/2014/04/30/overthewire-krypton-level-0-5-writeup/#level0
http://blog.zairo.kr/entry/OverTheWire-%E2%80%93-Krypton-Level-0?category=570167
https://medium.com/secttp/overthewire-krypton-level-0-8de99e23f50c
https://raw.githubusercontent.com/Lorenyx/OverTheWire-Solutions/master/krypton/level_0.md

