https://raw.githubusercontent.com/aklomp/anagram/master/anagram.c
https://raw.githubusercontent.com/leeychee/hackerrank/master/practice/algorithms/strings/anagram/main.go
https://raw.githubusercontent.com/charles-wangkai/hackerrank/master/java-anagrams/Solution.java
https://raw.githubusercontent.com/fvcproductions/anagram/master/assets/js/main.js
https://raw.githubusercontent.com/codebytere/hackerrank/master/Algorithms/Strings/anagram.py
https://raw.githubusercontent.com/MaskRay/HackerRank/master/anagram.rb
