https://www.youtube.com/watch?v=XVYgBetSvS8
https://0xrick.github.io/hack-the-box/ellingson/
https://medium.com/bugbountywriteup/hackthebox-ellingson-7c9a8a87dccb
https://0xdf.gitlab.io/2019/10/19/htb-ellingson.html
https://hackso.me/ellingson-htb-walkthrough/
http://itsvipul.com/writeups/HTB/Ellingson/Ellingson.html
https://maggick.fr/2019/10/htb-ellingson.html
https://raw.githubusercontent.com/Hackplayers/hackthebox-writeups/master/machines/Ellingson/31337-ellingson.pdf
https://raw.githubusercontent.com/Hackplayers/hackthebox-writeups/master/machines/Ellingson/Mansoor-ellingson.pdf
https://raw.githubusercontent.com/Hackplayers/hackthebox-writeups/master/machines/Ellingson/MemoryLeaks-Ellingson.pdf
https://raw.githubusercontent.com/Hackplayers/hackthebox-writeups/master/machines/Ellingson/l1k0rd3b3ll0t4-ellingson.pdf
