4
3
-5 -6 -1
-4 7 -5
5 6 4
9 -5 -1
6
5 -7 8 0 4 -2
8 2 -6 -1 -4 -1
3 0 -6 6 8 -3
-9 -7 5 -3 -9 -9
-3 -3 2 1 5 7
0 -4 -2 -5 2 -1
-5 4 -4 8 5 -2
5
-7 -8 4 -2 -2
-6 4 5 -1 -4
4 7 4 0 -8
-2 0 -5 -8 7
2 -4 1 -2 4
7 2 -2 6 -7
3
1 9 5
-8 -8 7
-5 6 -4
-1 -1 3
