44 111
6 25
6 7
12 23
30 25
2 29
29 36
38 36
29 0
0 24
17 31
42 25
36 20
5 25
2 34
9 21
28 26
31 41
35 6
22 42
16 9
10 7
27 3
15 3
11 28
16 5
26 43
5 21
29 43
30 4
17 43
13 22
41 10
8 27
21 8
33 10
26 27
11 32
29 20
1 40
33 36
3 36
32 17
37 41
26 39
11 13
20 21
43 36
35 30
6 2
31 28
10 11
42 2
1 11
24 13
4 40
13 16
33 8
26 4
28 12
3 31
43 37
27 1
7 3
31 22
39 16
9 26
11 0
43 1
14 18
33 4
35 32
6 16
42 34
39 19
24 33
1 38
16 29
28 18
37 33
30 42
16 38
22 24
15 41
11 23
28 10
26 42
8 34
5 27
23 31
21 31
9 1
16 7
14 22
10 25
0 10
42 5
19 35
43 14
19 25
25 9
15 2
38 34
7 28
3 11
9 4
40 39
41 25
43 30
2 12
5 37
8 3
