https://raw.githubusercontent.com/abhichand26/breadth-first-search/master/BFS.c
https://raw.githubusercontent.com/texane/bsf/master/src/main.cc
https://raw.githubusercontent.com/Vuskk5/BreadthFirstSearch/master/BreadthFirstSearch.cs
https://raw.githubusercontent.com/CDA70/Breadth-First-Search/master/Breadth-First-Search.ipynb
https://raw.githubusercontent.com/AaronLazarusGomes/AaronGomes-Breadth-First-Search-Java/master/BFS.java
https://raw.githubusercontent.com/jcink/breadth-first-search-php/master/breadth-first.php
https://raw.githubusercontent.com/ValeWasTaken/CodeAbbey_Solutions/master/Python/id157_Emirp_primE.py
https://raw.githubusercontent.com/sf-wdi-31/breadth-first-search/master/rb/tree-solution.rb
