https://raw.githubusercontent.com/ShrikantJadhav/HackerRank-Solutions/master/CavityMap.cpp
https://raw.githubusercontent.com/RyanFehr/HackerRank/master/Algorithms/Implementation/Cavity%20Map/Solution.cs
https://raw.githubusercontent.com/leeychee/hackerrank/master/practice/algorithms/implementation/cavity_map/main.go
https://raw.githubusercontent.com/charles-wangkai/hackerrank/master/cavity-map/Solution.java
https://raw.githubusercontent.com/vivekshah20/hackerrank-solutions/master/algorithms/cavity-map/cavity-map.py
https://raw.githubusercontent.com/raghav97/Hackerrank-Solutions/master/cavity_map.rb
