50
87 516
74 764
93 819
97 784
60 679
18 761
48 646
98 552
93 560
97 276
13 638
96 933
58 185
25 970
59 773
73 563
45 186
42 261
17 675
56 822
39 480
14 796
44 113
89 354
53 805
60 383
87 187
22 736
91 855
18 594
35 165
56 853
87 721
67 111
70 330
79 232
13 434
48 772
87 285
83 322
47 265
71 878
67 949
62 622
79 878
24 521
39 831
28 286
11 470
82 395
