https://raw.githubusercontent.com/AkashChandrakar/codeforces-solutions/master/c%2B%2B/416-A-14829711.cpp
https://raw.githubusercontent.com/o-panda-o/MySolutions/master/Greedy/Code_416A_GuessANumber.java
https://raw.githubusercontent.com/changyuheng/codeforces-solutions/master/416a.py
