https://raw.githubusercontent.com/nayuki/Project-Euler-solutions/master/java/p069.java
https://raw.githubusercontent.com/DestructHub/ProjectEuler/master/Problem069/Python/solution_1.py
https://raw.githubusercontent.com/sile/euler.rs/master/euler_02/src/problem069.rs
