https://www.youtube.com/watch?v=SoWJowaeUrE
https://www.youtube.com/watch?v=Tjc6xYjh46g
https://www.youtube.com/watch?v=qT8EG6HY4wU
https://www.youtube.com/watch?v=GjRVa1vxXJE
https://www.youtube.com/watch?v=MKzeJtDiJ54
https://www.youtube.com/watch?v=oqHm5nPObwM
https://www.youtube.com/watch?v=geB2K_8Quik
https://www.youtube.com/watch?v=OVXax4KlrXY
https://www.youtube.com/watch?v=fPbyQupQVnM
https://www.youtube.com/watch?v=CWxKU57Rj3U
