https://blog.christophetd.fr/write-up-mr-robot/
http://www.gcura.tech/vulnhub-mr-robot-1/
https://roskyfrosky.github.io/vulnhub/2017/03/07/mrrobot-vulnhub.html
https://www.youtube.com/watch?v=WD2QY4AISjE
http://camelinc.info/blog/2017/02/Vulnhub---Mr-Robot-1-boot2root-CTF-walkthrough/
http://d3falt-research.tk/Mr-Robot/index.html
https://www.youtube.com/watch?v=vxFYfJbQAoc
https://aisherwood.gitbooks.io/reference-book/content/mr-robot.html
https://habrahabr.ru/post/320106/
http://www.iamjohnedwards.net/writeups/albania/index.php
http://lunam00n.com/2017/01/20/mr-robot-1-writeup/
http://www.abatchy.com/2017/01/mr-robot-1-walkthrough-vulnhub.html
https://www.youtube.com/watch?v=98E0xWkd70w
https://syrion89.wordpress.com/2016/12/21/mr-robot-1-writeup/
https://www.youtube.com/watch?v=nVyGMrN5li8
http://ihack4falaf3l.tk/index.php/2016/12/08/mr-robot-walkthrough/
https://que.com/2016/12/04/ctf-hacking-mr-robot/
http://www.iamjohnedwards.net/writeups/mrrobot/
https://www.youtube.com/watch?v=taxKNsTRLgI
https://www.youtube.com/watch?v=zTaTz7_kINw
https://www.youtube.com/watch?v=ra9N2jmj590&feature=youtu.be
https://www.youtube.com/watch?v=eET1CK_a-w8&feature=youtu.be
https://www.youtube.com/watch?v=AGepDn_uzaM
https://jhalon.github.io/vulnhub-mr-robot1/
http://shoxx-website.com/2016/09/mr-robot-challenge-writeup.html
http://ethicalhacker1337.com/?p=492
https://kaizensecurity.wordpress.com/2016/08/31/mr-robot-1-you-are-not-alone/
http://uart.io/2016/08/mr-robot-vulnhub-vm-writeup/
https://www.youtube.com/watch?v=16ZmG1gQ3Q8
https://seclyn.wordpress.com/2016/08/09/vulnhub-mr-robot-1/
https://drive.google.com/file/d/0B4NG4XHkMyIFRFQzWGdFREQzLVk/view
https://anandsecurity.blogspot.in/2016/08/ctf-mr-robot-1-challenge.html
https://reedphish.wordpress.com/2016/08/04/mr-robot-1-ctf-log/
https://www.youtube.com/watch?v=RPxQjRK94e8
https://reversebrain.wordpress.com/2016/08/02/vulnhub-mr-robot/
http://pentestingandctf.tumblr.com/post/147585031050/mr-robot-ctf
http://blog.safetechinnovations.com/uncategorized/mr-robot-write-up/
https://madmantm.wordpress.com/2016/07/12/breaking-inside-mr-robots-vm/
https://two06.blogspot.co.uk/2016/07/mr-robot-ctf-walkthrough.html
https://nikolaskama.me/mr-robot-1-writeup/
https://medium.com/@leighhall/vulnhub-com-mr-robot-1-ctf-walkthrough-7d4800fc605a#.qr3nf7gly
https://reapingbytes.blogspot.co.uk/2016/07/fsociety-mr-r0b0t.html
http://pax0r.com/mr-robot-vulnhub-write-up/
https://scriptkidd1e.wordpress.com/mr-robot-1-vulnhubs-vm-walkthrough/
https://www.chrismaddalena.com/2016/07/vulnhub-mr-robot-1-walkthrough/
https://7ms.us/7ms-210-vulnhub-walkthrough-mr-robot/
https://snolet.wordpress.com/2016/07/02/mr-robot/
https://gknsb.blogspot.co.uk/2016/07/mr-robot-writeup.html
https://bryceandress.github.io/2016/07/02/Mr-Robot-CTF.html
https://m3noetius.wordpress.com/2016/07/02/solution-mr-robot-1-vulnhub/
http://grahamthomas.net/2016/07/01/mr-robot-1-vulnhub-walkthrough/
https://rgolebiowski.blogspot.co.uk/2016/06/mr-robot-v1-challenge.html
https://blog.willboyce.com/writeups/2016/mr-robot-1/
https://blog.spentera.com/2016/06/30/mr-robot-1/
http://www.mogozobo.com/?p=3129
http://www.slideshare.net/EmmanouilGavriil/arkanoidmrrobot1-63564758
http://mrb3n.weebly.com/uploads/5/8/2/1/58218/mrrobot_writeup_06282016.pdf
https://volta-sec.blogspot.co.uk/2016/10/vulnhub-mr-robot-1.html
http://www.hackingarticles.in/hack-mr-robot-vm-ctf-challenge/
https://alifesecured.com/mr-robot/
https://hausec.com/vulnhub-write-ups/mr-robot/
https://www.youtube.com/watch?v=X2W2bh5gdVs
