http://www.h3399.cn/201707/111479.html
https://www.youtube.com/watch?v=rluxyl9w5MA
http://www.danieledonzelli.com/ethical-hacking/xss-stored-beef/
http://www.sec-art.net/2018/06/bwapp-buggy-web-application-xss.html
https://youtu.be/30dO_OKpI8c
https://youtu.be/GJm7zdwrTxE
https://www.youtube.com/watch?v=ovqPEXNe5RY
