https://raw.githubusercontent.com/c650/hackerrank-solutions/master/Artificial-Intelligence/Bot%20Building/bot-saves-princess-1.cpp
https://raw.githubusercontent.com/LLcoolNJ/HackerRank-Solution/master/Artificial%20Inteligence/Bot%20Save%20Princess.java
https://raw.githubusercontent.com/jat9674/Hackerrank-AI-Problem-Solution/master/Bot%20saves%20princess%20%20.py
https://raw.githubusercontent.com/zmoazeni/hackerrank-solutions/master/rust/save_princess/src/main.rs
