https://raw.githubusercontent.com/codejoydo/codeforces/master/158b.c
https://raw.githubusercontent.com/nikzsaz/Codeforces-solution/master/158B_Taxi.cpp
https://raw.githubusercontent.com/yeicol/CodeForces/master/CF158BTaxi.java
