http://rk700.github.io/2014/06/16/stop-us/
https://blog.init-new-world.com/post/wechall-exercise.html#stopus
https://github.com/spoock1024/CTF-Practice/blob/master/wechall/Stop%20us/writeup.md
https://rickyhao.com/2015/11/30/118/
http://byd.dropsec.xyz/2016/07/23/Webchall-CTF-writeup2/
https://blog.csdn.net/kostart123/article/details/81223230
