https://github.com/bsqrl/juice-shop-walkthrough#12-get-rid-of-all-5-star-customer-feedback
https://github.com/apox64/OWASP-Juice-Shop-Write-Up/blob/master/juice-shop-writeup.md#10-access-someone-elses-basket
https://github.com/bkimminich/pwning-juice-shop/blob/master/appendix/solutions.md#access-someone-elses-basket
https://incognitjoe.github.io/hacking-the-juice-shop.html
https://raw.githubusercontent.com/apox64/OWASP-Juice-Shop-Write-Up/master/juice-shop-writeup.md
https://raw.githubusercontent.com/bsqrl/juice-shop-walkthrough/master/README.md
https://bkimminich.gitbooks.io/pwning-owasp-juice-shop/content/appendix/solutions.html
