https://resources.infosecinstitute.com/vulnhub-machines-walkthrough-series-fristileaks/#gref
https://5h4d0wb0y.github.io/2017-04-10-fristileaks/
https://medium.com/@Kan1shka9/fristileaks-1-3-walkthrough-3b236cd006a1
