http://www.google-gruyere.appspot.com/part3#3__cookie_manipulation
http://jggge.blogspot.com/2014/03/week-2-client-state-manipulation.html
http://m4l1ce.me/writeups/2017/03/28/google-gruyere.html
http://blogs.microsoft.co.il/sasha/2013/05/06/attacking-web-applications/
https://dzone.com/articles/attacking-web-applications
