https://raw.githubusercontent.com/irlndts/go-hackerrank/master/algorithms/implementation/sequence-equation.go
https://raw.githubusercontent.com/RyanFehr/HackerRank/master/Algorithms/Implementation/Sequence%20Equation/Solution.java
https://raw.githubusercontent.com/somallg/hacker-rank/b3cdca50e156fb22c68147f3a4927c31dded1b06/packages/hackerrank/algorithms/implementation/permutation-equation/permutation-equation.spec.js
https://raw.githubusercontent.com/raghav97/Hackerrank-Solutions/master/sequence_equation.rb
https://raw.githubusercontent.com/witekbobrowski/HackerRank/master/Algorithms/Implementation/sequence-equation.swift
