https://github.com/bsqrl/juice-shop-walkthrough#8-xss-tier-3-perform-a-persisted-xss-attack-with-scriptalertxss3script-bypassing-a-server-side-security-mechanism
https://bkimminich.gitbooks.io/pwning-owasp-juice-shop/content/appendix/solutions.html
https://github.com/apox64/OWASP-Juice-Shop-Write-Up/blob/master/juice-shop-writeup.md#17-xss-tier-3-perform-a-persisted-xss-attack-without-using-the-frontend-application-at-all
http://m4l1ce.me/writeups/2017/01/09/juice-shop.html
https://github.com/pastelito02/Challenges-sol/blob/master/JuiceShop/Apox64/solutions.md#17-xss-tier-3-perform-a-persisted-xss-attack-without-using-the-frontend-application-at-all
https://github.com/pastelito02/Challenges-sol/blob/master/JuiceShop/Bkmminich/solutions.md
https://incognitjoe.github.io/hacking-the-juice-shop.html
https://github.com/pastelito02/Challenges-sol/blob/master/JuiceShop/Bsqrl/solutions.md
https://bkimminich.gitbooks.io/pwning-owasp-juice-shop/content/part2/xss.html
https://github.com/apox64/OWASP-Juice-Shop-Write-Up/blob/master/juice-shop-writeup.md
https://raw.githubusercontent.com/apox64/OWASP-Juice-Shop-Write-Up/master/juice-shop-writeup.md
