https://raw.githubusercontent.com/DionysiosB/CodeEval/master/Endianness.cpp
https://raw.githubusercontent.com/joshimoo/Challenges/master/CodeEval/Easy/Endianness/Endianness.cs
https://raw.githubusercontent.com/wtyurin/codeeval/master/src/main/java/com/vtyurin/solutions/Endianness.java
https://raw.githubusercontent.com/pascal-bourut/codeeval-challenges/master/moderate/15%20-%20Endianness/15.js
https://raw.githubusercontent.com/pascal-bourut/codeeval-challenges/master/moderate/15%20-%20Endianness/15.php
https://raw.githubusercontent.com/leaen/Codeeval-solutions/master/endianness.py
https://raw.githubusercontent.com/jtibbertsma/code-eval/master/endianness/endian.rb
