https://www.youtube.com/watch?v=FHv0YzSUXpE&t=3s
https://www.youtube.com/watch?v=KK0cXOjIQHM
https://www.youtube.com/watch?v=fITCaeBtcwY
https://www.youtube.com/watch?v=GR5_wnCvo4k
https://www.youtube.com/watch?v=19y2tpPQ0wg
https://www.youtube.com/watch?v=ELcmuUlj-M0
https://www.youtube.com/watch?v=0dwMpmszVVI
https://www.youtube.com/watch?v=DcKZ3MqfsWA
https://support.detectify.com/customer/portal/articles/1969819-login-csrf
https://www.netsparker.com/web-vulnerability-scanner/vulnerabilities/cross-site-request-forgery-in-login-form/
https://www.youtube.com/watch?v=JYnQ-uLehjA
