https://www.hackingarticles.in/file-upload-exploitation-bwapp-bypass-security/
https://www.wordfence.com/learn/how-to-prevent-file-upload-vulnerabilities/
https://www.youtube.com/watch?v=0Ck2eWD6NBA
https://www.youtube.com/watch?v=3KGqGH6g15s
https://www.youtube.com/watch?v=3mIOboabiVQ
https://www.youtube.com/watch?v=4g2uwJ7H7zM
https://www.youtube.com/watch?v=dFSTFTgdQ-Q
https://www.youtube.com/watch?v=enpDJ8MfiC8
https://www.youtube.com/watch?v=FQru91tyyp4
https://www.youtube.com/watch?v=G4gX-Am6IJ0
