https://raw.githubusercontent.com/anomen-s/programming-challenges/master/root-me.org/Web-Client/Javascript-Obfuscation-2/ch12.html
https://cysecguide.blogspot.com/2018/06/root-me-write-up-javascript-obfuscation.html
https://www.youtube.com/watch?v=c-E1i7v-scs
