https://www.youtube.com/watch?v=nkTBwbnfesQ
https://www.youtube.com/watch?v=EzOquQNQAUs
https://www.youtube.com/watch?v=F3bPD_uGXKc
https://www.youtube.com/watch?v=iWcRR2WcBFU&t=182s
https://www.youtube.com/watch?v=_-1ztxstVlY
https://www.youtube.com/watch?v=9VOB34pcnY0&t=2s
https://www.youtube.com/watch?v=SSNDvZmlCDM
https://www.youtube.com/watch?v=I09Chd65Cig
https://www.youtube.com/watch?v=TD4zWfm0MfQ
https://www.youtube.com/watch?v=VaLSYzEWgVE
https://medium.com/abn-amro-red-team/java-deserialization-from-discovery-to-reverse-shell-on-limited-environments-2e7b4e14fbef
https://github.com/WebGoat/WebGoat/wiki/(Almost)-Fully-Documented-Solution-(en)#insecure-deserialization
