https://exploits.run/ignite/
https://blog.tryhackme.com/ignite-writeup/
https://floreaiulianpfa.com/igniter-try-hack-me/
https://www.embeddedhacker.com/2019/08/hacking-walkthrough-ignite-ctf/
https://unicornsec.com/home/tryhackme-ignite
https://sckull.github.io/posts/ignite/
