- idioma: de
- actualizacion: sí
- clasificación: sí
- puntuaciont: 25347
- puntuacionb: 10000
- usuarios: 14591
- vinculados: 330
- retos: 183
- media: 26.09%
- dificultad: 63.33%
- diversión: 66.07%
- wechall: https://www.wechall.net/site/details/9/Happy_Security
- url: http://www.happy-security.de/
