https://raw.githubusercontent.com/JosephTLyons/MIPS-Assembly-Sum-Loop/master/SumLoop.asm
https://raw.githubusercontent.com/DestructHub/ProjectEuler/master/Problem001/Brain/solution_1.brain
https://raw.githubusercontent.com/RyanLafferty/CodeAbbey/master/p2.c
https://raw.githubusercontent.com/askl56/Challenges/master/Maths/12-Caesars-Cipher/solutions/askl56-caesars-cipher.clj
https://raw.githubusercontent.com/gravoo/codeabbey/master/%20Sums%20in%20Loop.cpp
https://raw.githubusercontent.com/Tempurturtul/CodeAbbey/master/C%23/SumLoop.cs
https://raw.githubusercontent.com/mdparker/LearningD/master/Chapter07_Composing%20Functional%20Pipelines%20with%20Algorithms%20and%20Ranges/appender.d
https://raw.githubusercontent.com/DestructHub/ProjectEuler/master/Problem001/Erlang/solution_1.erl
https://raw.githubusercontent.com/askl56/Challenges/master/Maths/07-Multiplication-Tables/solutions/askl56-multiplication-tables.exs
https://raw.githubusercontent.com/schoolo/codeabbey/master/problems/two/main.go
https://raw.githubusercontent.com/westleydang/codeabbey/master/Problem_02.ipynb
https://raw.githubusercontent.com/meganroche/CodeAbbeySolutions/master/Java/SumLoop.java
https://raw.githubusercontent.com/jsenne/Code-Abbey-Solutions/master/002_SumInLoop.js
https://raw.githubusercontent.com/peiandsky/codeabbeyByKotlin/master/src/problems01_10/Problem02_SumInLoop.kt
https://raw.githubusercontent.com/chriswood/codeabbey/master/ca2.lisp
https://raw.githubusercontent.com/DestructHub/ProjectEuler/master/Problem001/OCaml/solution_1.ml
https://raw.githubusercontent.com/mpeshehonov/Codeabbey/master/practice/%232/index.php
https://raw.githubusercontent.com/MadcapJake/codeabbey-problems/master/perl6/sum-in-loop/sum-in-loop.pl
https://raw.githubusercontent.com/elebumm/Code-Abbey-Python/master/2/2.py
https://raw.githubusercontent.com/marclerodrigues/ruby_exercises/master/sum_in_loop.rb
https://gitlab.com/CodeArtisan/codeabbey/raw/master/problem_2/solution.rkt
https://raw.githubusercontent.com/YetAnotherMinion/YAMScratch/master/CodeAbbey/rust-sol/src/2.rs
https://raw.githubusercontent.com/mmcdon20/code_abbey/master/src/main/scala/Abbey002.scala
https://raw.githubusercontent.com/DestructHub/ProjectEuler/master/Problem001/Scheme/solution_2.scm
https://pastebin.com/raw/iiz0EZ5w
https://pastebin.com/raw/jVMDecJg
https://pastebin.com/raw/rFZ6MMiJ
https://pastebin.com/raw/zZYBE2dB
https://raw.githubusercontent.com/skilled19/sols/master/appo_abbey-02-sum-in.loop-fs
