https://raw.githubusercontent.com/linuxp3nguin/smashing-the-stack-2013/master/IO/005
https://www.greyhat.dk/io-smashthestack-level-05/
https://www.unixawy.com/smash-the-stack-level-5/
https://infamoussyn.wordpress.com/2013/09/05/smashthestack-io-walkthrough-part-a-level-1-5/
https://conceptofproof.wordpress.com/2013/10/28/level-5-smashthestack-walkthrough/
