http://location-href.com/xvwa-walkthrough/
https://www.youtube.com/watch?v=HC8i7JuFPus
https://youtu.be/bkWT9LMQTlg
http://pakvim.net/watch/HC8i7JuFPus
https://securitycode.tistory.com/77
https://location-href.com/xvwa-walkthrough/
https://raw.githubusercontent.com/rudSarkar/xvwa-solution/master/XPATH-injection-xvwa.md
http://www.reydes.com/d/?q=Explotar_una_Inyeccion_XPath_en_XVWA
https://tipstrickshack.blogspot.com/2013/11/xpath-injection-tutorial.html
https://www.youtube.com/watch?v=fV0qsqcScI4
https://www.youtube.com/watch?v=7fYbkqYsXns
