https://sql--injection.blogspot.com/p/sql-injection-tutorial-walkthrough-with.html
https://www.geeksforgeeks.org/use-sqlmap-test-website-sql-injection-vulnerability/
https://www.hackingarticles.in/manual-sql-injection-exploitation-step-step/
https://medium.com/@hninja049/sql-injection-using-sqlmap-9d14182005a0
https://www.hackingarticles.in/category/kali-linux/page/10/
