https://www.youtube.com/watch?v=RxMS5NfoXn0
https://www.cybrary.it/0p3n/html-injection-reflected-post/
http://www.anonhack.in/2018/07/html-injection-reflected-post-level-low-bwapp/
https://securitycode.tistory.com/97
http://www.anonhack.in/2018/07/html-injection-reflected-post-level-medium-bwapp/
https://underc0de.org/foro/hacking/html-injection-(post-para-novatos)/
http://penthusiasts.blogspot.com/2013/12/bwapp-html-injection-reflected-post.html
https://n00bsecurityblog.wordpress.com/2017/09/16/http-injection-reflected-post/
http://komorebi0122.blogspot.com/2016/12/medium-html-injection-reflected-post.html
https://l1cafe.blog/2019/03/17/bwapp-writeup.html
https://www.youtube.com/watch?v=ib3ZKFfRn3E
https://www.youtube.com/watch?v=u-96HkBS8mY
https://www.youtube.com/watch?v=n0BOWmM0gcI
https://www.youtube.com/watch?v=4MZ30SfLpgc
https://www.youtube.com/watch?v=yCj45YiMQyM
https://www.youtube.com/watch?v=sTr1u7N8mSE
https://www.youtube.com/watch?v=5p0Hra2i35I
https://www.youtube.com/watch?v=BcBOyzxu6YA
https://www.youtube.com/watch?v=Uvq1IP2I-mQ
