https://kupdf.net/download/demotestfirenet-security-report-86_5b0466cde2b6f5b31f0e6896_pdf
http://blog.eslimasec.com/2010/12/glance-at-altoro-mutual.html
http://blog.dornea.nu/2013/05/06/hacking-altoro-mutual/
