https://rgolebiowski.blogspot.com/2016/06/goatse-linux-challenge.html
http://forelsec.blogspot.com/2013/04/goatse-linux.html
https://www.youtube.com/watch?v=8FTVkePldLQ
https://fdlucifer.github.io/2019-12-18-GoatseLinux-1
https://sharpforce.gitbook.io/cybersecurity/walkthroughs/damn-vulnerable-web-application/vulnhub/goatselinux-1
https://forelsec.blogspot.com/2013/04/goatse-linux.html
