https://www.hackingarticles.in/dc-2-walkthrough/
https://ethicalhackingguru.com/sickos-1-2-walkthrough-vulnhub-tutorials-oscp-like-vms/
https://s1gh.sh/vulnhub-dc-2/
https://hackingresources.com/dc-2-vulnhub-walkthrough/
https://www.sevenlayers.com/index.php/198-vulnhub-dc-2-walkthrough
https://pentesterjourney.com/2019/05/17/vulnhub-dc-2-walkthrough/
https://blog.mzfr.me/vulnhub-writeups/2019-07-12-DC2
https://latesthackingnews.com/2019/05/29/dc-2-hacking-challenge-walkthrough-vulnhub/
https://medium.com/@takshil.patil529/dc-2-vulnhub-walkthrough-627b1132683f
https://www.youtube.com/watch?v=PVHbl3c8kTI
https://www.youtube.com/watch?v=--LyZFVtXqk
https://www.youtube.com/watch?v=h9jFaEQC71M
https://www.youtube.com/watch?v=q2ycr59lSqY
