https://raw.githubusercontent.com/aishsingh/Equal/master/equal.c
https://raw.githubusercontent.com/BlakeBrown/HackerRank-Solutions/master/Algorithms/Dynamic%20Programming/Equal%20-%20O(n)%20greedy.cpp
https://raw.githubusercontent.com/HamidTheGeek/HackerRankSolutions/master/Solutions/Equal.cs
https://raw.githubusercontent.com/havelessbemore/hackerrank/master/algorithms/dynammic_programming/equal.java
https://raw.githubusercontent.com/srgnk/HackerRank/master/algorithms/equal.py
