https://github.com/skiptomyliu/solutions-bwapp#cross-site-request-forgery-change-password
https://www.youtube.com/watch?v=_VSgdSy_VSc
https://hackingplayground.com/cross-site-scripting-request-forgery-csrf/
https://www.vishalmishra.in/post/bypass-csrf-protection/
https://medium.com/@vishal_alt/bypass-cross-site-request-forgery-protection-b9b7f8ac37b6
http://www.hackingarticles.in/understanding-csrf-vulnerability-beginner-guide/
http://security-is-just-an-illusion.blogspot.com/2014/01/bwapp-cross-site-request-forgery-csrf.html
https://www.youtube.com/watch?v=UAQtCmSnztI
https://www.youtube.com/watch?v=B_d4v4brP0U
https://www.youtube.com/watch?v=PHfPAIilHX0
https://www.youtube.com/watch?v=MAa27JGgTlo
http://www.sec-art.net/2019/01/cross-site-request-forgery-bwapp-csrf.html
