64495327731887693539738558691066839103388567300449
48705091355238882778842909230056712140813460157899
595783130308726308508880384897327304778557520925123810965829994506487349838973098154390184798021051
