https://raw.githubusercontent.com/nayuki/Project-Euler-solutions/master/haskell/p130.hs
https://raw.githubusercontent.com/nayuki/Project-Euler-solutions/master/java/p130.java
https://raw.githubusercontent.com/nayuki/Project-Euler-solutions/master/python/p130.py
