https://raw.githubusercontent.com/Mitame/hackerrank-solutions/master/algorithms/warmup/compare-the-triplets.c
https://raw.githubusercontent.com/MaskRay/HackerRank/master/triplets.cc
https://raw.githubusercontent.com/sapanz/Hackerrank-Problem-Solving-Python-Solutions/master/HackerRank-Compare%20the%20Triplets/Compare_the_Triplets.py
https://raw.githubusercontent.com/JackHowa/hacker-rank-triplets/master/triplets.rb
