https://raw.githubusercontent.com/fernandoBRS/HackerRank/master/alien_language.cpp
https://raw.githubusercontent.com/deepan/hackerrank/master/20_20_Hack/alien_language.py
https://raw.githubusercontent.com/shengmin/coding-problem/master/hackerrank/alien-languages/Solution.scala
