https://raw.githubusercontent.com/sandk05/Lisa-s-Workbook/master/src/main.cpp
https://raw.githubusercontent.com/leeychee/hackerrank/master/practice/algorithms/implementation/lisa_workbook/main.go
https://raw.githubusercontent.com/charles-wangkai/hackerrank/master/lisa-workbook/Solution.java
https://raw.githubusercontent.com/gabrielgiordan/hackerrank/master/algorithms/implementation/lisa-workbook.js
https://raw.githubusercontent.com/dimoka777/Lisa-s-Workbook/master/workbook.py
https://raw.githubusercontent.com/raghav97/Hackerrank-Solutions/master/lisa_workbook.rb
