http://blog.abhishekg.com/2011/12/javascript-mission-1-idiot-test/
https://www.youtube.com/watch?v=LiYhGMgXi6U
http://sp4hack.blogspot.com.co/2012/09/hack-this-site-javascript-1.html
http://www.gensale.net/hts-javascript-level-1/
http://crackandsecure.blogspot.com.co/2011/05/hack-this-site-hts-javascript-1-idiot.html
https://raw.githubusercontent.com/attilathedud/HackThisSite/master/Javascript/README.md
https://raw.githubusercontent.com/DivyanshuSahu/HackThisSite/master/Javascript/README.md
https://raw.githubusercontent.com/m-jowett/hackthissite/master/javascript/1.md
https://www.youtube.com/watch?v=eV-7Z0GXjP0
