https://www.youtube.com/watch?v=zAIuVsXM7lw
https://www.youtube.com/watch?v=qgNeIy56zTI
http://sp4hack.blogspot.com/2012/09/hack-this-site-javascript-6.html
http://crackandsecure.blogspot.com/2011/07/hack-this-site-hts-go-go-go-away-js.html
http://www.gensale.net/hts-javascript-level-6/
https://blog.abhishekg.com/2011/12/javascript-mission-6-go-go-away-js/
https://bitbelle.wordpress.com/2018/01/10/hackthissite-javascript-mission-solutions/
https://github.com/divyanshusahu/HackThisSite/tree/master/Javascript#mission-6
