https://raw.githubusercontent.com/Alekseyya/Codeabbey/master/Task_59/Program.cs
https://raw.githubusercontent.com/igor-kutepov/codeabbey/master/src/main/java/com/kutepov/samples/codeabbey/BullsAndCows.java
https://raw.githubusercontent.com/McQuinTrix/CodeAbbey/master/59.%20Bulls_and_Cows.js
https://raw.githubusercontent.com/AndyCYao/codeabbey/master/CA_prob_59%20Bulls%20and%20Cows.py
https://gitlab.com/CodeArtisan/codeabbey/raw/master/problem_59/solution.rkt
https://raw.githubusercontent.com/mmcdon20/code_abbey/master/src/main/scala/Abbey059.scala
https://raw.githubusercontent.com/JesseClarkND/codeabbey_in_C-NET/master/Bulls%20and%20Cows
