https://raw.githubusercontent.com/0xHaT/hacking-challenges/master/root-me.org/web-hack/xpath/xpath-injection.txt
https://raw.githubusercontent.com/yelynn1/Root-me/master/Web_server.md
https://kid0604.github.io/ctf/2015/09/30/rootme-webserver-writeup.html
https://taind.wordpress.com/2018/01/07/root-me-xpath-injection-string/
https://rootable.tistory.com/entry/Rootme-XPath-injection-authentication
https://blog.silnex.kr/level-34root-me-xpath-injection-authentication/
https://github.com/yelynn1/Root-me/blob/master/Web_server.md#35
https://jeonyoungsin.tistory.com/179
