https://raw.githubusercontent.com/codejoydo/codeforces/master/4a.c
https://raw.githubusercontent.com/fuwutu/CodeForces/master/4A%20-%20Watermelon.cpp
https://raw.githubusercontent.com/yeicol/CodeForces/master/CF004AWatermelon.java
https://raw.githubusercontent.com/changyuheng/codeforces-solutions/master/4a.py
