https://raw.githubusercontent.com/StevenDunn/CodeEval/master/Testing/c/test.c
https://raw.githubusercontent.com/StevenDunn/CodeEval/master/Testing/cpp/test.cpp
https://raw.githubusercontent.com/SedaKunda/CodeEval/master/Easy-Level/Testing.java
https://raw.githubusercontent.com/mpillar/codeeval/master/0-easy/testing/main.py
