https://www.youtube.com/watch?v=-i4O_hjc87Y
https://net123.tistory.com/516
https://wooly6bear.files.wordpress.com/2016/01/bwapp-tutorial.pdf
https://kakyouim.hatenablog.com/entry/2020/02/04/215117#Local-Privilege-Escalation-udev
http://www.youknowi.xin/bwapp-security-misconfiguration/
https://www.turkhackteam.org/capture-flag/1841684-bwapp-cozumleri-anka-tim.html
https://metrolagu.eu.org/detail/2qcpIZBycek/%EC%9B%B9%ED%95%B4%ED%82%B9-74~75.-a5---bwapp-security-misconfiguration---local-privilege-escalation%28sendpage%26amp%3Budev%29
https://www.meetsec.cn/index.php/archives/30/
https://www.youtube.com/watch?v=2qcpIZBycek
