https://raw.githubusercontent.com/pastelito02/Challenges-sol/master/Programming/codewars/beginner-series-2-clock/overflowin.c
https://raw.githubusercontent.com/pastelito02/Challenges-sol/master/Programming/codewars/beginner-series-2-clock/2ScoopsCoops.cc
https://raw.githubusercontent.com/pastelito02/Challenges-sol/master/Programming/codewars/beginner-series-2-clock/SeanMathLee.clj
https://raw.githubusercontent.com/pastelito02/Challenges-sol/master/Programming/codewars/beginner-series-2-clock/nicm42.coffee
https://raw.githubusercontent.com/pastelito02/Challenges-sol/master/Programming/codewars/beginner-series-2-clock/2ScoopsCoops.cpp
https://raw.githubusercontent.com/pastelito02/Challenges-sol/master/Programming/codewars/beginner-series-2-clock/psmilliorn.cr
https://raw.githubusercontent.com/pastelito02/Challenges-sol/master/Programming/codewars/beginner-series-2-clock/McSimoff.cs
https://raw.githubusercontent.com/pastelito02/Challenges-sol/master/Programming/codewars/beginner-series-2-clock/lowhic.dart
https://raw.githubusercontent.com/pastelito02/Challenges-sol/master/Programming/codewars/beginner-series-2-clock/deviousdonut.ex
https://raw.githubusercontent.com/pastelito02/Challenges-sol/master/Programming/codewars/beginner-series-2-clock/deviousdonut.exs
https://raw.githubusercontent.com/pastelito02/Challenges-sol/master/Programming/codewars/beginner-series-2-clock/Goto10.fs
https://raw.githubusercontent.com/pastelito02/Challenges-sol/master/Programming/codewars/beginner-series-2-clock/strangelittlemonkey.go
https://raw.githubusercontent.com/pastelito02/Challenges-sol/master/Programming/codewars/beginner-series-2-clock/fjsitjar.groovy
https://raw.githubusercontent.com/pastelito02/Challenges-sol/master/Programming/codewars/beginner-series-2-clock/Unnamed.hs
https://raw.githubusercontent.com/pastelito02/Challenges-sol/master/Programming/codewars/beginner-series-2-clock/constnw.hx
https://raw.githubusercontent.com/pastelito02/Challenges-sol/master/Programming/codewars/beginner-series-2-clock/ecl1pse.java
https://raw.githubusercontent.com/pastelito02/Challenges-sol/master/Programming/codewars/beginner-series-2-clock/UlrichBerntien.jl
https://raw.githubusercontent.com/pastelito02/Challenges-sol/master/Programming/codewars/beginner-series-2-clock/brispo.js
https://raw.githubusercontent.com/pastelito02/Challenges-sol/master/Programming/codewars/beginner-series-2-clock/SunnyCasual.kt
https://raw.githubusercontent.com/pastelito02/Challenges-sol/master/Programming/codewars/beginner-series-2-clock/xdpikaboo.lua
https://raw.githubusercontent.com/pastelito02/Challenges-sol/master/Programming/codewars/beginner-series-2-clock/cloverchio.ml
https://raw.githubusercontent.com/pastelito02/Challenges-sol/master/Programming/codewars/beginner-series-2-clock/Knaque.nim
https://raw.githubusercontent.com/pastelito02/Challenges-sol/master/Programming/codewars/beginner-series-2-clock/EvilWolf.php
https://raw.githubusercontent.com/pastelito02/Challenges-sol/master/Programming/codewars/beginner-series-2-clock/brunjlar.pro
https://raw.githubusercontent.com/pastelito02/Challenges-sol/master/Programming/codewars/beginner-series-2-clock/jjbutton.purs
https://raw.githubusercontent.com/pastelito02/Challenges-sol/master/Programming/codewars/beginner-series-2-clock/tolstoy.py
https://raw.githubusercontent.com/pastelito02/Challenges-sol/master/Programming/codewars/beginner-series-2-clock/raevskinn.r
https://raw.githubusercontent.com/pastelito02/Challenges-sol/master/Programming/codewars/beginner-series-2-clock/Beast.rb
https://raw.githubusercontent.com/pastelito02/Challenges-sol/master/Programming/codewars/beginner-series-2-clock/Shanethegamer.re
https://raw.githubusercontent.com/pastelito02/Challenges-sol/master/Programming/codewars/beginner-series-2-clock/Gryff.rs
https://raw.githubusercontent.com/pastelito02/Challenges-sol/master/Programming/codewars/beginner-series-2-clock/Dianaata.scala
https://raw.githubusercontent.com/pastelito02/Challenges-sol/master/Programming/codewars/beginner-series-2-clock/jimstr.sh
https://raw.githubusercontent.com/pastelito02/Challenges-sol/master/Programming/codewars/beginner-series-2-clock/asenokosov.swift
https://raw.githubusercontent.com/pastelito02/Challenges-sol/master/Programming/codewars/beginner-series-2-clock/smoc.ts
https://raw.githubusercontent.com/pastelito02/Challenges-sol/master/Programming/codewars/beginner-series-2-clock/attheturnstiie.vb
