https://www.youtube.com/watch?v=pxOmZRhdZa8
https://www.youtube.com/watch?v=2ZxRA8BgmnA
https://0xrick.github.io/hack-the-box/carrier/
https://hackso.me/carrier-htb-walkthrough/
https://www.hackingarticles.in/hack-the-box-carrier-walkthrough/
https://snowscan.io/htb-writeup-carrier/#
https://www.boiteaklou.fr/HackTheBox-Carrier.html
https://medium.com/@S3c_Butch3r/hack-the-box-carrier-retired-walkthrough-baba66bc3b80
