https://www.youtube.com/watch?v=VVZZgqIyD0Q
https://www.youtube.com/watch?v=mTuHL0SHDVY
https://drive.google.com/file/d/1SgZSNPOKEAIbxENaUExWtZJsF8BjKeY3/view
https://www.absolomb.com/2018-02-24-HackTheBox-Mantis-Writeup/
https://medium.com/secjuice/hackthebox-mantis-writeup-9c2b50c4b30b
https://v3ded.github.io/ctf/htb-mantis.htm
http://www.hackingarticles.in/hack-the-box-challenge-mantis-walkthrough/
https://teckk2.github.io/writeup/2018/02/24/Mantis.html
https://www.linkedin.com/pulse/hack-box-challenge-mantis-walkthrough-raj-chandel
