https://0xrick.github.io/hack-the-box/lacasadepapel/
https://medium.com/@hussaini.faisal/hackthebox-writeup-lacasadepapel-2820857cd196
https://hackso.me/lacasadepapel-htb-walkthrough/
https://snowscan.io/htb-writeup-lacasa/
https://www.youtube.com/watch?v=OSRCEOQQJ4E
https://www.youtube.com/watch?v=eHx74rlKlxA
https://www.youtube.com/watch?v=ZpvaFXMFhDw
https://www.arnotic.com/2019/07/25/hack-the-box-write-up-la-casa-de-papel/
https://thehackingtutorials.com/hackthebox-lacasadepapel-walkthrough/
http://0x4242.net/log/2019-07-27_htb_lacasadepapel/
https://0x00sec.org/t/hackthebox-weekly-challenge-lacasadepapel/12679
https://www.sombrero-blanco.com/hack-the-box/hack-the-box-writeup-htb-access-spanish/
