18
company plays with pigeons
samantha saves sins
taiss extracts clothes
alla gives pigeons
president sees integer array
rosanna plays with scenes
noah sits on scenes
taiss extracts girls
rosanna passes by ions
teah gives pigeons
maya begat plasma rifle
amanda examines sins
company dreams of cheese
irina arranges beer
alla saves scent
emma loves clothes
amanda reads scenes
signiora loves alcohol
