https://raw.githubusercontent.com/RyanLafferty/CodeAbbey/master/p6.c
https://raw.githubusercontent.com/qiuxiafei/4clojure/master/answers/1.Nothing%20but%20the%20Truth.clj.clj
https://raw.githubusercontent.com/DionysiosB/CodeAbbey/master/InformationEntropy.cpp
https://raw.githubusercontent.com/skilled19/sols/master/harv/codeabbey-6-rounding.d
https://raw.githubusercontent.com/vinitkantrod/go-codeabbey/master/07_rounding/main.go
https://raw.githubusercontent.com/skilled19/sols/master/harv/codeabbey-6-rounding.jl
https://raw.githubusercontent.com/mpeshehonov/Codeabbey/master/practice/%236/index.php
https://raw.githubusercontent.com/MadcapJake/codeabbey-problems/master/perl6/rounding/rounding.pl
https://gitlab.com/CodeArtisan/codeabbey/raw/master/problem_6/solution.rkt
https://raw.githubusercontent.com/mmcdon20/code_abbey/master/src/main/scala/Abbey006.scala
https://raw.githubusercontent.com/skilled19/sols/master/harv/codeabbey-6-rounding.vb
