https://raw.githubusercontent.com/YetAnotherMinion/YAMScratch/master/CodeAbbey/c-sol/src/44.c
https://raw.githubusercontent.com/pastelito02/Challenges-sol/master/Programming/Codeabbey/044/gadygadi.cc
https://raw.githubusercontent.com/gravoo/codeabbey/master/Double%20Dice%20Roll%20.cpp
https://raw.githubusercontent.com/AleksandrSD/CodeAbbeyProblems/master/Problem44/Program.cs
https://raw.githubusercontent.com/pastelito02/Challenges-sol/master/Programming/Codeabbey/044/Ratzenfutz.d
https://raw.githubusercontent.com/pastelito02/Challenges-sol/master/Programming/Codeabbey/044/emmgame221.fs
https://raw.githubusercontent.com/Maximization/CodeAbbey/master/src/DoubleDiceRoll.java
https://raw.githubusercontent.com/pastelito02/Challenges-sol/master/Programming/Codeabbey/044/thisismyname.js
https://raw.githubusercontent.com/pastelito02/Challenges-sol/master/Programming/Codeabbey/044/Daraysen.lisp
https://raw.githubusercontent.com/pastelito02/Challenges-sol/master/Programming/Codeabbey/044/ayy_luamao.lua
https://raw.githubusercontent.com/pastelito02/Challenges-sol/master/Programming/Codeabbey/044/vsmihaylovsky.php
https://raw.githubusercontent.com/pastelito02/Challenges-sol/master/Programming/Codeabbey/044/pearl_barley.pl
https://raw.githubusercontent.com/rouxbuciu/Code-Challenges/master/codeabbey.com/double%20dice%20roll.py
https://raw.githubusercontent.com/pastelito02/Challenges-sol/master/Programming/Codeabbey/044/annettes.rb
https://raw.githubusercontent.com/mmcdon20/code_abbey/master/src/main/scala/Abbey044.scala
https://raw.githubusercontent.com/pastelito02/Challenges-sol/master/Programming/Codeabbey/044/Genek_proger.vb
https://raw.githubusercontent.com/JesseClarkND/codeabbey_in_C-NET/master/Double%20Dice%20Roll
