https://raw.githubusercontent.com/Aadeshp/Codeeval-Solutions/master/Medium/Pangrams.java
https://raw.githubusercontent.com/pascal-bourut/codeeval-challenges/master/moderate/37%20-%20Pangrams/37.js
https://raw.githubusercontent.com/pascal-bourut/codeeval-challenges/master/moderate/37%20-%20Pangrams/37.php
https://raw.githubusercontent.com/elbuo8/codeEval/master/Pangrams.py
