http://www.fuzzysecurity.com/tutorials/4.html
https://github.com/sheimo/DVWA-Answers#xss-stored-low
https://redinfocol.org/dvwa-conociendo-y-explotando-diferentes-vulnerabilidades-level-low/
http://www.tapost.org/wp-content/uploads/2016/10/3_s2_t3_1_Aigars-Naglis_Alise-Silde-LV.pdf
http://www.hackingmonks.net/2017/01/cross-site-scripting-xss-3-xss-stored.html
https://www.youtube.com/watch?v=AOjyvm-jES4
https://drive.google.com/open?id=13SiDZDODjcolIWQmEnYJ0Lsf1KMt6WQ3
https://drive.google.com/open?id=1sBUiJ0NkeKdgmKw_gfQswWm_RcV7y2Hr
https://drive.google.com/open?id=10NKsEKgBCBQGt47QiffH9IYszo4v4yEI
https://raw.githubusercontent.com/sheimo/DVWA-Answers/master/README.md
https://raw.githubusercontent.com/keewenaw/dvwa-guide-2019/master/low/Challenge%2012%3A%20XSS%20(Stored).md
https://lepouvoirclapratique.com/blog/wp-content/uploads/2018/01/UE_Cybersecurite-TP_DVWA_v0.6.pdf#20
