https://www.youtube.com/watch?v=jxdC234vzLY
https://medium.com/secttp/overthewire-bandit-level-27-41b35918d637
https://medium.com/@coturnix97/overthewires-bandit-27-28-d3b2e423c129
https://www.jonyschats.nl/writeups/bandit-level-27-to-28/
https://burakb.net/walkthroughs/overthewire-bandit-level-27-level-28/
https://miles-smith.info/2019/03/06/over-the-wire-bandit-27-28/
https://int3rsys.github.io/Bandit27-34/
