https://raw.githubusercontent.com/mzet-/ctf-writeups/master/DVWA/dvwa-low.md
https://raw.githubusercontent.com/mzet-/ctf-writeups/master/DVWA/dvwa-medium.md
https://blog.g0tmi1k.com/dvwa/bruteforce-low/
https://www.information-security.fr/en/dvwa-brute-force-command-execution-solutions-protections/
https://github.com/sysorem/dvwa-write-up#security-level--low
https://github.com/sysorem/dvwa-write-up#security-level--medium
https://youtu.be/6H3nb7rwpvc
https://www.information-security.fr/dvwa-brute-force-command-execution-solutions-protections/
https://docs.google.com/document/d/1p_upZeEsFu-lg-WpzU75TZNsPLH_yrHPynxSX98SbEM/edit
https://drive.google.com/open?id=1IwJ3uDdEvBcXWgkQpWeUvUDFTX2xJ8f9
https://raw.githubusercontent.com/keewenaw/dvwa-guide-2019/master/low/Challenge%2001%3A%20Brute%20Force.md
https://chousensha.github.io/blog/2014/08/08/pentest-lab-damn-vulnerable-web-application/
https://lepouvoirclapratique.com/blog/wp-content/uploads/2018/01/UE_Cybersecurite-TP_DVWA_v0.6.pdf#17
https://www.youtube.com/watch?v=G3UlKUX87tE
https://www.youtube.com/watch?v=80B3l9TgrNY
https://www.youtube.com/watch?v=bmphk1QbkOM