https://raw.githubusercontent.com/coderbond007/Hackerrank-Algorithms-Problem-Solutions/master/warmup/Plus%20Minus.c
https://raw.githubusercontent.com/MaskRay/HackerRank/master/plus-minus.clj
https://raw.githubusercontent.com/danhenriquesc/hackerrank/master/algorithms/warmup/plus_minus.cpp
https://raw.githubusercontent.com/RyanFehr/HackerRank/master/Algorithms/Warmup/Plus%20Minus/Solution.cs
https://raw.githubusercontent.com/rishabh1403/hackerrank-golang-solutions/master/practice/algorithms/warmup/plus-minus.go
https://raw.githubusercontent.com/yanz67/HackerRank/master/Algorithms/Warmup/PlusMinus.java
https://raw.githubusercontent.com/PaulNoth/hackerrank/master/practice/algorithms/warmup/plus_minus/PlusMinus.js
https://raw.githubusercontent.com/Amos94/-HackerRank-Python-Plus-Minus/master/solution.py
https://raw.githubusercontent.com/marioluan/hacker-rank-solved-problems/master/algorithms/warmup/plus-minus.rb
https://raw.githubusercontent.com/PaulNoth/hackerrank/master/practice/algorithms/warmup/plus_minus/PlusMinus.scala
https://raw.githubusercontent.com/rajibsingh/hackerrank-swift/master/plus-minus.swift
https://raw.githubusercontent.com/EngineerWebDeveloper/Plus-Minus-/master/Solution
