https://gist.githubusercontent.com/WickedSs/4fd4c26645697e565d759fa924e9668c/raw/36a7106e771022c1fb3dd8a5629d58defff44c53/Pixel-Madness.py
https://raw.githubusercontent.com/RomaniukVadim/wargaming-challenges/master/RootMe/cryptoanalysis/pixel_madnes.txt
https://blog.encrypted.gg/744
https://zhiliudi.blogspot.com/2017/01/root-me-pixel-madness.html
https://blog.1gb.ua/kodyrovky-shyfr-sdvyga-brut-heshej-y-sozdanye-kartynky-s-pomoshhyu-pil-python-reshenye-zadach-s-r0ot-mi-cryto-chast-1/
https://tgraph.io/CTF-Kurs-molodogo-bojca-Nachalnye-zadaniya-kategorii-Crypto-3-09-25
https://whitesnake1004.tistory.com/362
https://ufolabs.net/threads/ctf-kury-dlja-nachinajuschix-zadanie-kategorii-crypto-3.6168/
https://3-info.ru/post.php?post=4257
