https://raw.githubusercontent.com/Samleo8/CoderByte/master/Easy/CheckNums.c
https://raw.githubusercontent.com/juliabarboza/CheckNums/master/code.cs
https://raw.githubusercontent.com/Nigelmnz/CoderbyteSolutions/master/08-CheckNums/8.hs
https://raw.githubusercontent.com/ZLester/Coderbyte-Solutions/master/Easy/08%20-%20Check%20Nums.js
https://raw.githubusercontent.com/brianchangdev/Coder-Byte-Check-Nums/master/README.md
https://raw.githubusercontent.com/copacubanana/phpCoderbyteEasy/master/08checknums.php
https://raw.githubusercontent.com/brbcoding/Coderbyte/master/Easy/CheckNums.rb
