https://www.youtube.com/watch?v=UuS2Q5APdls
https://www.youtube.com/watch?v=Qhbhu2dqkeU
https://www.youtube.com/watch?v=KWcckqnUGo8
https://www.youtube.com/watch?v=acPDkoh9e-Y
https://www.youtube.com/watch?v=jcp5t8PsMsY
https://harpreetsinghpassi.wordpress.com/2016/07/31/injection-attacks-part-2/
https://www.youtube.com/watch?v=Lwf0C7Ba_2U
https://www.youtube.com/watch?v=g1TzPBO4ld8
https://www.youtube.com/watch?v=93uciX4eUbQ
https://github.com/theand-fork/bwapp-code/blob/master/bWAPP/clickjacking.php
https://kali.tools/?p=2330
http://47.98.146.200/index.php/archives/42/
https://es.scribd.com/document/346770715/bwapp-tutorial-pdf
https://www.jianshu.com/p/7188c111b669
https://cloud.tencent.com/developer/news/347781
https://net123.tistory.com/507
