https://raw.githubusercontent.com/Hamza-Megahed/CTFs/master/d0not5top/README
https://adaywithtape.blogspot.com/2017/04/vulnhub-d0not5top-writeup.html
https://www.rootnetsec.com/vulnhub-d0not5top/
https://www.elasticice.net/?p=32
https://raw.githubusercontent.com/Mzack9999/CTFs/master/D0Not5top/README.md
https://www.youtube.com/watch?v=uNOGdufSyxI
https://www.youtube.com/watch?v=YgrzppdaIgk
https://www.youtube.com/watch?v=p_WeWVws2B8
https://www.hackingarticles.in/hack-d0not5top-vm-ctf-challenge/
