https://www.youtube.com/watch?v=YHHWvXBfwQ8
https://medium.com/bugbountywriteup/jarvis-hackthebox-writeup-7341a4d2517a
https://medium.com/@hussaini.faisal/hackthebox-writeup-jarvis-bb5c403befc8
https://0xrick.github.io/hack-the-box/jarvis/
https://snowscan.io/htb-writeup-jarvis/
https://resources.infosecinstitute.com/hack-the-box-htb-walkthrough-jarvis/#gref
https://raw.githubusercontent.com/chiseng/HTB-Writeups/master/jarvis/README.md
https://www.womencanhack.com/jarvis
https://hackso.me/jarvis-htb-walkthrough/
https://securityboulevard.com/2019/12/hack-the-box-htb-machines-walkthrough-series-jarvis/
https://blog.barradell-johns.com/index.php/2020/02/11/htb-jarvis/
https://www.hackingarticles.in/hack-the-box-jarvis-walkthrough/
