https://raw.githubusercontent.com/m3ssap0/CTF-Writeups/master/RITSEC%20CTF%202019/Buckets%20of%20fun/README.md
https://medium.com/bugbountywriteup/ritsec-ctf-2019-fde3fead6ee1
https://zettabytenepal.blogspot.com/2019/11/ritsec-ctf-2019-writeups-buckets-of-fun.html
https://medium.com/@nic.christin/ritsec-ctf-2019-a94a400c042a#699f
https://sp0il3rs.github.io/write-ups/#buckets
