https://raw.githubusercontent.com/phuclevinh2000/CodeAbbey/master/Triangles.c
https://raw.githubusercontent.com/gravoo/codeabbey/master/Triangles%20.cpp
https://raw.githubusercontent.com/Tempurturtul/CodeAbbey/master/C%23/Triangles.cs
https://raw.githubusercontent.com/vinitkantrod/go-codeabbey/master/17_triangles/main.go
https://raw.githubusercontent.com/skilled19/sols/master/harv/codeabbey-9-triangles.hs
https://raw.githubusercontent.com/bkawan/codeabbey_python/master/problem-9.ipynb
https://raw.githubusercontent.com/meganroche/CodeAbbeySolutions/master/Java/Triangles.java
https://raw.githubusercontent.com/skilled19/sols/master/harv/codeabbey-9-triangles.jl
https://raw.githubusercontent.com/DylanLenz/codeAbbey_Solutions_JavaScript/master/triangles_codeAbbey_9.js
https://raw.githubusercontent.com/chriswood/codeabbey/master/caid9.lisp
https://raw.githubusercontent.com/skilled19/sols/master/harv/codeabbey-9-triangles.ml
https://raw.githubusercontent.com/mpeshehonov/Codeabbey/master/practice/%239/index.php
https://raw.githubusercontent.com/svaughnlewis/code-abbey-solutions/master/codeAbbey009_vowel_count.py
https://raw.githubusercontent.com/John-Russell/CodeAbbey/master/Triangles.rb
https://gitlab.com/CodeArtisan/codeabbey/raw/master/problem_9/solution.rkt
https://raw.githubusercontent.com/YetAnotherMinion/YAMScratch/master/CodeAbbey/rust-sol/src/9.rs
https://raw.githubusercontent.com/mmcdon20/code_abbey/master/src/main/scala/Abbey009.scala
https://raw.githubusercontent.com/skilled19/sols/master/harv/codeabbey-9-triangles.vb
