https://raw.githubusercontent.com/charles-wangkai/hackerrank/master/jumping-on-the-clouds-revisited/Solution.java
https://raw.githubusercontent.com/gabrielgiordan/hackerrank/master/algorithms/implementation/jumping-on-the-clouds-revisited.js
https://raw.githubusercontent.com/danhenriquesc/hackerrank/master/algorithms/implementation/jumping_on_the_clouds_revisited.py
https://raw.githubusercontent.com/raghav97/Hackerrank-Solutions/master/jumping_on_the_clouds_revisited.rb
https://raw.githubusercontent.com/witekbobrowski/HackerRank/master/Algorithms/Implementation/jumping-on-the-clouds-revisited.swift
