https://raw.githubusercontent.com/Gamer1092/Coderbyte-Medium/Medium/Permutation%20Step.cpp
https://raw.githubusercontent.com/ZLester/Coderbyte-Solutions/master/Medium/16%20-%20Permutation%20Step.js
https://raw.githubusercontent.com/bolducp/coderbyte/master/medium/16_permutation_step.py
https://raw.githubusercontent.com/designerGenes/CoderbyteInSwift/master/PermutationStep/PermutationStep.playground/Contents.swift
