https://raw.githubusercontent.com/appsecco/dvna/master/docs/solution/a1-injection.md
https://www.youtube.com/watch?v=qzE07kZ6CHk
https://www.youtube.com/watch?v=HLyKw7MnghE
https://www.youtube.com/watch?v=ciNHn38EyRc
https://www.youtube.com/watch?v=SJgYdTckMBY&t=4s
https://www.youtube.com/watch?v=oQOpyA72OT0&t=44s
https://www.youtube.com/watch?v=h-9rHTLHJTY&t=5s
https://www.youtube.com/watch?v=j_pg--XmVGU
https://www.youtube.com/watch?v=3ZFblGx5v94&t=5s
https://www.youtube.com/watch?v=rapaRJDO3vA
https://www.youtube.com/watch?v=iWq9i9nvomE&t=1s
https://www.youtube.com/watch?v=lMG5_SP61t8
https://www.youtube.com/watch?v=lJ5Z_OabZ_8
https://www.youtube.com/watch?v=xeAQFbXDDA8
https://www.youtube.com/watch?v=wzNqX9uZWmY
https://www.youtube.com/watch?v=9I5fLjbArf4
https://www.youtube.com/watch?v=WFFQw01EYHM&t=1s
https://www.youtube.com/watch?v=VeZcvTQeH48
https://www.youtube.com/watch?v=PB7hWlqTSqs&t=8s
https://www.youtube.com/watch?v=wKxYUYb1pQ4
https://www.youtube.com/watch?v=5zlzdQe7nig
https://computersecuritystudent.com/SECURITY_TOOLS/DVWA/DVWAv107/lesson6/index.html
https://computersecuritystudent.com/SECURITY_TOOLS/DVWA/DVWAv107/lesson7/index.html
https://computersecuritystudent.com/SECURITY_TOOLS/DVWA/DVWAv107/lesson15/index.html
https://appsecco.com/books/dvna-developers-security-guide/solution/a1-injection.html#sql-injection
https://raw.githubusercontent.com/swisskyrepo/PayloadsAllTheThings/master/SQL%20Injection/SQLite%20Injection.md
https://www.youtube.com/watch?v=q2EkWm9kfKE
https://www.youtube.com/watch?v=GLvrieLufTA
https://www.youtube.com/watch?v=KmbMtiOfTnQ
https://www.youtube.com/watch?v=P8Lh6zfBSKA
https://www.youtube.com/watch?v=hnVcLXuogDg
https://www.youtube.com/watch?v=g-s-tBeBxYc
https://www.youtube.com/watch?v=I5nrCCL4LIc
https://www.youtube.com/watch?v=ou5a1kzyrZA
https://www.youtube.com/watch?v=F4tXa0tmTKo
https://code610.blogspot.com/2019/10/testing-dvna.html
https://appsecco.com/books/owasp-2017-dvna-attacks/sql-injection.html
https://www.cnblogs.com/hack404/p/10386938.html
https://hackingprofessional.github.io/Security/Como-realizar-una-inyeccion-SQL-OWASP-I/
https://blog.csdn.net/weixin_30781775/article/details/97314487
https://www.bbsmax.com/A/GBJrN6nBJ0/
