https://raw.githubusercontent.com/nayuki/Project-Euler-solutions/master/haskell/p085.hs
https://raw.githubusercontent.com/nayuki/Project-Euler-solutions/master/java/p085.java
https://raw.githubusercontent.com/nayuki/Project-Euler-solutions/master/python/p085.py
https://raw.githubusercontent.com/sile/euler.rs/master/euler_03/src/problem085.rs
