https://www.hackingarticles.in/evm-1-vulnhub-walkthrough/
https://www.hacknos.com/evm-1-walkthrough-vulnhub-ctf/
https://ischizo.com/write-up-evm1-vulnhub/
https://medium.com/@andr3w_hilton/evm-vulnhub-com-6dd755ea38fb
https://www.reddit.com/r/HowToHack/comments/ea5n5z/evm_1_vulnhub_curiosity/
