https://www.hackingarticles.in/hack-the-box-giddy-walkthrough/
https://0xrick.github.io/hack-the-box/giddy/
https://www.secjuice.com/giddy-write-up-hackthebox/
https://snowscan.io/htb-writeup-giddy/
https://hackso.me/giddy-htb-walkthrough/
https://www.youtube.com/watch?v=J2unwbMQvUo
https://epi052.gitlab.io/notes-to-self/blog/2019-02-09-hack-the-box-giddy/
https://0xdf.gitlab.io/2019/02/16/htb-giddy.html
https://offsecdeer.gitlab.io/post/htb-writeup-giddy/
https://blog.initd.sh/walkthrough/hackthebox/giddy-hack-the-box/
https://hipotermia.pw/htb/giddy
