19
883562675 1476503451 210270227
389592697 1491395942 351641023
827236808 1017970041 319225891
103733785 1291512269 343269737
854128200 1440053315 252378541
680367645 1060080571 252604243
977703611 1092196659 398481443
940704703 1402945764 318965893
701260543 1868658794 210372737
437743470 1933225697 343096711
113996591 1686978326 327932201
184249661 1056978417 224568143
801536063 1265387623 236390621
325949711 1137120690 180242243
229385236 1837444715 327582529
898719150 1632352114 306875467
135997626 1917219353 327732571
104158145 1788324812 224622859
370811332 1599240209 168780167
