https://github.com/skiptomyliu/solutions-bwapp#directory-traversal---directories
https://youtu.be/ssuSW9bIoHY
https://medium.com/vulnerables/bwapp-directory-traversal-attack-medium-level-1cc7b8593624
https://hydrasky.com/network-security/directory-traversal-attacks/
https://www.youtube.com/watch?v=FtOsxFpibJY
https://www.youtube.com/watch?v=k_F41Mm6B34
https://wooly6bear.files.wordpress.com/2016/01/bwapp-tutorial.pdf
https://www.youtube.com/watch?v=T-orO2WlUsg
https://www.youtube.com/watch?v=Z8M9uaGF8dI
