https://raw.githubusercontent.com/phuclevinh2000/CodeAbbey/master/Bubble%20in%20Array.c
https://raw.githubusercontent.com/gravoo/codeabbey/master/Bubble%20in%20Array%20.cpp
https://raw.githubusercontent.com/pastelito02/Challenges-sol/master/Programming/Codeabbey/023/slayfer1112.cr
https://raw.githubusercontent.com/aschutgh/CodeAbbey/master/ProblemN23BubbleInArray/Program.cs
https://raw.githubusercontent.com/pastelito02/Challenges-sol/master/Programming/Codeabbey/023/Ratzenfutz.d
https://raw.githubusercontent.com/javilag/codeAbbeyChalls/master/Challs/Go/023.go
https://raw.githubusercontent.com/pastelito02/Challenges-sol/master/Programming/Codeabbey/023/Haskeller.hs
https://raw.githubusercontent.com/JFMurphy/Codeabbey-solutions/master/Java/P023_BubbleInArray.java
https://raw.githubusercontent.com/pastelito02/Challenges-sol/master/Programming/Codeabbey/023/kittyaurel.jl
https://raw.githubusercontent.com/McQuinTrix/CodeAbbey/master/23.%20Bubble_In_Array.js
https://raw.githubusercontent.com/pastelito02/Challenges-sol/master/Programming/Codeabbey/023/gerhardt_funk.lisp
https://raw.githubusercontent.com/pastelito02/Challenges-sol/master/Programming/Codeabbey/023/dalvarez.lua
https://raw.githubusercontent.com/pastelito02/Challenges-sol/master/Programming/Codeabbey/023/stefan.schmiedl.ml
https://raw.githubusercontent.com/mpeshehonov/Codeabbey/master/practice/%2323/index.php
https://raw.githubusercontent.com/pastelito02/Challenges-sol/master/Programming/Codeabbey/023/pearl_barley.pl
https://raw.githubusercontent.com/vinitkantrod/codeabbey-Solutions-in-Python/master/23_bubble_sort.py
https://raw.githubusercontent.com/pastelito02/Challenges-sol/master/Programming/Codeabbey/023/simonmurray.rb
https://raw.githubusercontent.com/mmcdon20/code_abbey/master/src/main/scala/Abbey023.scala
https://raw.githubusercontent.com/pastelito02/Challenges-sol/master/Programming/Codeabbey/023/champagnepapi.vb
https://raw.githubusercontent.com/JesseClarkND/codeabbey_in_C-NET/master/Bubble%20in%20Array
