https://raw.githubusercontent.com/rrylee/HackerRank-Solution/master/Algorithm/Implementation/14-extra-long-factorials.c
https://raw.githubusercontent.com/alexprut/HackerRank/master/Algorithms/Implementation/Extra%20Long%20Factorials/Solution.cpp
https://raw.githubusercontent.com/HamidTheGeek/HackerRankSolutions/master/Solutions/ExtraLongFactorials.cs
https://raw.githubusercontent.com/charles-wangkai/hackerrank/master/extra-long-factorials/Solution.java
https://raw.githubusercontent.com/qriklix/hackerrank/master/algorithms/02-implementation/30-extra-long-factorials.js
https://raw.githubusercontent.com/rrylee/HackerRank-Solution/master/Algorithm/Implementation/14-extra-long-factorials.php
https://raw.githubusercontent.com/danhenriquesc/hackerrank/master/algorithms/implementation/extra_long_factorials.py
https://raw.githubusercontent.com/raghav97/Hackerrank-Solutions/master/extra_long_factorials.rb
https://raw.githubusercontent.com/witekbobrowski/HackerRank/master/Algorithms/Implementation/extra-long-factorials.swift
