https://www.youtube.com/watch?v=oOtJEJvSkoU
https://www.youtube.com/watch?v=icKid4zhl4I
https://www.youtube.com/watch?v=4XDoB0WiTP4
https://www.youtube.com/watch?v=-nuOdtulOp8
https://www.youtube.com/watch?v=epOF_WLEHpY
https://www.youtube.com/watch?v=_-qjMouqoS8
https://www.youtube.com/watch?v=-GzS2bjtl_w
https://www.youtube.com/watch?v=oSvl1cdF4UM
https://www.youtube.com/watch?v=nqFzab1si8g
https://www.youtube.com/watch?v=PGluCAb2dok
https://www.youtube.com/watch?v=wIW365GpNG0
https://www.youtube.com/watch?v=icKid4zhl4I&list=PLrHVSJmDPvlqxCfBhPuksHdpViPyeZTsF&index=27
https://trello.com/c/qJY5u8cV/11-csrf
https://www.nullings.xyz/index.php/2019/02/23/csrf-token-bypass-walkthrough-webgoat-7-1/
https://github.com/WebGoat/WebGoat/wiki/(Almost)-Fully-Documented-Solution-(en)#cross-site-request-forgeries
