http://wxzwhubuntu.club:8088/index.php/2017/08/30/solveme-kr/
https://pengyang.me/2018/10/12/solveme/
https://forum.90sec.com/t/topic/29
https://skysec.top/2018/03/15/solveme-peng-kr-web/
http://shaobaobaoer.cn/archives/634/solveme.peng.kr
https://blog.szfszf.top/tech/solve-me-writeup/
