https://www.hackingarticles.in/hack-the-box-mischief-walkthrough/
https://www.youtube.com/watch?v=WCGoo0WsTm4
https://medium.com/@ajdumanhug/hackthebox-mischief-write-up-9066d5c8020
https://medium.com/@TheShahzada/hackthebox-mischief-writeup-b8de136d48b
https://snowscan.io/htb-writeup-mischief/
https://0x23b.github.io/posts/hackthebox/2019-01-05-htb-mischief-writeup/
https://www.peerlyst.com/posts/mischief-hackthebox-write-up-elyes-chemengui-1
https://0xdf.gitlab.io/2019/01/08/htb-mischief-more-root.html
https://0xdf.gitlab.io/2019/01/05/htb-mischief.html
https://epi052.gitlab.io/notes-to-self/blog/2018-11-24-hack-the-box-mischief/
https://technicalciso.com/htb-write-up-mischief/
https://snovvcrash.rocks/2019/04/05/htb-mischief.html
https://hackedthebox.wordpress.com/htb-mischief/
https://hackso.me/mischief-htb-walkthrough/
