https://raw.githubusercontent.com/katox/4clojure-solutions/master/src/foreclojure_solutions/core.clj
https://raw.githubusercontent.com/ozan/solutions/master/4clojure/077-anagrams.hs
https://raw.githubusercontent.com/ozan/solutions/master/4clojure/077-anagrams.js
