https://zhiliudi.blogspot.com/2017/01/root-me-shift-cipher.html
https://raw.githubusercontent.com/RomaniukVadim/wargaming-challenges/master/RootMe/cryptoanalysis/shift_cipher.txt
https://raw.githubusercontent.com/zyjsuper/root-me-4/master/Cryptanalysis/Shift-cipher
https://blog.encrypted.gg/743
https://narutokudo.wordpress.com/2016/06/13/root-me/
https://mandu-mandu.tistory.com/227?category=733903
