https://github.com/BirkhoffLee/wechall/tree/master/exploit/Training%20ASCII
https://raw.githubusercontent.com/mzet-/ctf-writeups/master/wechall.net/wechall.md
https://medium.com/@igevi/wechall-training-score-1-write-ups-8229de54347b
