https://computersecuritystudent.com/SECURITY_TOOLS/DVWA/DVWAv107/lesson13/index.html
https://pentestlab.blog/2012/12/06/scanning-web-servers-with-nikto/
https://www.youtube.com/watch?v=GH9qn_DBzCk
https://www.youtube.com/watch?v=pA_kTQSNthk
https://www.youtube.com/watch?v=sN6RU3j6f2g
https://www.youtube.com/watch?v=lCfWYIO0pdU
