https://raw.githubusercontent.com/mpillar/codeeval/master/2-hard/commuting-engineer/main.cpp
https://raw.githubusercontent.com/mpillar/codeeval/master/2-hard/commuting-engineer/CommutingEngineer.java
https://raw.githubusercontent.com/mpillar/codeeval/master/2-hard/commuting-engineer/main.py
