https://cysecguide.blogspot.com/2017/12/root-me-write-up-perl-command-injection.html
https://raw.githubusercontent.com/Vinnyz/Root-me-challenge-App-Script/master/Perl%20-%20Command%20injection
https://www.cnblogs.com/heycomputer/articles/10609316.html
https://hackinblood.com/command-injection-root-me/
