https://medium.com/egghunter/wakanda-1-vulnhub-walkthrough-3d524ed8a372
https://www.peerlyst.com/posts/how-to-break-into-wakanda-machine-writeup-spirited-wolf
https://latesthackingnews.com/2018/08/21/wakanda-1-vulnhub-ctf-challenge-walkthrough/
https://www.youtube.com/watch?v=O7vaV8YjuWY
https://www.youtube.com/watch?v=uEK75alSz-8
https://www.youtube.com/watch?v=iiimeROlNzQ
https://lops3g.wordpress.com/2018/11/07/wakanda-walk-through-vulnhub/
https://www.hackingarticles.in/hack-the-wakanda-1-ctf-challenge/
https://outsideavenger.blogspot.com/2018/08/wakanda-1-vulnhub-ctf-challenge.html
https://www.youtube.com/watch?v=LQGDbIJwYh8
https://www.rootnetsec.com/vulnhub-wakanda/
https://delosec.com/vulnhub-wakanda-writeup/
https://resources.infosecinstitute.com/wakanda1-ctf-walkthrough/
https://blog.barradell-johns.com/index.php/2018/08/25/wakanda-one-writeup/
https://www.icekam.com/post/wakanda-1-vulnhub-ctf-drone-exercise-record/
https://www.itsecuritynews.info/wakanda-1-vulnhub-ctf-challenge-walkthrough/
