https://download.vulnhub.com/media/thelibrary/The-Library-Avraham-Cohen.pdf
https://www.hackingarticles.in/the-library1-vulnhub-walkthrough/
https://medium.com/@liddell.erik/hacking-the-library1-1a1712016a12
https://www.sevenlayers.com/index.php/222-vulnhub-the-library-1-walkthrough
