30
0 -84 +71 -89 +74 -37 +62 -20 -86 -81 -15 +25 -45 -49 +18 -54 +55 -12 -60 -30 -35 -88 +74 +20 +17 -25 +66 +21 +88 +25
+24 +73 +56 +68 -43 +60 +72 -23 -72 -86 -54 +37 +31 -65 -34 -29 -77 -60 -83 +68 +30 +82 -21 -88 -57 +53 +14 -48 -14 +47
+74 -43 +47 -48 -82 -79 +64 +21 -56 -86 +78 +60 -42 -37 -88 +64 +41 +40 +69 +48 -48 -83 +90 -70 -81 +1 +43 +14 -74 +87
+60 -82 +84 +53 +74 -48 +43 +29 -81 -29 +76 +1 -62 +36 +64 -86 +64 +60 +71 -38 +39 -31 -79 +69 -60 -67 +70 +54 +77 -28
-60 -49 +72 +84 -35 -74 +70 -15 -29 +51 +18 -18 +37 +65 -42 +50 -81 -88 -48 -56 -32 +77 -29 +72 -77 +88 -88 -65 -86 +56
+73 -39 -86 -68 +5 +48 +83 +86 -61 -79 -57 -1 +34 -77 -82 -41 +62 -76 -66 +53 +65 +86 +67 -73 -59 +82 +34 +43 +46 -21
-14 +81 -61 -5 -23 -27 -5 -30 +68 +69 -47 +51 +53 -68 +74 +41 -62 +36 +60 +57 -55 -60 +18 -60 -15 +37 +24 +32 -88 -82
-36 -70 -68 -74 -88 +85 +77 -35 +48 -85 +15 +84 -55 -68 -50 +35 +81 -46 -79 +41 +81 +59 -74 +56 +64 +76 -40 +70 +57 +54
-60 -71 +53 -81 -48 +17 -60 +57 +18 +81 -79 +62 +84 +88 +65 +20 -38 +56 -75 -36 +75 +15 -47 -46 -86 +86 +36 +30 +49 -68
-10 -68 +18 +52 +77 +88 -24 +60 +47 +88 +47 +56 +25 -74 +34 +86 -71 +46 +72 -55 -87 -75 +12 -35 +77 -68 +81 -88 +46 -59
-36 +55 +74 -75 -54 -68 -82 +59 -1 -18 +78 -25 -86 +57 +55 -62 +10 +65 +82 +68 +52 +50 +17 -1 +74 +32 -77 -72 +12 +59
-17 -85 +51 +32 -85 -14 +45 -69 +64 -66 +58 -82 +15 +88 -80 +74 -48 +65 +86 -81 +77 +76 -80 -64 -36 +24 -67 +55 +8 +64
+68 +20 +32 -1 +48 +73 +81 -5 +89 -90 +40 +61 +55 +82 +89 -56 +29 -24 +68 -12 -45 +72 +57 -50 -52 +23 +60 +38 -36 -42
-38 -71 -86 -82 +89 -90 -40 +79 +65 -56 -70 +83 -55 -49 +43 +8 +74 -48 +55 +73 -43 -1 +31 +42 +20 +25 +39 +60 +50 -75
-45 -59 -24 +76 -45 +43 -15 -37 +41 -34 -31 -75 +72 +90 +86 +46 +82 +75 -61 -61 -60 -77 -54 +76 -27 +15 +39 +57 -52 -83
-65 -25 +88 -40 +70 -50 -72 +60 +15 -24 -68 +45 +60 -59 -60 -58 -39 -53 -14 +29 +42 -42 +21 +79 +60 -65 +37 +38 +39 -84
+52 +29 -39 +39 +50 +30 +25 +88 +65 +73 -89 -69 +24 -59 -70 +35 +86 +15 -1 -89 +86 +59 +73 -84 -84 -51 +65 -43 +45 +63
-58 +42 +23 +89 -84 -72 +49 +78 +1 -12 +88 -76 -64 -38 +84 -79 -67 -25 +74 -27 -73 -86 -12 +65 -23 +81 +65 -87 +72 +82
+70 +84 +86 -48 +79 -65 -24 -79 -24 +45 +58 -20 -38 +18 -35 -89 -81 +74 +51 +71 +76 +87 -61 +25 -72 +48 -40 +77 -29 +5
+89 -73 +14 +64 -82 +43 -71 +14 -65 +71 -77 -82 +79 +73 +76 -82 -64 -68 -37 +83 -68 +17 +18 +63 -58 -79 -41 +67 +90 -50
-21 +25 -39 -41 -55 +66 +1 -5 +35 -89 -14 -79 -86 +44 +63 -83 -82 +83 -77 +5 -89 +1 +63 -82 +48 -82 -88 -84 +82 -14
-81 +25 -12 -48 +76 +55 +87 -57 -83 +27 +76 -83 -85 +83 +88 +67 -88 +40 -86 -23 -47 +80 -17 -54 +83 +23 +69 +77 -28 -71
-69 +51 -65 +85 +39 -17 +77 +28 -81 +82 -74 -50 +21 +78 +89 +50 -31 -27 -75 +17 -76 -5 -77 +75 -83 +65 +69 +79 +74 -38
+83 +81 +25 -87 +40 -62 -30 +82 +73 +62 -74 +70 +74 +77 +41 +87 -44 -65 +15 +62 +87 +42 +64 +86 -67 +89 -89 -67 +39 +67
+69 -35 -41 -55 +85 -38 +52 +38 +36 -48 -86 +31 -45 +71 -71 +47 +38 -37 +44 +59 -86 +43 -79 -74 +88 -28 +38 -89 -38 +63
-1 -38 -68 +40 +88 +66 +30 +56 +69 +14 -66 -85 +57 +10 +55 -86 -74 -14 +56 -79 +74 +30 -83 +28 +66 -30 +63 +87 -28 -42
+55 +46 -8 +78 -68 -68 +81 +88 -90 -76 -65 +48 +50 -15 -14 -76 -86 -50 -62 -86 -80 -79 -62 +75 +47 -81 -45 -79 -78 +73
-72 -88 +66 +44 +59 -65 -87 +82 -75 -87 +8 +85 +82 -35 -88 +88 +75 -32 -28 -88 +65 +51 -65 +74 +43 +76 -79 +34 +41 +5
-72 +48 +82 -14 +86 -82 -52 -34 +68 -30 -74 +46 +24 -35 +76 -37 +50 +46 +71 -36 -59 +75 +62 -82 -46 +85 -8 +42 +65 -83
+65 -10 +58 -58 -52 +90 +65 +86 +84 -66 +81 +73 +43 +44 +74 -86 +48 +38 +76 -24 +59 +48 -12 -27 +18 -84 -65 -80 -38 -70
