https://raw.githubusercontent.com/fuwutu/CodeForces/master/225A%20-%20Dice%20Tower.cpp
https://raw.githubusercontent.com/o-panda-o/MySolutions/master/Implementation/Code_225A_DiceTower.java
https://raw.githubusercontent.com/changyuheng/codeforces-solutions/master/225a.py
