https://raw.githubusercontent.com/spnow/challenges-1/master/root-me/app-system/buffer-overflow1.md
https://cysecguide.blogspot.com/2018/04/elf-x86-stack-buffer-overflow-basic-1.html
https://kiosupercom.wordpress.com/2018/11/21/vie-elf-x86-stack-buffer-overflow-basic-1/
https://github.com/s1syphu5/RootMe-Challenges/tree/master/System/ELF%20x86%20-%20Stack%20buffer%20overflow%20basic%201
https://m.blog.naver.com/PostView.nhn?blogId=cnkgh&logNo=220946530200&proxyReferer=https%3A%2F%2Fwww.google.com.hk%2F
