https://medium.com/@kamransaifullah786/rfi-to-rce-challenge-by-zixem-writeup-d0c4c5bec2fe
https://medium.com/@KamranSaifullah/rfi-to-rce-challenge-by-zixem-writeup-d0c4c5bec2fe
https://blog.csdn.net/weixin_30597269/article/details/97314471
http://kfbiji.com/article/85beb383e3ccca63
http://itren.xiaolee.net/p/2384894.html
https://sk-thelight.blogspot.com/2015/03/rfi-to-rce-challengezixem-lvl-1.html
https://www.bbsmax.com/A/WpdKx81rzV/
https://www.cnblogs.com/hack404/p/10734100.html
https://www.wandouip.com/t5i215011/
https://www.w3xue.com/exp/article/20194/31500.html
