https://raw.githubusercontent.com/4ndypanda/HackerRank/master/Hack2020/February/2014/Bike%20Racers.cpp
https://raw.githubusercontent.com/nastra/hackerrank/master/src/main/java/com/nastra/hackerrank/BikeRacers.java
https://raw.githubusercontent.com/shengmin/coding-problem/master/hackerrank/bike-racers/Solution.scala
