https://github.com/james9909/PracticeCTF/blob/master/WeChall/No-Escape/Solution.txt
https://raw.githubusercontent.com/BirkhoffLee/wechall/master/exploit/No%20Escape/README.md
https://github.com/BirkhoffLee/wechall/tree/master/exploit/No%20Escape
