https://raw.githubusercontent.com/Gamer1092/Coderbyte-Medium/Medium/Arith%20Geo%20II.cpp
https://raw.githubusercontent.com/ZLester/Coderbyte-Solutions/master/Medium/07%20-%20Arith%20Geo%20II.js
https://raw.githubusercontent.com/bolducp/coderbyte/master/medium/07_arithgeoII.py
https://raw.githubusercontent.com/designerGenes/CoderbyteInSwift/master/ArithGeoII/ArithGeoII.playground/Contents.swift
