https://raw.githubusercontent.com/igor-kutepov/codeabbey/master/src/main/java/com/kutepov/samples/codeabbey/ConvexPolygonArea.java
https://raw.githubusercontent.com/pastelito02/Challenges-sol/master/Programming/Codeabbey/105/george_giudice.lisp
https://raw.githubusercontent.com/pastelito02/Challenges-sol/master/Programming/Codeabbey/105/KOR_Ryat.php
https://raw.githubusercontent.com/djs1193/codeabbey/master/q82.py
https://raw.githubusercontent.com/pastelito02/Challenges-sol/master/Programming/Codeabbey/105/lvcrft.rb
https://raw.githubusercontent.com/pastelito02/Challenges-sol/master/Programming/Codeabbey/105/bluknite.scala
https://raw.githubusercontent.com/pastelito02/Challenges-sol/master/Programming/Codeabbey/105/hamza772000.vb
https://raw.githubusercontent.com/JesseClarkND/codeabbey_in_C-NET/master/Convex%20Polygon%20Area
