https://raw.githubusercontent.com/phuclevinh2000/CodeAbbey/master/Minimum%20of%20Three.c
https://raw.githubusercontent.com/spokenlore/CodeAbbey/master/Beginner/5.%20minOfThree/minOfThree.cpp
https://raw.githubusercontent.com/Tempurturtul/CodeAbbey/master/C%23/MinOfThree.cs
https://raw.githubusercontent.com/pastelito02/Challenges-sol/master/Programming/Codeabbey/005/yozhikv10.d
https://raw.githubusercontent.com/skilled19/sols/master/ariofdi-05-min-of-three.fs
https://raw.githubusercontent.com/vinitkantrod/go-codeabbey/master/05_min_of_three/main.go
https://raw.githubusercontent.com/pastelito02/Challenges-sol/master/Programming/Codeabbey/005/paulo_silva.hs
https://raw.githubusercontent.com/bkawan/codeabbey_python/master/problem-5.ipynb
https://raw.githubusercontent.com/meganroche/CodeAbbeySolutions/master/Java/MinimumThree.java
https://raw.githubusercontent.com/pastelito02/Challenges-sol/master/Programming/Codeabbey/005/AsuraStrike.jl
https://raw.githubusercontent.com/SohailKh/codeabbey-solutions/master/problem5.js
https://raw.githubusercontent.com/peiandsky/codeabbeyByKotlin/master/src/problems01_10/Problem05_MinimumofThree.kt
https://raw.githubusercontent.com/chriswood/codeabbey/master/ca5.lisp
https://raw.githubusercontent.com/pastelito02/Challenges-sol/master/Programming/Codeabbey/005/evgeny.mihalich.lua
https://raw.githubusercontent.com/pastelito02/Challenges-sol/master/Programming/Codeabbey/005/stefan.schmiedl.ml
https://raw.githubusercontent.com/mpeshehonov/Codeabbey/master/practice/%235/index.php
https://raw.githubusercontent.com/MadcapJake/codeabbey-problems/master/perl6/min-of-three/min-of-three.pl
https://raw.githubusercontent.com/elebumm/Code-Abbey-Python/master/5/5.py
https://raw.githubusercontent.com/marclerodrigues/ruby_exercises/master/min_of_three.rb
https://gitlab.com/CodeArtisan/codeabbey/raw/master/problem_5/solution.rkt
https://raw.githubusercontent.com/YetAnotherMinion/YAMScratch/master/CodeAbbey/rust-sol/src/5.rs
https://raw.githubusercontent.com/mmcdon20/code_abbey/master/src/main/scala/Abbey005.scala
https://raw.githubusercontent.com/skilled19/sols/master/harv/codeabbey-5-min-of-three.vb
