https://raw.githubusercontent.com/gavin--/hackerrank/master/Triangle%20Numbers/Triangle%20Numbers.cpp
https://raw.githubusercontent.com/adeschamps/hackerrank/master/algorithms/summations-and-algebra/triangle-numbers.lisp
https://raw.githubusercontent.com/bramanto/simple-triangle-numbers/master/triangle_numbers_01.py
