https://raw.githubusercontent.com/travisjeffery/project-euler/master/1.clj
https://raw.githubusercontent.com/mattspaulding/hacker-rank/master/HackerRank/ProjectEuler/ProjectEuler001.cs
https://raw.githubusercontent.com/irlndts/go-hackerrank/master/projecteuler/1multiplesof3and5.go
https://raw.githubusercontent.com/travisjeffery/project-euler/master/1.hs
https://raw.githubusercontent.com/necolas/project-euler/master/001/001.js
https://raw.githubusercontent.com/travisjeffery/project-euler/master/1.rb
https://raw.githubusercontent.com/munyari/programming-problems/master/euler/euler-1.rs
https://raw.githubusercontent.com/necolas/project-euler/master/001/001.scala
