https://raw.githubusercontent.com/DestructHub/ProjectEuler/master/Problem056/Clojure/solution_1.clj
https://raw.githubusercontent.com/DestructHub/ProjectEuler/master/Problem056/Haskell/solution_1.hs
https://raw.githubusercontent.com/nayuki/Project-Euler-solutions/master/java/p056.java
https://raw.githubusercontent.com/DestructHub/ProjectEuler/master/Problem056/CommonLisp/solution_1.lisp
https://raw.githubusercontent.com/kdungs/euler/master/056/euler_56.py
https://raw.githubusercontent.com/sile/euler.rs/master/euler_02/src/problem056.rs
