https://0x00sec.org/t/metasploitable-1-walkthrough/3964
https://metaspolitable2.wordpress.com/2017/10/06/first-blog-post/
https://kush.com.fj/blog/posts/2018-07-27-metasploitable2-walkthrough/
https://chousensha.github.io/blog/2014/06/03/pentest-lab-metasploitable-2/
