https://www.youtube.com/watch?v=iscopb68mrI
http://itknowledgeexchange.techtarget.com/Irregular-Expressions/hackthissite-org-basic-level-11/
http://sp4hack.blogspot.com.co/2012/09/hack-this-site-basic-11.html
http://htstutorial.blogspot.com.co/2009/07/hts-basic-mission-11.html
http://www.amitghosh.net/hts-basic-mission-11-solution/
https://0x1gab.com/2016/06/28/hackthissite-basic-challenge-level-11/
http://blog.abhishekg.com/2011/12/basic-11-is-there-a-solution-even/
https://raw.githubusercontent.com/attilathedud/HackThisSite/master/Basic/README.md
https://www.youtube.com/watch?v=5qvIQFGYD5Q
https://www.youtube.com/watch?v=Z586bp2-Ros1
