https://www.youtube.com/watch?v=3VxZNflJqsw
https://forum.hackthebox.eu/discussion/89/lazy-by-coding-karma-noob-ways
https://www.hackingarticles.in/hack-the-box-challenge-lazy-walkthrough/
https://resources.infosecinstitute.com/hack-the-box-htb-machines-walkthrough-series-lazy/#gref
https://securityboulevard.com/2018/12/hack-the-box-htb-machines-walkthrough-series-lazy/
https://www.linkedin.com/pulse/hack-box-challenge-lazy-walkthrough-raj-chandel
https://jasperandgarrison.wordpress.com/2017/12/13/hackthebox-lazy/
https://zsahi.wordpress.com/2018/09/13/htb-lazy-machine-walthrough/
https://blog.haao.sh/writeups/lazy-writeup/
https://0xdf.gitlab.io/2020/07/29/htb-lazy.html
