https://10degres.net/dvwa-insecure-captcha/
https://es.slideshare.net/AliTamoor1/7-dvwainsecure-captcha
https://medium.com/@rafaelrenovaci/dvwa-solution-insecure-captcha-3d796a75eb18
https://www.vimore.org/watch/jQHJpEz7yFU/dvwa-insecure-captcha-medium-level/
https://www.youtube.com/watch?v=jQHJpEz7yFU
