21
4744535 586254
8360064 6209071
-6824287 -5321965
-7578938 3590787
6301745 2536687
-558356 -6785022
1837719 -8660201
1900456 1462649
9506526 -1406074
-2024982 -6803702
-3391748 9757068
8634901 1668688
-832977 5120129
-4692444 -9849648
-7385857 5185400
-7910251 7358677
-4228345 -9550187
3567749 -1052633
-4872152 5988810
-7461846 -8570407
-1474502 1979798
