https://raw.githubusercontent.com/pastelito02/Challenges-sol/master/Programming/codewars/alternating-case/MMN_1.c
https://raw.githubusercontent.com/pastelito02/Challenges-sol/master/Programming/codewars/alternating-case/ebx.cc
https://raw.githubusercontent.com/pastelito02/Challenges-sol/master/Programming/codewars/alternating-case/user6354551.coffee
https://raw.githubusercontent.com/pastelito02/Challenges-sol/master/Programming/codewars/alternating-case/ebx.cpp
https://raw.githubusercontent.com/pastelito02/Challenges-sol/master/Programming/codewars/alternating-case/Unnamed.cr
https://raw.githubusercontent.com/pastelito02/Challenges-sol/master/Programming/codewars/alternating-case/Seprum.cs
https://raw.githubusercontent.com/pastelito02/Challenges-sol/master/Programming/codewars/alternating-case/EverardoBD.ex
https://raw.githubusercontent.com/pastelito02/Challenges-sol/master/Programming/codewars/alternating-case/EverardoBD.exs
https://raw.githubusercontent.com/pastelito02/Challenges-sol/master/Programming/codewars/alternating-case/savas.hs
https://raw.githubusercontent.com/pastelito02/Challenges-sol/master/Programming/codewars/alternating-case/flix.java
https://raw.githubusercontent.com/pastelito02/Challenges-sol/master/Programming/codewars/alternating-case/lhguerra.js
https://raw.githubusercontent.com/pastelito02/Challenges-sol/master/Programming/codewars/alternating-case/Nestorfish.py
https://raw.githubusercontent.com/pastelito02/Challenges-sol/master/Programming/codewars/alternating-case/smepple.rb
https://raw.githubusercontent.com/pastelito02/Challenges-sol/master/Programming/codewars/alternating-case/mischu.rs
https://raw.githubusercontent.com/pastelito02/Challenges-sol/master/Programming/codewars/alternating-case/psmilliorn.ts
