26
4 1 2 6 6
2 3 4 5 6
5 4 1 5 5
2 3 4 5 6
5 6 3 3 6
2 5 6 2 5
1 6 3 1 3
2 3 4 5 6
5 5 5 5 5
5 4 1 4 3
4 5 5 3 4
2 2 6 1 3
4 3 4 6 4
1 1 6 1 6
3 5 6 6 5
3 3 3 3 3
6 5 6 5 6
2 3 4 5 1
2 3 4 5 6
3 3 3 3 3
2 3 4 5 6
2 3 4 5 1
2 2 4 3 2
2 3 4 5 6
1 2 5 3 6
2 5 3 1 1
