https://raw.githubusercontent.com/nayuki/Project-Euler-solutions/master/haskell/p301.hs
https://raw.githubusercontent.com/nayuki/Project-Euler-solutions/master/python/p301.py
https://raw.githubusercontent.com/DestructHub/ProjectEuler/master/Problem301/Scheme/solution_1.scm
https://raw.githubusercontent.com/nayuki/Project-Euler-solutions/master/mathematica/p301.mathematica
