https://raw.githubusercontent.com/nayuki/Project-Euler-solutions/master/java/p082.java
https://raw.githubusercontent.com/nayuki/Project-Euler-solutions/master/python/p082.py
https://raw.githubusercontent.com/sile/euler.rs/master/euler_03/src/problem082.rs
