16
8 p n g b s p r w i f n k a
7 a r q a e n m p g h s
10 v u m r e o i m t c t d n w c y
8 v r o w g a n t t g d p e
6 f e w t d u u t g j
10 q v s i s e r q e x e o p n p e
7 i g e r e n o o c b d
11 a e g g d r e t m n r e u e n o s
9 i e s r g v o g o r b i u e
7 u s r c t m v u e b o
7 p k g m m n i d a a h
10 o q e s w i x h o p v r t g e l
9 t e i q t e c c n t c j r p
10 y t s t e w d j i n l c a e f r
6 o u k l s e g n k f
9 i z r g h l o b e e k s b i
