https://www.youtube.com/watch?v=5wyvpJa9LdU
https://forum.hackthebox.eu/discussion/46/joker-write-up-by-booj
https://www.absolomb.com/2017-12-30-HackTheBox-Joker-Writeup/
https://www.hackingarticles.in/hack-the-box-challenge-joker-walkthrough/
https://www.linkedin.com/pulse/hack-box-challenge-joker-walkthrough-aarti-singh
https://resources.infosecinstitute.com/hack-the-box-htb-walkthrough-joker/#gref
https://www.puckiestyle.nl/htb-joker/
https://securityboulevard.com/2020/03/hack-the-box-htb-machines-walkthrough-series-joker/
https://hkh4cks.com/blog/2017/12/30/htb-joker-walkthrough/
http://marin3p.blogspot.com/2019/07/hackthebox-joker-writeup.html
https://hackersgeeks.blogspot.com/2018/03/hack-box-challenge-joker-walkthrough.html
https://medium.com/@orhan_yildirim/joker-hackthebox-write-up-cf732d2a2c82
https://reboare.github.io/hackthebox/htb-joker.html
