https://scorp.tistory.com/4?category=785932
https://thinbashane.wordpress.com/2015/11/05/root-me-web-server-weak-password/
https://gotheflag.blogspot.com/2018/12/rootme-weak-password.html
https://tgraph.io/CTF-Kurs-molodogo-bojca-Nachalnye-zadaniya-kategorii-WEB-08-17
https://underratedsecurity.wordpress.com/2018/07/08/root-me-web-server-weak-password-10-pts/
https://github.com/zyjsuper/root-me-4/blob/master/Web-Server/Weak%20Password
http://n3k0.icu/2018/03/30/root-me-web-server/
https://hackinblood.com/category/root-me/web-server-root-me/
https://www.cnblogs.com/heycomputer/articles/10566762.html
https://www.securecorp.co.kr/4
https://www.cnblogs.com/yuuki-aptx/p/10644711.html
https://blog.runninghacker.cn/2019/06/26/Root-me-Web-Server-WriteUp/
https://cn-uet.blogspot.com/2016/11/root-me-write-up-weak-password.html
https://whatchang.tistory.com/26?category=672047
