https://raw.githubusercontent.com/giznaj/SimpleLinearRegression/master/scripts/LinearRegression.R
https://raw.githubusercontent.com/Vermeille/SimpleLinearRegression/master/tuto.c
https://raw.githubusercontent.com/aluxian/CPP-ML-LinearRegression/master/LinearRegression.cpp
https://raw.githubusercontent.com/dv-lebedev/statistics/master/Statistics/Methods/BasicRegression.cs
https://raw.githubusercontent.com/Mathisco-01/LinearRegressionGo/master/linearRegression.go
https://raw.githubusercontent.com/igor-kutepov/codeabbey/master/src/main/java/com/kutepov/samples/codeabbey/SimpleLinearRegression.java
https://raw.githubusercontent.com/mljs/regression-simple-linear/master/src/index.js
https://raw.githubusercontent.com/paulocressoni/LinearRegression/master/linearRegressionMulti.m
https://raw.githubusercontent.com/mnshankar/linear-regression/master/src/Regression.php
https://raw.githubusercontent.com/pepinu/practise/master/CA/Simple%20Linear%20Regression.py
https://raw.githubusercontent.com/JesseClarkND/codeabbey_in_C-NET/master/Simple%20Linear%20Regression
