https://www.youtube.com/watch?v=9I5fLjbArf4&t=1s
https://www.youtube.com/watch?v=h-9rHTLHJTY&t=1s
https://www.youtube.com/watch?v=xeAQFbXDDA8
https://www.youtube.com/watch?v=WFFQw01EYHM&t=1s
https://www.youtube.com/watch?v=wzNqX9uZWmY
https://www.youtube.com/watch?v=KmbMtiOfTnQ
https://www.youtube.com/watch?v=clczL7x1T4Y
https://www.youtube.com/watch?v=Ljb0Nn7Fyg4
https://www.youtube.com/watch?v=N_rzhZWNwlU
