https://ratil.life/hack-the-box-blocky/
https://www.youtube.com/watch?v=C2O-rilXA6I
https://www.youtube.com/watch?v=giuDVkF4zyU
https://www.youtube.com/watch?v=s7QuBwU7mNk
https://www.youtube.com/watch?v=j4TVd4AS99k
https://www.youtube.com/watch?v=970Af_p56tU
https://forum.hackthebox.eu/discussions/tagged/blocky/p1
https://medium.com/@0katz/blocky-ctf-writeup-1493ce9c0038
https://video.hacking.reviews/2018/01/hackthebox-blocky.html
https://forum.hackthebox.eu/discussion/414/hackthebox-blocky-espanol
https://drive.google.com/file/d/19k8j8YcTbAUeQdgg3-WboFbGbkyVlzU4/view
https://forum.hackthebox.eu/discussion/735/blocky-video-write-up-by-cristi
https://www.linkedin.com/pulse/hack-box-challenge-blocky-walkthrough-raj-chandel
https://gist.githubusercontent.com/berzerk0/1a6270d3cacf30c3b5cff82c7f53bf4c/raw/b624f94164310a17b046f995ca94d65ae573c477/CTFWRITE-Blocky-HTB.md
https://www.hackplayers.com/2017/12/htb-write-up-blocky.html
https://v3ded.github.io/ctf/htb-blocky.html
https://resources.infosecinstitute.com/hack-the-box-htb-walkthrough-blocky/#gref
https://thomasrayner.ca/hackthebox-eu-walkthrough-blocky/
https://glitchwitch.io/blog/2017-12/hackthebox-blocky-ctf-notes/
https://www.roguesecurity.in/2017/12/09/hack-the-box-blocky-writeup/
https://andoniaf.github.io/writeups/2017/12/10/writeup-htb-blocky.html
https://kqizen.wordpress.com/2017/12/09/htb-blocky-writeup/
https://ieso.ru/watch/Hack-The-Box-CTF-Walkthrough--Blocky-and-Lame/
https://0xdf.gitlab.io/2020/06/30/htb-blocky.html
https://www.sevenlayers.com/index.php/135-hackthebox-blocky-walkthrough
https://medium.com/@johnsonmatt/hackthebox-blocky-walkthrough-2dca6ff75707
https://securityboulevard.com/2019/07/hack-the-box-htb-machines-walkthrough-series-blocky/
