https://blog.g0tmi1k.com/dvwa/bruteforce-medium/
https://www.youtube.com/watch?v=HhAEl8Sg2a0
https://docs.google.com/document/d/1p_upZeEsFu-lg-WpzU75TZNsPLH_yrHPynxSX98SbEM/
https://lepouvoirclapratique.com/blog/wp-content/uploads/2018/01/UE_Cybersecurite-TP_DVWA
https://medium.com/@dannybeton/dvwa-brute-force-tutorial-medium-5cd2fcfd7a8c
https://www.youtube.com/watch?v=dwvQmXZuV3E
https://www.youtube.com/watch?v=s2VTu2AAeTM
https://www.youtube.com/watch?v=6H3nb7rwpvc