https://raw.githubusercontent.com/aviaryan/competitive/master/codeforces/1A_theater_square.c
https://raw.githubusercontent.com/svanegas/programming_solutions/master/Codeforces/1A%20-%20Teather%20Square/1A.cpp
https://raw.githubusercontent.com/yeicol/CodeForces/master/CF001ATheatreSquare.java
https://raw.githubusercontent.com/changyuheng/codeforces-solutions/master/1a.js
https://raw.githubusercontent.com/changyuheng/codeforces-solutions/master/1a.py
