https://www.youtube.com/watch?v=GY6DuXYzuR8
https://passionforpentesting.com/2017/04/06/owasp-hackademic-challenges-project-challenge-3/
https://www.youtube.com/watch?v=KxD2jLOpY-M
http://r4stl1n.github.io/2015/07/28/Other-OWASP-Hackademic.html
https://www.youtube.com/watch?v=8qDmzhI-8d4
https://www.youtube.com/watch?v=hA_lRblz0Ig
https://www.youtube.com/watch?v=synFB3er-xc
https://www.veracode.com/security/xss
http://y2u.be/GY6DuXYzuR8
https://thefluffy007.com/2017/04/06/owasp-hackademic-challenges-project-challenge-3/
https://thefluffy007.com/2017/04/27/owasp-hackademic-challenge-challenge-4/
