https://raw.githubusercontent.com/DionysiosB/CodeAbbey/master/FunnyWordsGenerator.cpp
https://raw.githubusercontent.com/igor-kutepov/codeabbey/master/src/main/java/com/kutepov/samples/codeabbey/FunnyWordsGenerator.java
https://raw.githubusercontent.com/AndyCYao/codeabbey/master/CA_prob_72_Funny_World_Gen.py
https://raw.githubusercontent.com/mmcdon20/code_abbey/master/src/main/scala/Abbey072.scala
https://pastebin.com/raw/05WBiXEd
https://pastebin.com/raw/BJk4WCBq
https://pastebin.com/raw/Ejc4WNQf
https://pastebin.com/raw/MmZwLWuv
https://pastebin.com/raw/N3KRvr8T
https://pastebin.com/raw/PruMbPuE
https://pastebin.com/raw/WBeSadKe
https://pastebin.com/raw/abwN04Q1
https://pastebin.com/raw/gzuhNRif
https://pastebin.com/raw/jH1AfTGZ
https://raw.githubusercontent.com/JesseClarkND/codeabbey_in_C-NET/master/Funny%20Words%20Generator
