11
fd.61.3b.f8.5f.04.3e.0c.22.8b.bc.ff.e1.f4.d5.f1.9d.9b.8a.c9.e3.1e.e5.65.80.a9.aa.a1.c0.9f.6b.5c.9e.7c.a5.44.b4.3e.e8.66.7e.e7.c0.e5.32.d7.4b.d7.2a.62.d6.99.3a.1c.b5.23.62.0c.26.af.0e.29.82.13.03.b4.ea.40.bb.5c.20.cc.f7.97.19.a7.e5.cf.a4.81.c4.17.8b
e7.7b.32.fe.46.4a.10.18.3a.9d.f8.f9.ea.f4.d5.c7.8c.d2.8b.db.e2.1e.fe.6c.9e.b9.e2.e6.e0.87.66.57.89.39.a3.49.a2.70.dd.35.5e.f6.cf.e5.77.d0.04.9a.3f.73.93.9f.2e.1c.86.29.71.17.72.e0.0c.66.d2.20.08.a4.af.48.b0.4b.64.98.d3.97.5e.bd.e3.d3.b5.9a.df.0c
c0.6a.7a.f3.55.19.71.1e.36.8d.b1.ec.e1.f4.d5.f7.8b.d6.80.cf.e5.57.ea.24.9e.b4.f9.b3.db.9b.67.51.8d.35.a2.43.b4.3e.c8.78.62.ec.c9.e2.66.83.51.84.7e.6b.dd.94.68.54.95.33.36.1a.68.a4.0d.68.84.0e.13.b2.ea.4a.ff.4d.2b.cc.d9.80.17.a0.f1
fc.60.7a.f9.51.4a.25.09.27.8b.bc.b8.e2.ff.87.b3.94.c9.80.c8.f4.50.ed.61.93.fa.e5.a0.cf.8c.6c.51.9c.2f.ed.6b.a8.6c.89.74.6f.ed.c2.f8.61.cb.4d.99.39.2a.c7.98.2d.1c.92.32.73.1a.26.93.11.7a.86.04.0b.e0.e0.48.ff.7c.2a.8b.d7.9b.0d.a6
c4.6e.2d.e8.14.03.3f.5b.2f.ce.b6.fd.ed.f7.9d.f1.8b.ce.97.d5.ff.59.a9.54.85.b5.fc.af.c7.8a.67.12.9c.2f.b9.4c.a5.72.c0.66.65.eb.c0.f6.32.d7.4c.92.2c.6f.da.9e.68.5d.9a.60.57.0d.64.a9.1c.7b.93.13.1f.e0.e8.41.a9.5c.36.82.d6.97.10.ba
ea.6a.3f.f5.14.1e.39.1e.6e.9e.b9.ec.ed.f5.9b.e7.c4.c8.90.da.f7.5b.fb.65.99.b9.ef.e6.c6.8f.22.46.91.39.be.48.e7.5d.c6.79.62.ec.c7.f4.61.83.45.99.3a.2a.c0.85.2b.54.d4.29.65.5f.68.af.1f.29.86.09.03.e0.e1.4b.bc.5c.37.9f.d2.86.07
fc.67.3f.bb.5c.03.36.13.6e.bd.bd.f9.f7.b0.81.fc.c4.d9.80.dd.e3.1e.c8.76.9a.a9.aa.a7.ce.88.6b.5c.8a.28.ed.59.af.7b.c0.67.2d.c1.c1.e4.7c.d7.56.8e.7e.7e.dc.d0.2a.59.97.2f.7b.1a.26.b4.00.6c.d2.04.1e.a5.ec.5b.ab.50.2b.82.de.80.0d
c2.7a.3e.fc.51.19.71.1f.2b.9e.bd.f6.e0.f5.9b.e7.c4.d4.8b.9c.f9.57.fa.24.a0.b3.e6.aa.89.88.6e.5d.97.39.ed.4b.a8.6c.89.61.65.e7.8e.e5.77.cd.51.85.3b.2a.dc.96.68.48.9c.25.7f.0d.26.af.0e.6f.9b.02.03.b3.af.4f.b1.5d.64.98.d3.97
fc.67.3f.f6.47.0f.3d.0d.2b.9d.f8.f1.ea.e6.90.e0.90.de.81.9c.e6.57.fd.6c.d7.aa.e5.b1.cc.9b.22.46.96.7c.a1.48.a0.77.da.79.6c.f6.cb.b1.74.cc.56.d7.2b.79.93.99.26.1c.95.2c.7a.5f.65.a1.1b.6c.81.41.11.a8.ee.5a.ac.56.21.9a.de.80
d8.6a.35.eb.58.0f.71.0f.21.ce.b9.f4.f0.f5.87.b3.8b.c9.c5.c8.fe.1e.e8.66.98.b6.e3.b5.c1.c9.6b.46.d9.3d.a3.49.e7.6a.c6.35.64.ec.dd.e5.7b.d7.51.83.3b.2a.dd.95.3f.1c.b3.2f.60.1a.74.ae.05.6c.9c.15.46.ac.ee.57.b6.57.23
e7.7a.2e.bb.40.02.34.12.3c.ce.ab.ed.e6.e3.81.f2.8a.d8.80.9c.d9.5b.a9.6c.96.a9.aa.ad.cc.99.76.12.98.31.a2.43.a0.3e.dc.66.2d.eb.c0.b1.66.ca.49.92.2d.2a.dc.96.68.4c.91.21.75.1a.26.93.1c.68.9c.05.0f.ae.e8
