25
THDTRPZYXXPITQLXFGIQNHYFRRMFDLD OHSQRPZYXXPITQUXRGICQNHYFRRLFDLRD
EKKPZYNKSVGPRXGWUTISNTR ECKKPZYKSTGPRSXZWUTISXNTRQ
OVYTBQYWDNAUGQU OVYWTQYWDGAUGQU
TYYLDJAGLYVFACDB YYZLDJHGLFYCQB
GCEEOLXOADZJNMYMCIFKXGIKNNP GCEOLXVKKYDUZJNMYMCIFXGIKNPV
HZAJDITQALQBWIEFALAGRHPMWUI QZYJDITBALQWIEDYFNALDQRHPMQHI
DPKNZFCHBFVFPIOS WPKNZFCHBFVFPIS
WLRIAUECOVIBNEJVCDNXDWCJ HRGRGECOVIANEJVCDSNXDWCJ
SSGYTBHUTSZXVMCJUMGGMSAAVGSCBQGRL YSGYTBIHFOTSUXVMCJCUMGOMAMVGSCBNQDGR
AFGCDRWXAICPDD AKWCDRWXZCPAYJ
FCMEHQIGNYOMCOBIKUSJ QFCMERIQIGNYOMCBIUOKUSD
YADWMLMNCKBZSEOQVIJXJMHRQSMANT YADWMEMNCBZSEOVIJXJMHRPPMANLT
BBJNGVEAERKJTSUGHFLOJTNMOISQBLJQ BOJNGVEAKRKJTEUGHFLJTNMOISBLJQ
WRZRRPXBVVJSYGWUGLU WRZRGPEXBVVJSYJGWUGLW
FMJYFMAHPFCFNRTFHFXLDVVACLUQMSQVYXSO FJFMAHPFCFNTFHFALDVVWCLUUQMSQVRSNO
QBFKVVOFPGOUH QCBFKVVOFYPGOUH
YVSDBBJZLDWLLSZRAYBMHSBKONHDV YXSDBBJZLDWLLYSZRAWYBMHSBKOPLXH
DPFNHQTZBXROJOSFVPTVDGNDNGNML PNPQTZBXJOJOCSFVJTVDHNDNGNML
TQQDVMWYFJHOIWIURCGHAQLETDSNDKLOP TQQDVMWYFDLJRHFIWIURCGJQLETDSNDKIOP
WYLTAMLSDFYCJPFZYJIIBFKKNZNOE WLTAMLQBYDFYJPXZYJIIBKKNSZNOET
RKWWFPOXCBJKQVOBYATHFXWX WKWWEPOXKBJKEQVBYIATBHFXX
BLHEADHOUCXFFWKWYSSRYNTGOSHHEUTO BLGHEJADHOQCXFFWKWYSSNTGOSHHXEVTO
KJUBBGORJIANSUF HJUBBGORAIANDUV
WORVOKWTLPNACHAXOKFINJKBTHF WORYOKWLPNACWHAXOKFIJKBTHF
BNOZOWXAHQLWDROGKO BNOIZOWXVHQLWDJRGO
