http://location-href.com/xvwa-walkthrough/
http://securitycode.tistory.com/81
https://youtu.be/NClvJ8XUzx8
https://youtu.be/y1fgSdGUTpQ
https://www.youtube.com/watch?v=BLzvBRFP8mQ
https://securitycode.tistory.com/81
https://raw.githubusercontent.com/rudSarkar/xvwa-solution/master/formula-injection-xvwa.md
https://www.youtube.com/watch?v=FxXeiOd-nPs&list=PLWPirh4EWFpESKWJmrgQwmsnTrL_K93Wi&index=43
https://pentestmag.com/formula-injection/
http://78.141.223.154/xvwa/vulnerabilities/formula_injection/
