https://raw.githubusercontent.com/Dvd848/CTFs/master/2019_picoCTF/Heap_overflow.md
https://raw.githubusercontent.com/redpwn/picoCTF-2019/master/pwn/heap-overflow/solve.py
https://www.willsroot.io/2019/10/picoctf-2019-afterlife-secondlife-and.html
https://tcode2k16.github.io/blog/posts/picoctf-2019-writeup/binary-exploitation/#solution-20
