https://infosecuritygeek.com/root-me-command-control/
https://cysecguide.blogspot.com/2017/11/root-me-write-up-command-control-level-2.html
https://underc0de.org/foro/soluciones-de-wargames/(root-me)-file-insecure-storage-1/
https://raw.githubusercontent.com/RomaniukVadim/wargaming-challenges/master/RootMe/forensic/command_and_control_level2.txt
