https://www.irongeek.com/i.php?page=videos/web-application-pen-testing-tutorials-with-mutillidae
https://youtu.be/MxiVx7e_FbM
https://youtu.be/Tosp-JyWVS4
https://forums.hak5.org/topic/30085-mutillidae-determine-http-methods-using-netcat/

