https://www.freebuf.com/sectool/126707.html
https://cloud.tencent.com/developer/article/1043013
https://read01.com/mGP68R.html#.Xotu64hKg2x
http://www.ifuun.com/a20172211194643/
https://www.itdaan.com/tw/9e6b1eb9b0e5
https://www.myhack58.com/Article/60/61/2017/83461.htm
http://tiechemo.com/zx/2538.html
