https://raw.githubusercontent.com/pascal-bourut/codeeval-challenges/master/moderate/10%20-%20Mth%20to%20last%20element/10.js
https://raw.githubusercontent.com/pascal-bourut/codeeval-challenges/master/moderate/10%20-%20Mth%20to%20last%20element/10.php
https://raw.githubusercontent.com/leaen/Codeeval-solutions/master/mth-to-last-element.py
