https://ratil.life/hack-the-box-apocalyst/
https://forum.hackthebox.eu/discussion/59/apocalyst
https://medium.com/secjuice/apocalyst-ctf-writeup-ccf9e2afb145
https://www.hackplayers.com/2017/11/htb-write-up-apocalyst.html
https://www.nnuts.co.uk/oscp/Apocalyst-Challenge-HackTheBox.html
https://video.hacking.reviews/2018/01/hackthebox-apocalyst.html
https://drive.google.com/file/d/1BoBikSF87vOmuu7N2Dsfhx1Ero2G6Jmc/view
https://www.hackingarticles.in/hack-the-box-challenge-apocalyst-walkthrough/
https://kod0kk.wordpress.com/2017/11/30/hackthebox-apocalyst-machine-writeup/
https://www.hacking.land/2017/11/htb-write-up-apocalyst.html
https://resources.infosecinstitute.com/hack-the-box-htb-walkthrough-apocalyst/#gref
https://thomasrayner.ca/hackthebox-eu-walkthrough-apocalyst/
https://medium.com/@andr3w_hilton/htb-apocalyst-walkthrough-2f7e00de8edc
https://www.linkedin.com/pulse/hack-box-challenge-apocalyst-walkthrough-raj-chandel
https://www.puckiestyle.nl/htb-apocalyst/
https://blog.barradell-johns.com/index.php/2019/10/15/htb-apocalyst/
https://securityboulevard.com/2019/05/hack-the-box-htb-machines-walkthrough-series-apocalyst/
https://blog.csdn.net/qq_34801745/article/details/106308656
https://medium.com/apocalyst-htb-walkthrough/apocalyst-26164b713412
https://0xw0lf.github.io/2020/03/10/HTB-Apocalyst/
