https://raw.githubusercontent.com/mementum/codeeval/master/01-easy/0087-query-board/0087-query-board.cpp
https://raw.githubusercontent.com/koshkarov/solutions-for-codeeval-tasks/master/QueryBoard.cs
https://raw.githubusercontent.com/pascal-bourut/codeeval-challenges/master/easy/87%20-%20Query%20Board/87.js
https://raw.githubusercontent.com/pascal-bourut/codeeval-challenges/master/easy/87%20-%20Query%20Board/87.php
https://raw.githubusercontent.com/leaen/Codeeval-solutions/master/query-board.py
https://gist.githubusercontent.com/UberMouse/5711602/raw/04bd43d9dd63b6135c05fd876a6cfa1e8c4ed6c5/QueryBoard.scala
