https://raw.githubusercontent.com/J3rome/Ringzero-writeup/master/codingChallenge/hashMeIfYouCan/tampermonkeyScript.js
https://raw.githubusercontent.com/xmunoz/RingZer0-ctf/master/coding/hash_me_please.py
https://raw.githubusercontent.com/SimpleAOB/Ringzer0-CTF/master/solutions/13.js
