https://alexandervoidstar.wordpress.com/2015/08/16/hackthis-intermediate-level-1/
https://www.youtube.com/watch?v=2C_2PDIP5Bg
https://www.youtube.com/watch?v=MITrS0CcCMU
https://www.youtube.com/watch?v=kkGG5j88CKQ
https://www.youtube.com/watch?v=JVoAhljf8IQ
https://www.youtube.com/watch?v=N0vplrg_Byc
