https://raw.githubusercontent.com/Gamer1092/Coderbyte-Medium/Medium/Consecutive.cpp
https://raw.githubusercontent.com/ZLester/Coderbyte-Solutions/master/Medium/13%20-%20Consecutive.js
https://raw.githubusercontent.com/bolducp/coderbyte/master/medium/13_consecutive.py
https://raw.githubusercontent.com/tomyancey/coderbyte_solutions/master/consecutive.rb
https://raw.githubusercontent.com/designerGenes/CoderbyteInSwift/master/Consecutive/Consecutive.playground/Contents.swift
