https://raw.githubusercontent.com/lwzswufe/M2018_C_Programming_Learning/da7d3e925deb24439543c5792b51eae53368be93/7-43.c
https://raw.githubusercontent.com/JeffLawrence1/C-Sharp-Basics/94808ebf80bf8ab91a57374c60cdd86f83cbe613/crazy_eights_project/Deck.cs
https://raw.githubusercontent.com/pastelito02/Challenges-sol/master/Programming/Codeabbey/045/vodmin.go
https://raw.githubusercontent.com/pastelito02/Challenges-sol/master/Programming/Codeabbey/045/gsou859.hs
https://raw.githubusercontent.com/KlaudioVito/CodeAbbey/master/CardShuffling.java
https://raw.githubusercontent.com/pastelito02/Challenges-sol/master/Programming/Codeabbey/045/kittyaurel.jl
https://raw.githubusercontent.com/loriebi/axway/8860520a80eed70559b11bfb131cbdc2bee4b9df/js/shufflingDeck.js
https://raw.githubusercontent.com/pastelito02/Challenges-sol/master/Programming/Codeabbey/045/gerhardt_funk.lisp
https://raw.githubusercontent.com/pastelito02/Challenges-sol/master/Programming/Codeabbey/045/memstick.lua
https://raw.githubusercontent.com/pastelito02/Challenges-sol/master/Programming/Codeabbey/045/stefan.schmiedl.ml
https://raw.githubusercontent.com/pastelito02/Challenges-sol/master/Programming/Codeabbey/045/sorenkurgan.php
https://raw.githubusercontent.com/pastelito02/Challenges-sol/master/Programming/Codeabbey/045/pearl_barley.pl
https://raw.githubusercontent.com/AndyCYao/codeabbey/master/CA_prob_45_Card_Shuffling.py
https://raw.githubusercontent.com/pastelito02/Challenges-sol/master/Programming/Codeabbey/045/BeastJLJ.rb
https://raw.githubusercontent.com/pastelito02/Challenges-sol/master/Programming/Codeabbey/045/serviceable.rs
https://raw.githubusercontent.com/mmcdon20/code_abbey/master/src/main/scala/Abbey045.scala
https://raw.githubusercontent.com/frankhu00/21Simulation/3983a96331728b287fb75ea0509bace7c09d7c2f/app/src/js/CardCollection.ts
https://raw.githubusercontent.com/bfinley93/Blackjack/e17dd686d274db7054d958f361bfe0267b5432ed/Poker/Deck.vb
https://raw.githubusercontent.com/JesseClarkND/codeabbey_in_C-NET/master/Cards%20Shuffling
