https://www.hackplayers.com/2011/01/solucion-al-reto-del-crackme1-para_18.html
https://www.hackplayers.com/2010/12/reto-android-crackme1.html
http://mikelgarcialarragan.blogspot.com/2019/04/reversingxvii-solucion-retos-android.html
