https://raw.githubusercontent.com/Qwaz/solved-hacking-problem/master/GoogleCTF/2018%20Quals/feel_it/solver.py
https://raw.githubusercontent.com/AdityaVallabh/ctf-write-ups/master/Google%20CTF%202018/JS%20Safe%202.0/README.md
https://raw.githubusercontent.com/Ariana1729/CTF-Writeups/master/2018/Google%20CTF%20Quals%202018/JS%20Safe%202.0/README.md
https://raw.githubusercontent.com/TheMaccabees/ctf-writeups/master/GoogleCTF2018Quals/js-safe-2.0/README.md
https://raw.githubusercontent.com/DancingSimpletons/writeups/master/googlectf-2018/js-safe-2_0.md
https://ctftime.org/writeup/10378
https://ctftime.org/writeup/10365
https://ctftime.org/writeup/10344
https://devel0pment.de/?p=587
https://dttw.tech/posts/S1R4BzXzQ
https://blog.vero.site/post/js-safe-2
