https://raw.githubusercontent.com/p1o2p3u1/WeChall/master/Training/Crypto_GPG.md
https://github.com/p1o2p3u1/WeChall/blob/master/Training/Crypto_GPG.md
https://pengyang.me/2018/08/19/wechall/#24training-gpg
