https://github.com/VulnHub/ctf-writeups/raw/master/2018/angstromctf/crypto/back-to-base-ics.md
https://medium.com/bugbountywriteup/angstromctf-writeups-4e3d51c3dc42
https://raw.githubusercontent.com/zst123/angstromctf-2018-writeups/master/Solved/Back_to_Base_ics/README.md
