https://www.youtube.com/watch?v=UbkGf5FXyU0
https://www.youtube.com/watch?v=rQ6R4B9m-nk
https://www.irongeek.com/i.php?page=videos/web-application-pen-testing-tutorials-with-mutillidae
https://youtu.be/3qOgt9IYgaI
