https://raw.githubusercontent.com/DestructHub/ProjectEuler/master/Problem063/C/solution_1.c
https://raw.githubusercontent.com/DestructHub/ProjectEuler/master/Problem063/Elixir/solution_1.exs
https://raw.githubusercontent.com/DestructHub/ProjectEuler/master/Problem063/Go/solution_1.go
https://raw.githubusercontent.com/DestructHub/ProjectEuler/master/Problem063/Haskell/solution_1.hs
https://raw.githubusercontent.com/nayuki/Project-Euler-solutions/master/java/p063.java
https://raw.githubusercontent.com/DestructHub/ProjectEuler/master/Problem063/CommonLisp/solution_1.lisp
https://raw.githubusercontent.com/DestructHub/ProjectEuler/master/Problem063/Python/solution_1.py
https://raw.githubusercontent.com/sile/euler.rs/master/euler_02/src/problem063.rs
