https://alexandervoidstar.wordpress.com/2015/06/14/hackthis-main-level-2/
https://www.youtube.com/watch?v=Yj5KqhMiHZM
https://www.youtube.com/watch?v=-uVjs-pK4vU
https://github.com/james9909/PracticeCTF/blob/master/HackThis/Main-2/Soluion.txt
http://liberte-informatique.blogspot.com.co/2013/03/hackthiscouk-main-level-2.html
https://obilan.be/hackthis-main-level-2/
https://www.youtube.com/watch?v=ByVIEU48Bac
https://www.youtube.com/watch?v=oJ6xPCo0kKo
https://www.youtube.com/watch?v=Kqnaf4cOw0A
https://www.youtube.com/watch?v=f9aUppUjG7E
https://www.youtube.com/watch?v=i9RSGNxz6-8
https://www.youtube.com/watch?v=tAI6SsRot1A
https://www.youtube.com/watch?v=YongkWafDlw
https://www.youtube.com/watch?v=iFbzjCEfMNE
https://www.youtube.com/watch?v=fM7Jl-w-4DU
https://www.youtube.com/watch?v=_2ZiMbICd68
https://www.youtube.com/watch?v=yoFS6jljKVo
https://www.youtube.com/watch?v=to_6UfWE5Tc
https://www.youtube.com/watch?v=QCsm-nSC1Uk
https://www.youtube.com/watch?v=gdriuk4GYqs
https://www.youtube.com/watch?v=PRl1o6rpc7A
https://www.youtube.com/watch?v=VIs7Rw506Hk
