https://raw.githubusercontent.com/roku6185/smashthestack/master/io/level10/level10.c
https://www.greyhat.dk/io-smashthestack-level-10/
https://infamoussyn.wordpress.com/2013/09/11/smashthestack-io-walkthrough-part-b-levels-6-10/
