http://location-href.com/xvwa-walkthrough/
https://youtu.be/4UOd2c2e7Xs
https://youtu.be/4lzL2nw7hsI
https://youtu.be/XOlFkcdVymQ
https://www.youtube.com/watch?v=Zp6iERzxof4
https://l.facebook.com/l.php?u=https%3A%2F%2Fmy.pcloud.com%2Fpublink%2Fshow%3Fcode%3DXZilveZTLftxSkj7RQFaPC0ih7rN82BG4a7&h=AT19bZWZwaQjZ3ij3nFH50x-1tqYemPqXdEJ0Soch2Nbti0_WiJf4cvrom2hi_nZU3x4ntuDCAl90CdeJSKMC7asorFEZx8uyj9i6Bahe9Qhk9U4wlkjsOYM7XqLLOcVIiaPltYzdzZ5ll-z0TDyjd6smuji4BbI0SpMsqeuGhI4CsDxm9Lf-igriSLEbRx5rotioQUgUGeCM9UlE93xz7eka0H6Ys4_nd3qjn-z3GH1s8o4HgfCQxiOzf_2Wg2fVwFUKSIErxUdziO3BNf4oAafMUmstxidHwiLDi-53wiBMlkGeZrZ-QwM55Xoh59C10K9nlOSG6UbtFDXT98Jk3bFt5eX2l-t4WZr8iMqmuwKA0-BhDLtDb8gZwmpjYHY_WjiCCskkE6GxbKP5boOG_YdlQ659K2ZTstm-z8aZh8duBC_krfE6NmIeln1Q-FP_Ko3ImyKtN08LaihylAUzbE3MPROXqsQWDh0RlpFeRTv5v8FE29XuwUgbe280XF4y7L2IFPe8T2E_uoHrcyVIFzTaw5KGxkMmDb6DtFolFjGCnTt1g9hDQpuLquFr7NQ27gsDPfvuuIpLnifDw0nuitRjUoCR6ZaHAvHHLPDM_4bBWj1N7N0dGIRf0xA1W2lUpfuDxitSw
https://www.youtube.com/watch?v=RNWnGRbknsM
https://www.youtube.com/watch?v=Q7mm1WZB69Q
http://naitikhaiking.blogspot.com/2018/08/chapter-2-xvwa-sql-injection-error-based.html
https://securitycode.tistory.com/68
https://www.youtube.com/watch?v=5ulehtDTuvE
