https://raw.githubusercontent.com/james9909/PracticeCTF/master/WeChall/Guesswork/Solution.txt
http://mimaunes.hatenablog.com/entry/20151227/1451173712
https://www.xctf.org.cn/library/details/0336229e1fbbfec8f7ad3851bd00af41153e1a08/
https://github.com/BirkhoffLee/wechall/tree/master/exploit/Guesswork
https://raw.githubusercontent.com/BirkhoffLee/wechall/master/exploit/Guesswork/README.md
