https://raw.githubusercontent.com/kdungs/euler/master/035/euler_35.c
https://raw.githubusercontent.com/nayuki/Project-Euler-solutions/master/java/p035.java
https://raw.githubusercontent.com/DestructHub/ProjectEuler/master/Problem035/Python/solution_1.py
https://raw.githubusercontent.com/sile/euler.rs/master/euler_01/src/problem035.rs
