https://raw.githubusercontent.com/SedaKunda/CodeEval/master/Easy-Level/Capitalize.java
https://gist.githubusercontent.com/laurenngo/8e0b4277a8109bb65faf/raw/3f98760bf7a16dce734af056e225d72d9bae4f20/cap_words.js
https://raw.githubusercontent.com/blamonet/php-code-eval-solutions/master/capitalize_words.php
https://raw.githubusercontent.com/moogar0880/CodeEval/master/Python/capitalize.py
