https://youtu.be/nEP4h9JQJD8?t=4m18s
https://youtu.be/EFr9jxo-vCw?t=2m18s
https://www.youtube.com/watch?v=XrwaLVy-XY0
https://gist.github.com/pbssubhash/2f99644a4f24e8fe6b3e
https://gist.github.com/djadmin/737a77b87d0bad8a9c79
https://gist.github.com/adriaandens/722383ba4c717baf8007#level-6-follow-the-rabbit
https://gist.github.com/antoinebrl/f7b4d7a1b4465a739d8b#level-6-follow-the-x
https://gist.github.com/JannisKirschner/947b6d48058e2e2be17ec87436974b14#file-google_xss_game-solutions-txt-L52
https://www.doyler.net/security-not-included/google-xss-game
http://www.behindthefirewalls.com/2014/06/xss-game-by-google-exercises-4-5-and-6.html
https://h4ck3rprotocol.wordpress.com/2015/06/11/answers-for-xss-game/
http://offsec-sureshatt.blogspot.com/2017/04/google-xss-game-solving-level-6-final.html
http://paulsec.github.io/blog/2014/06/02/diving-into-xss-googles-game/
https://github.com/arsho/xss_game#level-6-follow-the-rabbit
https://youtu.be/IgMpEfgdDqU
https://gist.github.com/Harshish/2b2446b4f04aa05306913b730b5ba68d
https://tinyurl.com/y487zdpm
https://gsong.ru/download/tZVSuimQpDVhVk_SlLmwWw_google-xss-challenge-6.html
https://gist.githubusercontent.com/adriaandens/722383ba4c717baf8007/raw/c8e0e9f59353c671b82c450f66929907cbd82b62/xss-game.md
https://jeonyoungsin.tistory.com/477?category=815285
https://raw.githubusercontent.com/BruceGitHub/xss-google-game/master/README.md
https://raw.githubusercontent.com/djadmin/XSS-Challenges/master/Google's%20XSS%20game.txt
https://www.youtube.com/watch?v=NjFjZtgnB4I
https://www.youtube.com/watch?v=a4Lnp7UU58M
https://medium.com/bugdecoder/google-xss-game-walkthrough-70d801dd922
