https://www.youtube.com/watch?v=qgYYAVnMiBA
https://jeonyoungsin.tistory.com/195
https://taind.wordpress.com/2016/11/13/root-me-php-register-globals/
https://frogment.blogspot.com/2019/01/root-mephp-register-globals.html
https://blog.csdn.net/weixin_30881367/article/details/99600339
https://tgraph.io/CTF-Web-Zadaniya-s-Root-Me-chast-17-02-24
https://www.cnblogs.com/heycomputer/articles/10566221.html
http://n3k0.icu/2018/03/30/root-me-web-server/#PHP-register-globals
https://www.dazhuanlan.com/2019/11/24/5dda1dfda6c27/
https://bitbelle.wordpress.com/portfolio/root-me-web-server-challenge-solutions/
https://raw.githubusercontent.com/zyjsuper/root-me-4/master/Web-Server/PHP%20Register%20Globals
http://pianshen.com/article/248735224/;jsessionid=649F78066FB1FEA233862FBA097D4B79
