https://raw.githubusercontent.com/domfarolino/algorithms/master/src/algorithm_practice/Number_Algorithms/bonetrousle/bonetrousle.cpp
https://raw.githubusercontent.com/PeterASteele/HackerRankProblems/master/Bonetrousle.java
https://raw.githubusercontent.com/2997ms/HackerRank-1/master/solution/practice/algorithms/constructive-algorithms/bonetrousle/solution.py
