https://medium.com/bugbountywriteup/angstrom-ctf-2018-web-challenges-writeup-8a69998b0123
https://rawsec.ml/en/angstromctf-2018-write-ups/
https://www.pwndiary.com/write-ups/angstrom-ctf-2018-the-best-website-write-up-web230/
