https://raw.githubusercontent.com/DestructHub/ProjectEuler/master/Problem039/C/solution_1.c
https://raw.githubusercontent.com/zimpha/competitive-programming/master/project-euler/volume01/39.cc
https://raw.githubusercontent.com/DestructHub/ProjectEuler/master/Problem039/Elixir/solution_1.exs
https://raw.githubusercontent.com/kdungs/euler/master/039/euler_39.hs
https://raw.githubusercontent.com/nayuki/Project-Euler-solutions/master/java/p039.java
https://raw.githubusercontent.com/DestructHub/ProjectEuler/master/Problem039/CommonLisp/solution_1.lisp
https://raw.githubusercontent.com/sile/euler.rs/master/euler_01/src/problem039.rs
