https://www.youtube.com/watch?v=7jggyo6TTfE&amp;t=6s
http://ihack4falaf3l.tk/index.php/2016/11/19/pwning-metasploitable-walkthrough/
https://www.youtube.com/watch?v=-TwPb7SYAco&amp;t=5s
https://www.youtube.com/watch?v=Wv-x-ABI9Y0&amp;t=31s
https://www.youtube.com/watch?v=T5Fsk2gdKts&amp;t=655s
https://tehaurum.wordpress.com/2015/06/13/metasploitable-walkthrough-an-exploitation-guide/
http://overflowsecurity.com/metasploitable-without-metasploit-unreal-irc/
http://www.infosecisland.com/blogview/21151-Metasploitable-Gaining-Root-on-a-Vulnerable-Linux-System.html
http://www.infosecisland.com/blogview/21152-Practice-Linux-Penetration-Testing-Skills-with-Metasploitable.html
http://fallensnow-jack.blogspot.com/2012/01/learning-metasploitable-tikiwiki.html
http://fallensnow-jack.blogspot.com/2011/10/learning-metasploitable-distcc.html
http://world-of-dino.blogspot.co.uk/2011/04/playing-with-metasploitable-by-dino.html
https://blog.g0tmi1k.com/2010/07/metasploitable-distcc/
https://blog.g0tmi1k.com/2010/07/metasploitable-mysql/
https://blog.g0tmi1k.com/2010/07/metasploitable-postgresql/
https://blog.g0tmi1k.com/2010/07/metasploitable-tikiwiki/
https://blog.g0tmi1k.com/2010/07/metasploitable-tomcat/
https://www.youtube.com/watch?v=O_5N9_sZ3i8
https://www.youtube.com/watch?v=wnB5Ep9GnKA
