https://raw.githubusercontent.com/AzraelSec/CTFs/master/CTFLearn/Calculat3M3/exploit
http://www.programmersought.com/article/44141460828/;jsessionid=4D77E56414CA7B927BEC88182D7978F8
https://www.jianshu.com/p/1a8e7c47d5a1
https://www.youtube.com/watch?v=Qn2Whx1AXw8
