https://computersecuritystudent.com/SECURITY_TOOLS/MUTILLIDAE/MUTILLIDAE_2511/lesson17/index.html
https://www.irongeek.com/i.php?page=videos/web-application-pen-testing-tutorials-with-mutillidae
http://youtu.be/goCm1TCJ29g
https://www.youtube.com/watch?v=lCfWYIO0pdU&index=5&list=PLZOToVAK85MrsyNmNp0yyUTBXqKRTh623
http://y2u.be/lCfWYIO0pdU
shorturl.at/EMU03
