http://location-href.com/xvwa-walkthrough/
https://youtu.be/VF2QCQ0IZ3w
https://youtu.be/rIeJQqp4pzQ
http://pakvim.net/watch/rIeJQqp4pzQ
https://xerosecurity.com/wordpress/exploiting-php-serialization-object-injection-vulnerabilities/
