https://raw.githubusercontent.com/ilchen/cryptopals/master/src/main/java/com/cryptopals/Set6.java
https://raw.githubusercontent.com/akalin/cryptopals-python3/master/challenge47.py
https://raw.githubusercontent.com/technion/matasano_challenge/master/set6/chal47/chal47.rb
