https://raw.githubusercontent.com/p1o2p3u1/WeChall/master/Training/Warchall_The%20Beginning.md
http://winkar.github.io/2015/01/24/wechall.html
https://pengyang.me/2018/08/19/wechall/#28training-warchall---the-beginning
